/*
WARNING: Do NOT edit the input and output ports in this file in a text
editor if you plan to continue editing the block that represents it in
the Block Editor! File corruption is VERY likely to occur.
*/
/*
Copyright (C) 1991-2008 Altera Corporation
Your use of Altera Corporation's design tools, logic functions 
and other software and tools, and its AMPP partner logic 
functions, and any output files from any of the foregoing 
(including device programming or simulation files), and any 
associated documentation or information are expressly subject 
to the terms and conditions of the Altera Program License 
Subscription Agreement, Altera MegaCore Function License 
Agreement, or other applicable license agreement, including, 
without limitation, that your use is for the sole purpose of 
programming logic devices manufactured by Altera and sold by 
Altera or its authorized distributors.  Please refer to the 
applicable agreement for further details.
*/
//#pragma file_not_in_maxplusii_format
(header "graphic" (version "1.3"))
(pin
	(input)
	(rect 168 240 336 256)
	(text "INPUT" (rect 133 0 161 10)(font "Arial" (font_size 6)))
	(text "async_nreset" (rect 5 0 72 12)(font "Arial" ))
	(pt 168 8)
	(drawing
		(line (pt 92 12)(pt 117 12)(line_width 1))
		(line (pt 92 4)(pt 117 4)(line_width 1))
		(line (pt 121 8)(pt 168 8)(line_width 1))
		(line (pt 92 12)(pt 92 4)(line_width 1))
		(line (pt 117 4)(pt 121 8)(line_width 1))
		(line (pt 117 12)(pt 121 8)(line_width 1))
	)
	(text "VCC" (rect 136 7 156 17)(font "Arial" (font_size 6)))
	(annotation_block (location)(rect 96 256 152 272))
)
(pin
	(input)
	(rect 168 288 336 304)
	(text "INPUT" (rect 133 0 161 10)(font "Arial" (font_size 6)))
	(text "nResetCodec" (rect 5 0 72 12)(font "Arial" ))
	(pt 168 8)
	(drawing
		(line (pt 92 12)(pt 117 12)(line_width 1))
		(line (pt 92 4)(pt 117 4)(line_width 1))
		(line (pt 121 8)(pt 168 8)(line_width 1))
		(line (pt 92 12)(pt 92 4)(line_width 1))
		(line (pt 117 4)(pt 121 8)(line_width 1))
		(line (pt 117 12)(pt 121 8)(line_width 1))
	)
	(text "VCC" (rect 136 7 156 17)(font "Arial" (font_size 6)))
	(annotation_block (location)(rect 96 304 144 320))
)
(pin
	(input)
	(rect 168 304 336 320)
	(text "INPUT" (rect 133 0 161 10)(font "Arial" (font_size 6)))
	(text "nUpdateCodec" (rect 5 0 78 12)(font "Arial" ))
	(pt 168 8)
	(drawing
		(line (pt 92 12)(pt 117 12)(line_width 1))
		(line (pt 92 4)(pt 117 4)(line_width 1))
		(line (pt 121 8)(pt 168 8)(line_width 1))
		(line (pt 92 12)(pt 92 4)(line_width 1))
		(line (pt 117 4)(pt 121 8)(line_width 1))
		(line (pt 117 12)(pt 121 8)(line_width 1))
	)
	(text "VCC" (rect 136 7 156 17)(font "Arial" (font_size 6)))
	(annotation_block (location)(rect 104 320 152 336))
)
(pin
	(input)
	(rect 168 504 336 520)
	(text "INPUT" (rect 133 0 161 10)(font "Arial" (font_size 6)))
	(text "codecADCDAT" (rect 5 0 79 12)(font "Arial" ))
	(pt 168 8)
	(drawing
		(line (pt 92 12)(pt 117 12)(line_width 1))
		(line (pt 92 4)(pt 117 4)(line_width 1))
		(line (pt 121 8)(pt 168 8)(line_width 1))
		(line (pt 92 12)(pt 92 4)(line_width 1))
		(line (pt 117 4)(pt 121 8)(line_width 1))
		(line (pt 117 12)(pt 121 8)(line_width 1))
	)
	(text "VCC" (rect 136 7 156 17)(font "Arial" (font_size 6)))
	(annotation_block (location)(rect 112 720 160 736))
)
(pin
	(input)
	(rect 144 472 336 488)
	(text "INPUT" (rect 157 0 185 10)(font "Arial" (font_size 6)))
	(text "audioStreamInClock" (rect 5 0 104 12)(font "Arial" ))
	(pt 192 8)
	(drawing
		(line (pt 116 12)(pt 141 12)(line_width 1))
		(line (pt 116 4)(pt 141 4)(line_width 1))
		(line (pt 145 8)(pt 192 8)(line_width 1))
		(line (pt 116 12)(pt 116 4)(line_width 1))
		(line (pt 141 4)(pt 145 8)(line_width 1))
		(line (pt 141 12)(pt 145 8)(line_width 1))
	)
	(text "VCC" (rect 160 7 180 17)(font "Arial" (font_size 6)))
)
(pin
	(input)
	(rect 120 456 336 472)
	(text "INPUT" (rect 181 0 209 10)(font "Arial" (font_size 6)))
	(text "audioStreamInData[15..0]" (rect 5 0 131 12)(font "Arial" ))
	(pt 216 8)
	(drawing
		(line (pt 140 12)(pt 165 12)(line_width 1))
		(line (pt 140 4)(pt 165 4)(line_width 1))
		(line (pt 169 8)(pt 216 8)(line_width 1))
		(line (pt 140 12)(pt 140 4)(line_width 1))
		(line (pt 165 4)(pt 169 8)(line_width 1))
		(line (pt 165 12)(pt 169 8)(line_width 1))
	)
	(text "VCC" (rect 184 7 204 17)(font "Arial" (font_size 6)))
)
(pin
	(input)
	(rect 168 336 336 352)
	(text "INPUT" (rect 133 0 161 10)(font "Arial" (font_size 6)))
	(text "cfgData[8..0]" (rect 5 0 71 12)(font "Arial" ))
	(pt 168 8)
	(drawing
		(line (pt 92 12)(pt 117 12)(line_width 1))
		(line (pt 92 4)(pt 117 4)(line_width 1))
		(line (pt 121 8)(pt 168 8)(line_width 1))
		(line (pt 92 12)(pt 92 4)(line_width 1))
		(line (pt 117 4)(pt 121 8)(line_width 1))
		(line (pt 117 12)(pt 121 8)(line_width 1))
	)
	(text "VCC" (rect 136 7 156 17)(font "Arial" (font_size 6)))
	(annotation_block (location)(rect 96 352 152 480))
)
(pin
	(input)
	(rect 168 352 336 368)
	(text "INPUT" (rect 133 0 161 10)(font "Arial" (font_size 6)))
	(text "cfgAddr[3..0]" (rect 5 0 69 12)(font "Arial" ))
	(pt 168 8)
	(drawing
		(line (pt 92 12)(pt 117 12)(line_width 1))
		(line (pt 92 4)(pt 117 4)(line_width 1))
		(line (pt 121 8)(pt 168 8)(line_width 1))
		(line (pt 92 12)(pt 92 4)(line_width 1))
		(line (pt 117 4)(pt 121 8)(line_width 1))
		(line (pt 117 12)(pt 121 8)(line_width 1))
	)
	(text "VCC" (rect 136 7 156 17)(font "Arial" (font_size 6)))
	(annotation_block (location)(rect 104 368 152 424))
)
(pin
	(input)
	(rect 168 368 336 384)
	(text "INPUT" (rect 133 0 161 10)(font "Arial" (font_size 6)))
	(text "nCfgLatch" (rect 5 0 56 12)(font "Arial" ))
	(pt 168 8)
	(drawing
		(line (pt 92 12)(pt 117 12)(line_width 1))
		(line (pt 92 4)(pt 117 4)(line_width 1))
		(line (pt 121 8)(pt 168 8)(line_width 1))
		(line (pt 92 12)(pt 92 4)(line_width 1))
		(line (pt 117 4)(pt 121 8)(line_width 1))
		(line (pt 117 12)(pt 121 8)(line_width 1))
	)
	(text "VCC" (rect 136 7 156 17)(font "Arial" (font_size 6)))
	(annotation_block (location)(rect 96 384 152 400))
)
(pin
	(input)
	(rect 160 200 336 216)
	(text "INPUT" (rect 141 0 169 10)(font "Arial" (font_size 6)))
	(text "44k1Hz_frameClk" (rect 5 0 93 12)(font "Arial" ))
	(pt 176 8)
	(drawing
		(line (pt 100 12)(pt 125 12)(line_width 1))
		(line (pt 100 4)(pt 125 4)(line_width 1))
		(line (pt 129 8)(pt 176 8)(line_width 1))
		(line (pt 100 12)(pt 100 4)(line_width 1))
		(line (pt 125 4)(pt 129 8)(line_width 1))
		(line (pt 125 12)(pt 129 8)(line_width 1))
	)
	(text "VCC" (rect 144 7 164 17)(font "Arial" (font_size 6)))
)
(pin
	(input)
	(rect 104 176 336 192)
	(text "INPUT" (rect 197 0 225 10)(font "Arial" (font_size 6)))
	(text "11M28Hz_masterAudioClock" (rect 5 0 145 12)(font "Arial" ))
	(pt 232 8)
	(drawing
		(line (pt 156 12)(pt 181 12)(line_width 1))
		(line (pt 156 4)(pt 181 4)(line_width 1))
		(line (pt 185 8)(pt 232 8)(line_width 1))
		(line (pt 156 12)(pt 156 4)(line_width 1))
		(line (pt 181 4)(pt 185 8)(line_width 1))
		(line (pt 181 12)(pt 185 8)(line_width 1))
	)
	(text "VCC" (rect 200 7 220 17)(font "Arial" (font_size 6)))
	(annotation_block (location)(rect 120 176 168 192))
)
(pin
	(output)
	(rect 1200 488 1429 504)
	(text "OUTPUT" (rect 1 0 39 10)(font "Arial" (font_size 6)))
	(text "audioStreamOutData[15..0]" (rect 90 0 224 12)(font "Arial" ))
	(pt 0 8)
	(drawing
		(line (pt 0 8)(pt 52 8)(line_width 1))
		(line (pt 52 4)(pt 78 4)(line_width 1))
		(line (pt 52 12)(pt 78 12)(line_width 1))
		(line (pt 52 12)(pt 52 4)(line_width 1))
		(line (pt 78 4)(pt 82 8)(line_width 1))
		(line (pt 82 8)(pt 78 12)(line_width 1))
		(line (pt 78 12)(pt 82 8)(line_width 1))
	)
	(annotation_block (location)(rect 1712 624 1776 736))
)
(pin
	(output)
	(rect 1200 504 1402 520)
	(text "OUTPUT" (rect 1 0 39 10)(font "Arial" (font_size 6)))
	(text "audioStreamOutClock" (rect 90 0 197 12)(font "Arial" ))
	(pt 0 8)
	(drawing
		(line (pt 0 8)(pt 52 8)(line_width 1))
		(line (pt 52 4)(pt 78 4)(line_width 1))
		(line (pt 52 12)(pt 78 12)(line_width 1))
		(line (pt 52 12)(pt 52 4)(line_width 1))
		(line (pt 78 4)(pt 82 8)(line_width 1))
		(line (pt 82 8)(pt 78 12)(line_width 1))
		(line (pt 78 12)(pt 82 8)(line_width 1))
	)
	(annotation_block (location)(rect 1529 720 1577 736))
)
(pin
	(output)
	(rect 1200 472 1376 488)
	(text "OUTPUT" (rect 1 0 39 10)(font "Arial" (font_size 6)))
	(text "codecDACDAT" (rect 90 0 164 12)(font "Arial" ))
	(pt 0 8)
	(drawing
		(line (pt 0 8)(pt 52 8)(line_width 1))
		(line (pt 52 4)(pt 78 4)(line_width 1))
		(line (pt 52 12)(pt 78 12)(line_width 1))
		(line (pt 52 12)(pt 52 4)(line_width 1))
		(line (pt 78 4)(pt 82 8)(line_width 1))
		(line (pt 82 8)(pt 78 12)(line_width 1))
		(line (pt 78 12)(pt 82 8)(line_width 1))
	)
	(annotation_block (location)(rect 1528 688 1576 704))
)
(pin
	(output)
	(rect 1200 456 1377 472)
	(text "OUTPUT" (rect 1 0 39 10)(font "Arial" (font_size 6)))
	(text "codecDACLRCK" (rect 90 0 172 12)(font "Arial" ))
	(pt 0 8)
	(drawing
		(line (pt 0 8)(pt 52 8)(line_width 1))
		(line (pt 52 4)(pt 78 4)(line_width 1))
		(line (pt 52 12)(pt 78 12)(line_width 1))
		(line (pt 52 12)(pt 52 4)(line_width 1))
		(line (pt 78 4)(pt 82 8)(line_width 1))
		(line (pt 82 8)(pt 78 12)(line_width 1))
		(line (pt 78 12)(pt 82 8)(line_width 1))
	)
	(annotation_block (location)(rect 1529 672 1577 688))
)
(pin
	(output)
	(rect 1200 256 1376 272)
	(text "OUTPUT" (rect 1 0 39 10)(font "Arial" (font_size 6)))
	(text "SCLK" (rect 90 0 118 12)(font "Arial" ))
	(pt 0 8)
	(drawing
		(line (pt 0 8)(pt 52 8)(line_width 1))
		(line (pt 52 4)(pt 78 4)(line_width 1))
		(line (pt 52 12)(pt 78 12)(line_width 1))
		(line (pt 52 12)(pt 52 4)(line_width 1))
		(line (pt 78 4)(pt 82 8)(line_width 1))
		(line (pt 82 8)(pt 78 12)(line_width 1))
		(line (pt 78 12)(pt 82 8)(line_width 1))
	)
	(annotation_block (location)(rect 1304 272 1352 288))
)
(pin
	(output)
	(rect 1200 336 1378 352)
	(text "OUTPUT" (rect 1 0 39 10)(font "Arial" (font_size 6)))
	(text "cfgDataOut[8..0]" (rect 90 0 173 12)(font "Arial" ))
	(pt 0 8)
	(drawing
		(line (pt 0 8)(pt 52 8)(line_width 1))
		(line (pt 52 4)(pt 78 4)(line_width 1))
		(line (pt 52 12)(pt 78 12)(line_width 1))
		(line (pt 52 12)(pt 52 4)(line_width 1))
		(line (pt 78 4)(pt 82 8)(line_width 1))
		(line (pt 82 8)(pt 78 12)(line_width 1))
		(line (pt 78 12)(pt 82 8)(line_width 1))
	)
	(annotation_block (location)(rect 1304 352 1368 480))
)
(pin
	(output)
	(rect 1200 408 1379 424)
	(text "OUTPUT" (rect 1 0 39 10)(font "Arial" (font_size 6)))
	(text "codecSerialClock" (rect 90 0 174 12)(font "Arial" ))
	(pt 0 8)
	(drawing
		(line (pt 0 8)(pt 52 8)(line_width 1))
		(line (pt 52 4)(pt 78 4)(line_width 1))
		(line (pt 52 12)(pt 78 12)(line_width 1))
		(line (pt 52 12)(pt 52 4)(line_width 1))
		(line (pt 78 4)(pt 82 8)(line_width 1))
		(line (pt 82 8)(pt 78 12)(line_width 1))
		(line (pt 78 12)(pt 82 8)(line_width 1))
	)
	(annotation_block (location)(rect 1488 544 1536 560))
)
(pin
	(output)
	(rect 1200 304 1376 320)
	(text "OUTPUT" (rect 1 0 39 10)(font "Arial" (font_size 6)))
	(text "I2C_transErr" (rect 90 0 152 12)(font "Arial" ))
	(pt 0 8)
	(drawing
		(line (pt 0 8)(pt 52 8)(line_width 1))
		(line (pt 52 4)(pt 78 4)(line_width 1))
		(line (pt 52 12)(pt 78 12)(line_width 1))
		(line (pt 52 12)(pt 52 4)(line_width 1))
		(line (pt 78 4)(pt 82 8)(line_width 1))
		(line (pt 82 8)(pt 78 12)(line_width 1))
		(line (pt 78 12)(pt 82 8)(line_width 1))
	)
)
(pin
	(output)
	(rect 1200 288 1376 304)
	(text "OUTPUT" (rect 1 0 39 10)(font "Arial" (font_size 6)))
	(text "I2C_busy" (rect 90 0 138 12)(font "Arial" ))
	(pt 0 8)
	(drawing
		(line (pt 0 8)(pt 52 8)(line_width 1))
		(line (pt 52 4)(pt 78 4)(line_width 1))
		(line (pt 52 12)(pt 78 12)(line_width 1))
		(line (pt 52 12)(pt 52 4)(line_width 1))
		(line (pt 78 4)(pt 82 8)(line_width 1))
		(line (pt 82 8)(pt 78 12)(line_width 1))
		(line (pt 78 12)(pt 82 8)(line_width 1))
	)
)
(pin
	(bidir)
	(rect 1200 240 1376 256)
	(text "BIDIR" (rect 1 0 25 10)(font "Arial" (font_size 6)))
	(text "SDA" (rect 90 0 112 12)(font "Arial" ))
	(pt 0 8)
	(drawing
		(line (pt 56 4)(pt 78 4)(line_width 1))
		(line (pt 0 8)(pt 52 8)(line_width 1))
		(line (pt 56 12)(pt 78 12)(line_width 1))
		(line (pt 78 4)(pt 82 8)(line_width 1))
		(line (pt 78 12)(pt 82 8)(line_width 1))
		(line (pt 56 4)(pt 52 8)(line_width 1))
		(line (pt 52 8)(pt 56 12)(line_width 1))
	)
	(text "VCC" (rect 4 7 24 17)(font "Arial" (font_size 6)))
	(annotation_block (location)(rect 1304 256 1352 272))
)
(symbol
	(rect 800 216 1104 408)
	(text "wb_audioCFG_CFGctrl" (rect 5 0 135 14)(font "Arial" (font_size 8)))
	(text "inst1" (rect 8 176 31 188)(font "Arial" ))
	(port
		(pt 0 80)
		(input)
		(text "n_resetCodec" (rect 0 32 80 46)(font "Arial" (font_size 8)))
		(text "n_resetCodec" (rect 24 72 104 86)(font "Arial" (font_size 8)))
		(line (pt 0 80)(pt 16 80)(line_width 1))
	)
	(port
		(pt 0 96)
		(input)
		(text "n_updateCodec" (rect 0 32 89 46)(font "Arial" (font_size 8)))
		(text "n_updateCodec" (rect 24 88 113 102)(font "Arial" (font_size 8)))
		(line (pt 0 96)(pt 16 96)(line_width 1))
	)
	(port
		(pt 0 32)
		(input)
		(text "async_nreset" (rect 0 0 79 14)(font "Arial" (font_size 8)))
		(text "async_nreset" (rect 21 27 100 41)(font "Arial" (font_size 8)))
		(line (pt 0 32)(pt 16 32)(line_width 1))
	)
	(port
		(pt 0 48)
		(input)
		(text "clock" (rect 0 0 29 14)(font "Arial" (font_size 8)))
		(text "clock" (rect 21 43 50 57)(font "Arial" (font_size 8)))
		(line (pt 0 48)(pt 16 48)(line_width 1))
	)
	(port
		(pt 0 128)
		(input)
		(text "codecCfgDataIn[8..0]" (rect 0 0 119 14)(font "Arial" (font_size 8)))
		(text "codecCfgDataIn[8..0]" (rect 21 123 140 137)(font "Arial" (font_size 8)))
		(line (pt 0 128)(pt 16 128)(line_width 3))
	)
	(port
		(pt 0 144)
		(input)
		(text "codecCfgAddr[3..0]" (rect 0 0 112 14)(font "Arial" (font_size 8)))
		(text "codecCfgAddr[3..0]" (rect 21 139 133 153)(font "Arial" (font_size 8)))
		(line (pt 0 144)(pt 16 144)(line_width 3))
	)
	(port
		(pt 0 160)
		(input)
		(text "n_codecCfgLatch" (rect 0 0 101 14)(font "Arial" (font_size 8)))
		(text "n_codecCfgLatch" (rect 21 155 122 169)(font "Arial" (font_size 8)))
		(line (pt 0 160)(pt 16 160)(line_width 1))
	)
	(port
		(pt 304 80)
		(output)
		(text "Busy" (rect 0 0 29 14)(font "Arial" (font_size 8)))
		(text "Busy" (rect 254 75 283 89)(font "Arial" (font_size 8)))
		(line (pt 304 80)(pt 288 80)(line_width 1))
	)
	(port
		(pt 304 96)
		(output)
		(text "Error" (rect 0 0 28 14)(font "Arial" (font_size 8)))
		(text "Error" (rect 255 91 283 105)(font "Arial" (font_size 8)))
		(line (pt 304 96)(pt 288 96)(line_width 1))
	)
	(port
		(pt 304 48)
		(output)
		(text "sclk" (rect 0 0 22 14)(font "Arial" (font_size 8)))
		(text "sclk" (rect 261 43 283 57)(font "Arial" (font_size 8)))
		(line (pt 304 48)(pt 288 48)(line_width 1))
	)
	(port
		(pt 304 128)
		(output)
		(text "codecCfgDataOut[8..0]" (rect 0 0 129 14)(font "Arial" (font_size 8)))
		(text "codecCfgDataOut[8..0]" (rect 154 123 283 137)(font "Arial" (font_size 8)))
		(line (pt 304 128)(pt 288 128)(line_width 3))
	)
	(port
		(pt 304 32)
		(bidir)
		(text "sda" (rect 0 0 21 14)(font "Arial" (font_size 8)))
		(text "sda" (rect 262 27 283 41)(font "Arial" (font_size 8)))
		(line (pt 304 32)(pt 288 32)(line_width 1))
	)
	(drawing
		(rectangle (rect 16 16 288 176)(line_width 1))
	)
)
(symbol
	(rect 800 432 1144 592)
	(text "wb_audioStream_Interface" (rect 5 0 159 14)(font "Arial" (font_size 8)))
	(text "inst2" (rect 8 144 31 156)(font "Arial" ))
	(port
		(pt 0 80)
		(input)
		(text "codecSDI" (rect 0 0 54 14)(font "Arial" (font_size 8)))
		(text "codecSDI" (rect 21 75 75 89)(font "Arial" (font_size 8)))
		(line (pt 0 80)(pt 16 80)(line_width 1))
	)
	(port
		(pt 0 32)
		(input)
		(text "audioStreamIn[15..0]" (rect 0 0 115 14)(font "Arial" (font_size 8)))
		(text "audioStreamIn[15..0]" (rect 21 27 136 41)(font "Arial" (font_size 8)))
		(line (pt 0 32)(pt 16 32)(line_width 3))
	)
	(port
		(pt 0 48)
		(input)
		(text "audioStreamInClk" (rect 0 0 96 14)(font "Arial" (font_size 8)))
		(text "audioStreamInClk" (rect 21 43 117 57)(font "Arial" (font_size 8)))
		(line (pt 0 48)(pt 16 48)(line_width 1))
	)
	(port
		(pt 0 64)
		(input)
		(text "44k1Hz_frameClock" (rect 0 0 113 14)(font "Arial" (font_size 8)))
		(text "44k1Hz_frameClock" (rect 21 59 134 73)(font "Arial" (font_size 8)))
		(line (pt 0 64)(pt 16 64)(line_width 1))
	)
	(port
		(pt 0 96)
		(input)
		(text "async_nreset" (rect 0 0 79 14)(font "Arial" (font_size 8)))
		(text "async_nreset" (rect 21 91 100 105)(font "Arial" (font_size 8)))
		(line (pt 0 96)(pt 16 96)(line_width 1))
	)
	(port
		(pt 0 112)
		(input)
		(text "11M29Hz_masterAudioClock" (rect 0 0 162 14)(font "Arial" (font_size 8)))
		(text "11M29Hz_masterAudioClock" (rect 21 107 183 121)(font "Arial" (font_size 8)))
		(line (pt 0 112)(pt 16 112)(line_width 1))
	)
	(port
		(pt 344 48)
		(output)
		(text "codecSDO" (rect 0 0 61 14)(font "Arial" (font_size 8)))
		(text "codecSDO" (rect 262 43 323 57)(font "Arial" (font_size 8)))
		(line (pt 344 48)(pt 328 48)(line_width 1))
	)
	(port
		(pt 344 64)
		(output)
		(text "audioStreamOut[15..0]" (rect 0 0 126 14)(font "Arial" (font_size 8)))
		(text "audioStreamOut[15..0]" (rect 197 59 323 73)(font "Arial" (font_size 8)))
		(line (pt 344 64)(pt 328 64)(line_width 3))
	)
	(port
		(pt 344 80)
		(output)
		(text "audioStreamOutClk" (rect 0 0 107 14)(font "Arial" (font_size 8)))
		(text "audioStreamOutClk" (rect 216 75 323 89)(font "Arial" (font_size 8)))
		(line (pt 344 80)(pt 328 80)(line_width 1))
	)
	(port
		(pt 344 32)
		(output)
		(text "codecLRC" (rect 0 0 59 14)(font "Arial" (font_size 8)))
		(text "codecLRC" (rect 264 27 323 41)(font "Arial" (font_size 8)))
		(line (pt 344 32)(pt 328 32)(line_width 1))
	)
	(drawing
		(rectangle (rect 16 16 328 144)(line_width 1))
	)
)
(connector
	(pt 704 496)
	(pt 800 496)
)
(connector
	(pt 728 544)
	(pt 800 544)
)
(connector
	(pt 600 528)
	(pt 800 528)
)
(connector
	(pt 600 248)
	(pt 600 528)
)
(connector
	(pt 336 464)
	(pt 800 464)
	(bus)
)
(connector
	(pt 336 480)
	(pt 800 480)
)
(connector
	(pt 1144 464)
	(pt 1200 464)
)
(connector
	(pt 1144 480)
	(pt 1200 480)
)
(connector
	(pt 1144 496)
	(pt 1200 496)
	(bus)
)
(connector
	(pt 1144 512)
	(pt 1200 512)
)
(connector
	(pt 728 416)
	(pt 728 544)
)
(connector
	(pt 728 416)
	(pt 1200 416)
)
(connector
	(pt 1104 344)
	(pt 1200 344)
	(bus)
)
(connector
	(pt 1104 264)
	(pt 1200 264)
)
(connector
	(pt 1104 248)
	(pt 1200 248)
)
(connector
	(pt 800 512)
	(pt 336 512)
)
(connector
	(pt 800 296)
	(pt 336 296)
)
(connector
	(pt 800 312)
	(pt 336 312)
)
(connector
	(pt 800 344)
	(pt 336 344)
	(bus)
)
(connector
	(pt 800 360)
	(pt 336 360)
	(bus)
)
(connector
	(pt 800 376)
	(pt 336 376)
)
(connector
	(pt 600 248)
	(pt 800 248)
)
(connector
	(pt 1200 296)
	(pt 1104 296)
)
(connector
	(pt 1200 312)
	(pt 1104 312)
)
(connector
	(pt 728 264)
	(pt 800 264)
)
(connector
	(pt 728 184)
	(pt 728 264)
)
(connector
	(pt 728 264)
	(pt 728 416)
)
(connector
	(pt 336 248)
	(pt 600 248)
)
(connector
	(pt 704 496)
	(pt 704 208)
)
(connector
	(pt 336 208)
	(pt 704 208)
)
(connector
	(pt 336 184)
	(pt 728 184)
)
(junction (pt 600 248))
(junction (pt 728 416))
(junction (pt 728 264))
