/*
WARNING: Do NOT edit the input and output ports in this file in a text
editor if you plan to continue editing the block that represents it in
the Block Editor! File corruption is VERY likely to occur.
*/
/*
Copyright (C) 1991-2008 Altera Corporation
Your use of Altera Corporation's design tools, logic functions 
and other software and tools, and its AMPP partner logic 
functions, and any output files from any of the foregoing 
(including device programming or simulation files), and any 
associated documentation or information are expressly subject 
to the terms and conditions of the Altera Program License 
Subscription Agreement, Altera MegaCore Function License 
Agreement, or other applicable license agreement, including, 
without limitation, that your use is for the sole purpose of 
programming logic devices manufactured by Altera and sold by 
Altera or its authorized distributors.  Please refer to the 
applicable agreement for further details.
*/
//#pragma file_not_in_maxplusii_format
(header "graphic" (version "1.3"))
(pin
	(input)
	(rect 456 -392 624 -376)
	(text "INPUT" (rect 133 0 161 10)(font "Arial" (font_size 6)))
	(text "codecSDI" (rect 5 0 53 12)(font "Arial" ))
	(pt 168 8)
	(drawing
		(line (pt 92 12)(pt 117 12)(line_width 1))
		(line (pt 92 4)(pt 117 4)(line_width 1))
		(line (pt 121 8)(pt 168 8)(line_width 1))
		(line (pt 92 12)(pt 92 4)(line_width 1))
		(line (pt 117 4)(pt 121 8)(line_width 1))
		(line (pt 117 12)(pt 121 8)(line_width 1))
	)
	(text "VCC" (rect 136 7 156 17)(font "Arial" (font_size 6)))
)
(pin
	(input)
	(rect 432 -288 624 -272)
	(text "INPUT" (rect 157 0 185 10)(font "Arial" (font_size 6)))
	(text "audioStreamIn[15..0]" (rect 5 0 107 12)(font "Arial" ))
	(pt 192 8)
	(drawing
		(line (pt 116 12)(pt 141 12)(line_width 1))
		(line (pt 116 4)(pt 141 4)(line_width 1))
		(line (pt 145 8)(pt 192 8)(line_width 1))
		(line (pt 116 12)(pt 116 4)(line_width 1))
		(line (pt 141 4)(pt 145 8)(line_width 1))
		(line (pt 141 12)(pt 145 8)(line_width 1))
	)
	(text "VCC" (rect 160 7 180 17)(font "Arial" (font_size 6)))
)
(pin
	(input)
	(rect 400 160 632 176)
	(text "INPUT" (rect 197 0 225 10)(font "Arial" (font_size 6)))
	(text "11M29Hz_masterAudioClock" (rect 5 0 145 12)(font "Arial" ))
	(pt 232 8)
	(drawing
		(line (pt 156 12)(pt 181 12)(line_width 1))
		(line (pt 156 4)(pt 181 4)(line_width 1))
		(line (pt 185 8)(pt 232 8)(line_width 1))
		(line (pt 156 12)(pt 156 4)(line_width 1))
		(line (pt 181 4)(pt 185 8)(line_width 1))
		(line (pt 181 12)(pt 185 8)(line_width 1))
	)
	(text "VCC" (rect 200 7 220 17)(font "Arial" (font_size 6)))
)
(pin
	(input)
	(rect 464 144 632 160)
	(text "INPUT" (rect 133 0 161 10)(font "Arial" (font_size 6)))
	(text "async_nreset" (rect 5 0 72 12)(font "Arial" ))
	(pt 168 8)
	(drawing
		(line (pt 92 12)(pt 117 12)(line_width 1))
		(line (pt 92 4)(pt 117 4)(line_width 1))
		(line (pt 121 8)(pt 168 8)(line_width 1))
		(line (pt 92 12)(pt 92 4)(line_width 1))
		(line (pt 117 4)(pt 121 8)(line_width 1))
		(line (pt 117 12)(pt 121 8)(line_width 1))
	)
	(text "VCC" (rect 136 7 156 17)(font "Arial" (font_size 6)))
)
(pin
	(input)
	(rect 440 56 632 72)
	(text "INPUT" (rect 157 0 185 10)(font "Arial" (font_size 6)))
	(text "44k1Hz_frameClock" (rect 5 0 105 12)(font "Arial" ))
	(pt 192 8)
	(drawing
		(line (pt 116 12)(pt 141 12)(line_width 1))
		(line (pt 116 4)(pt 141 4)(line_width 1))
		(line (pt 145 8)(pt 192 8)(line_width 1))
		(line (pt 116 12)(pt 116 4)(line_width 1))
		(line (pt 141 4)(pt 145 8)(line_width 1))
		(line (pt 141 12)(pt 145 8)(line_width 1))
	)
	(text "VCC" (rect 160 7 180 17)(font "Arial" (font_size 6)))
)
(pin
	(input)
	(rect 448 -272 624 -256)
	(text "INPUT" (rect 141 0 169 10)(font "Arial" (font_size 6)))
	(text "audioStreamInClk" (rect 5 0 92 12)(font "Arial" ))
	(pt 176 8)
	(drawing
		(line (pt 100 12)(pt 125 12)(line_width 1))
		(line (pt 100 4)(pt 125 4)(line_width 1))
		(line (pt 129 8)(pt 176 8)(line_width 1))
		(line (pt 100 12)(pt 100 4)(line_width 1))
		(line (pt 125 4)(pt 129 8)(line_width 1))
		(line (pt 125 12)(pt 129 8)(line_width 1))
	)
	(text "VCC" (rect 144 7 164 17)(font "Arial" (font_size 6)))
)
(pin
	(output)
	(rect 2216 -368 2392 -352)
	(text "OUTPUT" (rect 1 0 39 10)(font "Arial" (font_size 6)))
	(text "codecSDO" (rect 90 0 143 12)(font "Arial" ))
	(pt 0 8)
	(drawing
		(line (pt 0 8)(pt 52 8)(line_width 1))
		(line (pt 52 4)(pt 78 4)(line_width 1))
		(line (pt 52 12)(pt 78 12)(line_width 1))
		(line (pt 52 12)(pt 52 4)(line_width 1))
		(line (pt 78 4)(pt 82 8)(line_width 1))
		(line (pt 82 8)(pt 78 12)(line_width 1))
		(line (pt 78 12)(pt 82 8)(line_width 1))
	)
)
(pin
	(output)
	(rect 2232 64 2408 80)
	(text "OUTPUT" (rect 1 0 39 10)(font "Arial" (font_size 6)))
	(text "codecLRC" (rect 90 0 141 12)(font "Arial" ))
	(pt 0 8)
	(drawing
		(line (pt 0 8)(pt 52 8)(line_width 1))
		(line (pt 52 4)(pt 78 4)(line_width 1))
		(line (pt 52 12)(pt 78 12)(line_width 1))
		(line (pt 52 12)(pt 52 4)(line_width 1))
		(line (pt 78 4)(pt 82 8)(line_width 1))
		(line (pt 82 8)(pt 78 12)(line_width 1))
		(line (pt 78 12)(pt 82 8)(line_width 1))
	)
)
(pin
	(output)
	(rect 2216 -296 2421 -280)
	(text "OUTPUT" (rect 1 0 39 10)(font "Arial" (font_size 6)))
	(text "audioStreamOut[15..0]" (rect 90 0 200 12)(font "Arial" ))
	(pt 0 8)
	(drawing
		(line (pt 0 8)(pt 52 8)(line_width 1))
		(line (pt 52 4)(pt 78 4)(line_width 1))
		(line (pt 52 12)(pt 78 12)(line_width 1))
		(line (pt 52 12)(pt 52 4)(line_width 1))
		(line (pt 78 4)(pt 82 8)(line_width 1))
		(line (pt 82 8)(pt 78 12)(line_width 1))
		(line (pt 78 12)(pt 82 8)(line_width 1))
	)
)
(pin
	(output)
	(rect 2224 -200 2414 -184)
	(text "OUTPUT" (rect 1 0 39 10)(font "Arial" (font_size 6)))
	(text "audioStreamOutClk" (rect 90 0 185 12)(font "Arial" ))
	(pt 0 8)
	(drawing
		(line (pt 0 8)(pt 52 8)(line_width 1))
		(line (pt 52 4)(pt 78 4)(line_width 1))
		(line (pt 52 12)(pt 78 12)(line_width 1))
		(line (pt 52 12)(pt 52 4)(line_width 1))
		(line (pt 78 4)(pt 82 8)(line_width 1))
		(line (pt 82 8)(pt 78 12)(line_width 1))
		(line (pt 78 12)(pt 82 8)(line_width 1))
	)
)
(symbol
	(rect 664 -304 728 -224)
	(text "DFF" (rect 1 0 19 10)(font "Arial" (font_size 6)))
	(text "inst30" (rect 3 68 32 80)(font "Arial" ))
	(port
		(pt 32 80)
		(input)
		(text "CLRN" (rect 21 59 44 71)(font "Courier New" (bold)))
		(text "CLRN" (rect 21 58 44 70)(font "Courier New" (bold)))
		(line (pt 32 80)(pt 32 76)(line_width 1))
	)
	(port
		(pt 0 40)
		(input)
		(text "CLK" (rect 3 29 20 41)(font "Courier New" (bold))(invisible))
		(text "CLK" (rect 3 29 20 41)(font "Courier New" (bold))(invisible))
		(line (pt 0 40)(pt 12 40)(line_width 1))
	)
	(port
		(pt 0 24)
		(input)
		(text "D" (rect 14 20 19 32)(font "Courier New" (bold)))
		(text "D" (rect 14 20 19 32)(font "Courier New" (bold)))
		(line (pt 0 24)(pt 12 24)(line_width 1))
	)
	(port
		(pt 32 0)
		(input)
		(text "PRN" (rect 24 13 41 25)(font "Courier New" (bold)))
		(text "PRN" (rect 24 11 41 23)(font "Courier New" (bold)))
		(line (pt 32 4)(pt 32 0)(line_width 1))
	)
	(port
		(pt 64 24)
		(output)
		(text "Q" (rect 45 20 50 32)(font "Courier New" (bold)))
		(text "Q" (rect 45 20 50 32)(font "Courier New" (bold)))
		(line (pt 52 24)(pt 64 24)(line_width 1))
	)
	(drawing
		(line (pt 12 12)(pt 52 12)(line_width 1))
		(line (pt 12 68)(pt 52 68)(line_width 1))
		(line (pt 52 68)(pt 52 12)(line_width 1))
		(line (pt 12 68)(pt 12 12)(line_width 1))
		(line (pt 19 40)(pt 12 47)(line_width 1))
		(line (pt 12 32)(pt 20 40)(line_width 1))
		(circle (rect 28 4 36 12)(line_width 1))
		(circle (rect 28 68 36 76)(line_width 1))
	)
)
(symbol
	(rect 824 -264 872 -232)
	(text "WIRE" (rect 1 0 24 10)(font "Arial" (font_size 6)))
	(text "inst22" (rect 3 21 32 33)(font "Arial" ))
	(port
		(pt 0 16)
		(input)
		(text "IN" (rect 2 7 13 19)(font "Courier New" (bold))(invisible))
		(text "IN" (rect 2 7 13 19)(font "Courier New" (bold))(invisible))
		(line (pt 0 16)(pt 14 16)(line_width 1))
	)
	(port
		(pt 48 16)
		(output)
		(text "OUT" (rect 32 7 49 19)(font "Courier New" (bold))(invisible))
		(text "OUT" (rect 32 7 49 19)(font "Courier New" (bold))(invisible))
		(line (pt 32 16)(pt 48 16)(line_width 1))
	)
	(drawing
		(line (pt 14 7)(pt 32 16)(line_width 1))
		(line (pt 14 25)(pt 14 7)(line_width 1))
		(line (pt 14 25)(pt 32 16)(line_width 1))
	)
)
(symbol
	(rect 824 -296 872 -264)
	(text "WIRE" (rect 1 0 24 10)(font "Arial" (font_size 6)))
	(text "inst23" (rect 3 21 32 33)(font "Arial" ))
	(port
		(pt 0 16)
		(input)
		(text "IN" (rect 2 7 13 19)(font "Courier New" (bold))(invisible))
		(text "IN" (rect 2 7 13 19)(font "Courier New" (bold))(invisible))
		(line (pt 0 16)(pt 14 16)(line_width 1))
	)
	(port
		(pt 48 16)
		(output)
		(text "OUT" (rect 32 7 49 19)(font "Courier New" (bold))(invisible))
		(text "OUT" (rect 32 7 49 19)(font "Courier New" (bold))(invisible))
		(line (pt 32 16)(pt 48 16)(line_width 1))
	)
	(drawing
		(line (pt 14 7)(pt 32 16)(line_width 1))
		(line (pt 14 25)(pt 14 7)(line_width 1))
		(line (pt 14 25)(pt 32 16)(line_width 1))
	)
)
(symbol
	(rect 1080 -128 1112 -112)
	(text "VCC" (rect 7 0 27 10)(font "Arial" (font_size 6)))
	(text "inst32" (rect 3 5 32 17)(font "Arial" )(invisible))
	(port
		(pt 16 16)
		(output)
		(text "1" (rect 19 7 24 19)(font "Courier New" (bold))(invisible))
		(text "1" (rect 19 7 24 19)(font "Courier New" (bold))(invisible))
		(line (pt 16 16)(pt 16 8)(line_width 1))
	)
	(drawing
		(line (pt 8 8)(pt 24 8)(line_width 1))
	)
)
(symbol
	(rect 1088 -320 1120 -304)
	(text "VCC" (rect 7 0 27 10)(font "Arial" (font_size 6)))
	(text "inst5" (rect 3 5 26 17)(font "Arial" )(invisible))
	(port
		(pt 16 16)
		(output)
		(text "1" (rect 19 7 24 19)(font "Courier New" (bold))(invisible))
		(text "1" (rect 19 7 24 19)(font "Courier New" (bold))(invisible))
		(line (pt 16 16)(pt 16 8)(line_width 1))
	)
	(drawing
		(line (pt 8 8)(pt 24 8)(line_width 1))
	)
)
(symbol
	(rect 1984 -312 2048 -232)
	(text "DFFE" (rect 1 0 25 10)(font "Arial" (font_size 6)))
	(text "inst11" (rect 3 68 32 80)(font "Arial" ))
	(port
		(pt 32 0)
		(input)
		(text "PRN" (rect 24 13 41 25)(font "Courier New" (bold)))
		(text "PRN" (rect 24 11 41 23)(font "Courier New" (bold)))
		(line (pt 32 4)(pt 32 0)(line_width 1))
	)
	(port
		(pt 32 80)
		(input)
		(text "CLRN" (rect 21 59 44 71)(font "Courier New" (bold)))
		(text "CLRN" (rect 21 58 44 70)(font "Courier New" (bold)))
		(line (pt 32 80)(pt 32 76)(line_width 1))
	)
	(port
		(pt 0 24)
		(input)
		(text "D" (rect 14 20 19 32)(font "Courier New" (bold)))
		(text "D" (rect 14 20 19 32)(font "Courier New" (bold)))
		(line (pt 0 24)(pt 12 24)(line_width 1))
	)
	(port
		(pt 0 40)
		(input)
		(text "CLK" (rect 2 28 19 40)(font "Courier New" (bold))(invisible))
		(text "CLK" (rect 2 28 19 40)(font "Courier New" (bold))(invisible))
		(line (pt 0 40)(pt 12 40)(line_width 1))
	)
	(port
		(pt 0 56)
		(input)
		(text "ENA" (rect 14 50 31 62)(font "Courier New" (bold)))
		(text "ENA" (rect 14 50 31 62)(font "Courier New" (bold)))
		(line (pt 0 56)(pt 12 56)(line_width 1))
	)
	(port
		(pt 64 24)
		(output)
		(text "Q" (rect 44 20 49 32)(font "Courier New" (bold)))
		(text "Q" (rect 44 20 49 32)(font "Courier New" (bold)))
		(line (pt 53 24)(pt 64 24)(line_width 1))
	)
	(drawing
		(line (pt 12 68)(pt 52 68)(line_width 1))
		(line (pt 12 12)(pt 52 12)(line_width 1))
		(line (pt 52 68)(pt 52 12)(line_width 1))
		(line (pt 12 68)(pt 12 12)(line_width 1))
		(line (pt 12 34)(pt 19 41)(line_width 1))
		(line (pt 18 41)(pt 12 47)(line_width 1))
		(circle (rect 28 4 36 12)(line_width 1))
		(circle (rect 28 68 36 76)(line_width 1))
	)
)
(symbol
	(rect 736 40 800 120)
	(text "DFF" (rect 1 0 19 10)(font "Arial" (font_size 6)))
	(text "inst19" (rect 3 68 32 80)(font "Arial" ))
	(port
		(pt 32 80)
		(input)
		(text "CLRN" (rect 21 59 44 71)(font "Courier New" (bold)))
		(text "CLRN" (rect 21 58 44 70)(font "Courier New" (bold)))
		(line (pt 32 80)(pt 32 76)(line_width 1))
	)
	(port
		(pt 0 40)
		(input)
		(text "CLK" (rect 3 29 20 41)(font "Courier New" (bold))(invisible))
		(text "CLK" (rect 3 29 20 41)(font "Courier New" (bold))(invisible))
		(line (pt 0 40)(pt 12 40)(line_width 1))
	)
	(port
		(pt 0 24)
		(input)
		(text "D" (rect 14 20 19 32)(font "Courier New" (bold)))
		(text "D" (rect 14 20 19 32)(font "Courier New" (bold)))
		(line (pt 0 24)(pt 12 24)(line_width 1))
	)
	(port
		(pt 32 0)
		(input)
		(text "PRN" (rect 24 13 41 25)(font "Courier New" (bold)))
		(text "PRN" (rect 24 11 41 23)(font "Courier New" (bold)))
		(line (pt 32 4)(pt 32 0)(line_width 1))
	)
	(port
		(pt 64 24)
		(output)
		(text "Q" (rect 45 20 50 32)(font "Courier New" (bold)))
		(text "Q" (rect 45 20 50 32)(font "Courier New" (bold)))
		(line (pt 52 24)(pt 64 24)(line_width 1))
	)
	(drawing
		(line (pt 12 12)(pt 52 12)(line_width 1))
		(line (pt 12 68)(pt 52 68)(line_width 1))
		(line (pt 52 68)(pt 52 12)(line_width 1))
		(line (pt 12 68)(pt 12 12)(line_width 1))
		(line (pt 19 40)(pt 12 47)(line_width 1))
		(line (pt 12 32)(pt 20 40)(line_width 1))
		(circle (rect 28 4 36 12)(line_width 1))
		(circle (rect 28 68 36 76)(line_width 1))
	)
)
(symbol
	(rect 1984 -184 2048 -104)
	(text "DFF" (rect 1 0 19 10)(font "Arial" (font_size 6)))
	(text "inst14" (rect 3 68 32 80)(font "Arial" ))
	(port
		(pt 32 80)
		(input)
		(text "CLRN" (rect 21 59 44 71)(font "Courier New" (bold)))
		(text "CLRN" (rect 21 58 44 70)(font "Courier New" (bold)))
		(line (pt 32 80)(pt 32 76)(line_width 1))
	)
	(port
		(pt 0 40)
		(input)
		(text "CLK" (rect 3 29 20 41)(font "Courier New" (bold))(invisible))
		(text "CLK" (rect 3 29 20 41)(font "Courier New" (bold))(invisible))
		(line (pt 0 40)(pt 12 40)(line_width 1))
	)
	(port
		(pt 0 24)
		(input)
		(text "D" (rect 14 20 19 32)(font "Courier New" (bold)))
		(text "D" (rect 14 20 19 32)(font "Courier New" (bold)))
		(line (pt 0 24)(pt 12 24)(line_width 1))
	)
	(port
		(pt 32 0)
		(input)
		(text "PRN" (rect 24 13 41 25)(font "Courier New" (bold)))
		(text "PRN" (rect 24 11 41 23)(font "Courier New" (bold)))
		(line (pt 32 4)(pt 32 0)(line_width 1))
	)
	(port
		(pt 64 24)
		(output)
		(text "Q" (rect 45 20 50 32)(font "Courier New" (bold)))
		(text "Q" (rect 45 20 50 32)(font "Courier New" (bold)))
		(line (pt 52 24)(pt 64 24)(line_width 1))
	)
	(drawing
		(line (pt 12 12)(pt 52 12)(line_width 1))
		(line (pt 12 68)(pt 52 68)(line_width 1))
		(line (pt 52 68)(pt 52 12)(line_width 1))
		(line (pt 12 68)(pt 12 12)(line_width 1))
		(line (pt 19 40)(pt 12 47)(line_width 1))
		(line (pt 12 32)(pt 20 40)(line_width 1))
		(circle (rect 28 4 36 12)(line_width 1))
		(circle (rect 28 68 36 76)(line_width 1))
	)
)
(symbol
	(rect 2136 -216 2200 -168)
	(text "NOR3" (rect 1 0 26 10)(font "Arial" (font_size 6)))
	(text "inst2" (rect 3 37 26 49)(font "Arial" ))
	(port
		(pt 0 16)
		(input)
		(text "IN1" (rect 2 7 19 19)(font "Courier New" (bold))(invisible))
		(text "IN1" (rect 2 7 19 19)(font "Courier New" (bold))(invisible))
		(line (pt 0 16)(pt 14 16)(line_width 1))
	)
	(port
		(pt 0 24)
		(input)
		(text "IN2" (rect 2 15 19 27)(font "Courier New" (bold))(invisible))
		(text "IN2" (rect 2 15 19 27)(font "Courier New" (bold))(invisible))
		(line (pt 0 24)(pt 16 24)(line_width 1))
	)
	(port
		(pt 0 32)
		(input)
		(text "IN3" (rect 2 23 19 35)(font "Courier New" (bold))(invisible))
		(text "IN3" (rect 2 23 19 35)(font "Courier New" (bold))(invisible))
		(line (pt 0 32)(pt 14 32)(line_width 1))
	)
	(port
		(pt 64 24)
		(output)
		(text "OUT" (rect 48 15 65 27)(font "Courier New" (bold))(invisible))
		(text "OUT" (rect 48 15 65 27)(font "Courier New" (bold))(invisible))
		(line (pt 54 24)(pt 64 24)(line_width 1))
	)
	(drawing
		(line (pt 12 13)(pt 23 13)(line_width 1))
		(line (pt 12 36)(pt 23 36)(line_width 1))
		(arc (pt 5 29)(pt 5 19)(rect -16 8 17 41)(line_width 1))
		(arc (pt 23 35)(pt 46 24)(rect -6 -23 53 36)(line_width 1))
		(arc (pt 46 24)(pt 23 13)(rect -6 13 53 72)(line_width 1))
		(circle (rect 46 20 54 28)(line_width 1))
	)
)
(symbol
	(rect 2040 -56 2104 24)
	(text "DFF" (rect 1 0 19 10)(font "Arial" (font_size 6)))
	(text "inst3" (rect 3 68 26 80)(font "Arial" ))
	(port
		(pt 32 80)
		(input)
		(text "CLRN" (rect 21 59 44 71)(font "Courier New" (bold)))
		(text "CLRN" (rect 21 58 44 70)(font "Courier New" (bold)))
		(line (pt 32 80)(pt 32 76)(line_width 1))
	)
	(port
		(pt 0 40)
		(input)
		(text "CLK" (rect 3 29 20 41)(font "Courier New" (bold))(invisible))
		(text "CLK" (rect 3 29 20 41)(font "Courier New" (bold))(invisible))
		(line (pt 0 40)(pt 12 40)(line_width 1))
	)
	(port
		(pt 0 24)
		(input)
		(text "D" (rect 14 20 19 32)(font "Courier New" (bold)))
		(text "D" (rect 14 20 19 32)(font "Courier New" (bold)))
		(line (pt 0 24)(pt 12 24)(line_width 1))
	)
	(port
		(pt 32 0)
		(input)
		(text "PRN" (rect 24 13 41 25)(font "Courier New" (bold)))
		(text "PRN" (rect 24 11 41 23)(font "Courier New" (bold)))
		(line (pt 32 4)(pt 32 0)(line_width 1))
	)
	(port
		(pt 64 24)
		(output)
		(text "Q" (rect 45 20 50 32)(font "Courier New" (bold)))
		(text "Q" (rect 45 20 50 32)(font "Courier New" (bold)))
		(line (pt 52 24)(pt 64 24)(line_width 1))
	)
	(drawing
		(line (pt 12 12)(pt 52 12)(line_width 1))
		(line (pt 12 68)(pt 52 68)(line_width 1))
		(line (pt 52 68)(pt 52 12)(line_width 1))
		(line (pt 12 68)(pt 12 12)(line_width 1))
		(line (pt 19 40)(pt 12 47)(line_width 1))
		(line (pt 12 32)(pt 20 40)(line_width 1))
		(circle (rect 28 4 36 12)(line_width 1))
		(circle (rect 28 68 36 76)(line_width 1))
	)
)
(symbol
	(rect 1968 -32 2016 0)
	(text "NOT" (rect 1 0 21 10)(font "Arial" (font_size 6)))
	(text "inst6" (rect 3 21 26 33)(font "Arial" ))
	(port
		(pt 0 16)
		(input)
		(text "IN" (rect 2 7 13 19)(font "Courier New" (bold))(invisible))
		(text "IN" (rect 2 7 13 19)(font "Courier New" (bold))(invisible))
		(line (pt 0 16)(pt 13 16)(line_width 1))
	)
	(port
		(pt 48 16)
		(output)
		(text "OUT" (rect 32 7 49 19)(font "Courier New" (bold))(invisible))
		(text "OUT" (rect 32 7 49 19)(font "Courier New" (bold))(invisible))
		(line (pt 39 16)(pt 48 16)(line_width 1))
	)
	(drawing
		(line (pt 13 25)(pt 13 7)(line_width 1))
		(line (pt 13 7)(pt 31 16)(line_width 1))
		(line (pt 13 25)(pt 31 16)(line_width 1))
		(circle (rect 31 12 39 20)(line_width 1))
	)
)
(symbol
	(rect 1504 -160 1568 -80)
	(text "DFF" (rect 1 0 19 10)(font "Arial" (font_size 6)))
	(text "inst15" (rect 3 68 32 80)(font "Arial" ))
	(port
		(pt 32 80)
		(input)
		(text "CLRN" (rect 21 59 44 71)(font "Courier New" (bold)))
		(text "CLRN" (rect 21 58 44 70)(font "Courier New" (bold)))
		(line (pt 32 80)(pt 32 76)(line_width 1))
	)
	(port
		(pt 0 40)
		(input)
		(text "CLK" (rect 3 29 20 41)(font "Courier New" (bold))(invisible))
		(text "CLK" (rect 3 29 20 41)(font "Courier New" (bold))(invisible))
		(line (pt 0 40)(pt 12 40)(line_width 1))
	)
	(port
		(pt 0 24)
		(input)
		(text "D" (rect 14 20 19 32)(font "Courier New" (bold)))
		(text "D" (rect 14 20 19 32)(font "Courier New" (bold)))
		(line (pt 0 24)(pt 12 24)(line_width 1))
	)
	(port
		(pt 32 0)
		(input)
		(text "PRN" (rect 24 13 41 25)(font "Courier New" (bold)))
		(text "PRN" (rect 24 11 41 23)(font "Courier New" (bold)))
		(line (pt 32 4)(pt 32 0)(line_width 1))
	)
	(port
		(pt 64 24)
		(output)
		(text "Q" (rect 45 20 50 32)(font "Courier New" (bold)))
		(text "Q" (rect 45 20 50 32)(font "Courier New" (bold)))
		(line (pt 52 24)(pt 64 24)(line_width 1))
	)
	(drawing
		(line (pt 12 12)(pt 52 12)(line_width 1))
		(line (pt 12 68)(pt 52 68)(line_width 1))
		(line (pt 52 68)(pt 52 12)(line_width 1))
		(line (pt 12 68)(pt 12 12)(line_width 1))
		(line (pt 19 40)(pt 12 47)(line_width 1))
		(line (pt 12 32)(pt 20 40)(line_width 1))
		(circle (rect 28 4 36 12)(line_width 1))
		(circle (rect 28 68 36 76)(line_width 1))
	)
)
(symbol
	(rect 1640 -152 1704 -104)
	(text "AND2" (rect 1 0 25 10)(font "Arial" (font_size 6)))
	(text "inst16" (rect 3 37 32 49)(font "Arial" ))
	(port
		(pt 0 16)
		(input)
		(text "IN1" (rect 2 7 19 19)(font "Courier New" (bold))(invisible))
		(text "IN1" (rect 2 7 19 19)(font "Courier New" (bold))(invisible))
		(line (pt 0 16)(pt 14 16)(line_width 1))
	)
	(port
		(pt 0 32)
		(input)
		(text "IN2" (rect 2 23 19 35)(font "Courier New" (bold))(invisible))
		(text "IN2" (rect 2 23 19 35)(font "Courier New" (bold))(invisible))
		(line (pt 0 32)(pt 14 32)(line_width 1))
	)
	(port
		(pt 64 24)
		(output)
		(text "OUT" (rect 48 15 65 27)(font "Courier New" (bold))(invisible))
		(text "OUT" (rect 48 15 65 27)(font "Courier New" (bold))(invisible))
		(line (pt 42 24)(pt 64 24)(line_width 1))
	)
	(drawing
		(line (pt 14 12)(pt 30 12)(line_width 1))
		(line (pt 14 37)(pt 31 37)(line_width 1))
		(line (pt 14 12)(pt 14 37)(line_width 1))
		(arc (pt 31 37)(pt 30 12)(rect 18 12 43 37)(line_width 1))
	)
)
(symbol
	(rect 1576 -152 1624 -120)
	(text "NOT" (rect 1 0 21 10)(font "Arial" (font_size 6)))
	(text "inst17" (rect 3 21 32 33)(font "Arial" ))
	(port
		(pt 0 16)
		(input)
		(text "IN" (rect 2 7 13 19)(font "Courier New" (bold))(invisible))
		(text "IN" (rect 2 7 13 19)(font "Courier New" (bold))(invisible))
		(line (pt 0 16)(pt 13 16)(line_width 1))
	)
	(port
		(pt 48 16)
		(output)
		(text "OUT" (rect 32 7 49 19)(font "Courier New" (bold))(invisible))
		(text "OUT" (rect 32 7 49 19)(font "Courier New" (bold))(invisible))
		(line (pt 39 16)(pt 48 16)(line_width 1))
	)
	(drawing
		(line (pt 13 25)(pt 13 7)(line_width 1))
		(line (pt 13 7)(pt 31 16)(line_width 1))
		(line (pt 13 25)(pt 31 16)(line_width 1))
		(circle (rect 31 12 39 20)(line_width 1))
	)
)
(symbol
	(rect 888 40 952 120)
	(text "DFF" (rect 1 0 19 10)(font "Arial" (font_size 6)))
	(text "inst18" (rect 3 68 32 80)(font "Arial" ))
	(port
		(pt 32 80)
		(input)
		(text "CLRN" (rect 21 59 44 71)(font "Courier New" (bold)))
		(text "CLRN" (rect 21 58 44 70)(font "Courier New" (bold)))
		(line (pt 32 80)(pt 32 76)(line_width 1))
	)
	(port
		(pt 0 40)
		(input)
		(text "CLK" (rect 3 29 20 41)(font "Courier New" (bold))(invisible))
		(text "CLK" (rect 3 29 20 41)(font "Courier New" (bold))(invisible))
		(line (pt 0 40)(pt 12 40)(line_width 1))
	)
	(port
		(pt 0 24)
		(input)
		(text "D" (rect 14 20 19 32)(font "Courier New" (bold)))
		(text "D" (rect 14 20 19 32)(font "Courier New" (bold)))
		(line (pt 0 24)(pt 12 24)(line_width 1))
	)
	(port
		(pt 32 0)
		(input)
		(text "PRN" (rect 24 13 41 25)(font "Courier New" (bold)))
		(text "PRN" (rect 24 11 41 23)(font "Courier New" (bold)))
		(line (pt 32 4)(pt 32 0)(line_width 1))
	)
	(port
		(pt 64 24)
		(output)
		(text "Q" (rect 45 20 50 32)(font "Courier New" (bold)))
		(text "Q" (rect 45 20 50 32)(font "Courier New" (bold)))
		(line (pt 52 24)(pt 64 24)(line_width 1))
	)
	(drawing
		(line (pt 12 12)(pt 52 12)(line_width 1))
		(line (pt 12 68)(pt 52 68)(line_width 1))
		(line (pt 52 68)(pt 52 12)(line_width 1))
		(line (pt 12 68)(pt 12 12)(line_width 1))
		(line (pt 19 40)(pt 12 47)(line_width 1))
		(line (pt 12 32)(pt 20 40)(line_width 1))
		(circle (rect 28 4 36 12)(line_width 1))
		(circle (rect 28 68 36 76)(line_width 1))
	)
)
(symbol
	(rect 1024 48 1088 96)
	(text "AND2" (rect 1 0 25 10)(font "Arial" (font_size 6)))
	(text "inst20" (rect 3 37 32 49)(font "Arial" ))
	(port
		(pt 0 16)
		(input)
		(text "IN1" (rect 2 7 19 19)(font "Courier New" (bold))(invisible))
		(text "IN1" (rect 2 7 19 19)(font "Courier New" (bold))(invisible))
		(line (pt 0 16)(pt 14 16)(line_width 1))
	)
	(port
		(pt 0 32)
		(input)
		(text "IN2" (rect 2 23 19 35)(font "Courier New" (bold))(invisible))
		(text "IN2" (rect 2 23 19 35)(font "Courier New" (bold))(invisible))
		(line (pt 0 32)(pt 14 32)(line_width 1))
	)
	(port
		(pt 64 24)
		(output)
		(text "OUT" (rect 48 15 65 27)(font "Courier New" (bold))(invisible))
		(text "OUT" (rect 48 15 65 27)(font "Courier New" (bold))(invisible))
		(line (pt 42 24)(pt 64 24)(line_width 1))
	)
	(drawing
		(line (pt 14 12)(pt 30 12)(line_width 1))
		(line (pt 14 37)(pt 31 37)(line_width 1))
		(line (pt 14 12)(pt 14 37)(line_width 1))
		(arc (pt 31 37)(pt 30 12)(rect 18 12 43 37)(line_width 1))
	)
)
(symbol
	(rect 960 48 1008 80)
	(text "NOT" (rect 1 0 21 10)(font "Arial" (font_size 6)))
	(text "inst21" (rect 3 21 32 33)(font "Arial" ))
	(port
		(pt 0 16)
		(input)
		(text "IN" (rect 2 7 13 19)(font "Courier New" (bold))(invisible))
		(text "IN" (rect 2 7 13 19)(font "Courier New" (bold))(invisible))
		(line (pt 0 16)(pt 13 16)(line_width 1))
	)
	(port
		(pt 48 16)
		(output)
		(text "OUT" (rect 32 7 49 19)(font "Courier New" (bold))(invisible))
		(text "OUT" (rect 32 7 49 19)(font "Courier New" (bold))(invisible))
		(line (pt 39 16)(pt 48 16)(line_width 1))
	)
	(drawing
		(line (pt 13 25)(pt 13 7)(line_width 1))
		(line (pt 13 7)(pt 31 16)(line_width 1))
		(line (pt 13 25)(pt 31 16)(line_width 1))
		(circle (rect 31 12 39 20)(line_width 1))
	)
)
(symbol
	(rect 1656 -320 1888 -224)
	(text "wb_audioStream_stereoToMono" (rect 5 0 190 14)(font "Arial" (font_size 8)))
	(text "inst4" (rect 8 80 31 92)(font "Arial" ))
	(port
		(pt 0 32)
		(input)
		(text "inDataRight[15..0]" (rect 0 0 99 14)(font "Arial" (font_size 8)))
		(text "inDataRight[15..0]" (rect 21 27 120 41)(font "Arial" (font_size 8)))
		(line (pt 0 32)(pt 16 32)(line_width 3))
	)
	(port
		(pt 0 48)
		(input)
		(text "inDataLeft[15..0]" (rect 0 0 93 14)(font "Arial" (font_size 8)))
		(text "inDataLeft[15..0]" (rect 21 43 114 57)(font "Arial" (font_size 8)))
		(line (pt 0 48)(pt 16 48)(line_width 3))
	)
	(port
		(pt 232 32)
		(output)
		(text "outData[15..0]" (rect 0 0 79 14)(font "Arial" (font_size 8)))
		(text "outData[15..0]" (rect 132 27 211 41)(font "Arial" (font_size 8)))
		(line (pt 232 32)(pt 216 32)(line_width 3))
	)
	(drawing
		(rectangle (rect 16 16 216 80)(line_width 1))
	)
)
(symbol
	(rect 1216 -392 1424 -232)
	(text "wb_block_serDes" (rect 5 0 91 12)(font "Arial" ))
	(text "inst9" (rect 8 144 31 156)(font "Arial" ))
	(port
		(pt 0 32)
		(input)
		(text "clk" (rect 0 0 14 12)(font "Arial" ))
		(text "clk" (rect 21 27 35 39)(font "Arial" ))
		(line (pt 0 32)(pt 16 32)(line_width 1))
	)
	(port
		(pt 0 48)
		(input)
		(text "async_nreset" (rect 0 0 67 12)(font "Arial" ))
		(text "async_nreset" (rect 21 43 88 55)(font "Arial" ))
		(line (pt 0 48)(pt 16 48)(line_width 1))
	)
	(port
		(pt 0 64)
		(input)
		(text "le" (rect 0 0 8 12)(font "Arial" ))
		(text "le" (rect 21 59 29 71)(font "Arial" ))
		(line (pt 0 64)(pt 16 64)(line_width 1))
	)
	(port
		(pt 0 80)
		(input)
		(text "enable" (rect 0 0 31 12)(font "Arial" ))
		(text "enable" (rect 21 75 52 87)(font "Arial" ))
		(line (pt 0 80)(pt 16 80)(line_width 1))
	)
	(port
		(pt 0 96)
		(input)
		(text "msb_first" (rect 0 0 47 12)(font "Arial" ))
		(text "msb_first" (rect 21 91 68 103)(font "Arial" ))
		(line (pt 0 96)(pt 16 96)(line_width 1))
	)
	(port
		(pt 0 112)
		(input)
		(text "sdi" (rect 0 0 14 12)(font "Arial" ))
		(text "sdi" (rect 21 107 35 119)(font "Arial" ))
		(line (pt 0 112)(pt 16 112)(line_width 1))
	)
	(port
		(pt 0 128)
		(input)
		(text "d[wordsize-1..0]" (rect 0 0 76 12)(font "Arial" ))
		(text "d[wordsize-1..0]" (rect 21 123 97 135)(font "Arial" ))
		(line (pt 0 128)(pt 16 128)(line_width 3))
	)
	(port
		(pt 208 32)
		(output)
		(text "sdo" (rect 0 0 17 12)(font "Arial" ))
		(text "sdo" (rect 170 27 187 39)(font "Arial" ))
		(line (pt 208 32)(pt 192 32)(line_width 1))
	)
	(port
		(pt 208 48)
		(output)
		(text "q[wordsize-1..0]" (rect 0 0 76 12)(font "Arial" ))
		(text "q[wordsize-1..0]" (rect 111 43 187 55)(font "Arial" ))
		(line (pt 208 48)(pt 192 48)(line_width 3))
	)
	(parameter
		"wordsize"
		"32"
		""
	)
	(drawing
		(rectangle (rect 16 16 192 144)(line_width 1))
	)
	(annotation_block (parameter)(rect 1320 -232 1424 -200))
)
(symbol
	(rect 1216 -168 1368 -40)
	(text "wb_block_oneShotDownCounter" (rect 5 0 161 12)(font "Arial" ))
	(text "inst10" (rect 8 112 37 124)(font "Arial" ))
	(port
		(pt 0 32)
		(input)
		(text "clk" (rect 0 0 14 12)(font "Arial" ))
		(text "clk" (rect 21 27 35 39)(font "Arial" ))
		(line (pt 0 32)(pt 16 32)(line_width 1))
	)
	(port
		(pt 0 48)
		(input)
		(text "async_nreset" (rect 0 0 67 12)(font "Arial" ))
		(text "async_nreset" (rect 21 43 88 55)(font "Arial" ))
		(line (pt 0 48)(pt 16 48)(line_width 1))
	)
	(port
		(pt 0 64)
		(input)
		(text "le" (rect 0 0 8 12)(font "Arial" ))
		(text "le" (rect 21 59 29 71)(font "Arial" ))
		(line (pt 0 64)(pt 16 64)(line_width 1))
	)
	(port
		(pt 0 80)
		(input)
		(text "ce" (rect 0 0 11 12)(font "Arial" ))
		(text "ce" (rect 21 75 32 87)(font "Arial" ))
		(line (pt 0 80)(pt 16 80)(line_width 1))
	)
	(port
		(pt 0 96)
		(input)
		(text "d[wordsize-1..0]" (rect 0 0 76 12)(font "Arial" ))
		(text "d[wordsize-1..0]" (rect 21 91 97 103)(font "Arial" ))
		(line (pt 0 96)(pt 16 96)(line_width 3))
	)
	(port
		(pt 152 32)
		(output)
		(text "zero" (rect 0 0 20 12)(font "Arial" ))
		(text "zero" (rect 111 27 131 39)(font "Arial" ))
		(line (pt 152 32)(pt 136 32)(line_width 1))
	)
	(parameter
		"wordsize"
		"6"
		""
	)
	(drawing
		(rectangle (rect 16 16 136 112)(line_width 1))
	)
	(annotation_block (parameter)(rect 1264 -40 1368 -8))
)
(symbol
	(rect 936 -104 1064 -40)
	(text "wb_block_constantToBusBinary" (rect 5 0 160 12)(font "Arial" ))
	(text "inst" (rect 8 48 25 60)(font "Arial" ))
	(port
		(pt 128 32)
		(output)
		(text "q[wordsize-1..0]" (rect 0 0 76 12)(font "Arial" ))
		(text "q[wordsize-1..0]" (rect 31 27 107 39)(font "Arial" ))
		(line (pt 128 32)(pt 112 32)(line_width 3))
	)
	(parameter
		"wordsize"
		"6"
		""
	)
	(parameter
		"constantValue"
		"32"
		""
	)
	(drawing
		(rectangle (rect 16 16 112 48)(line_width 1))
	)
	(annotation_block (parameter)(rect 824 -104 936 -56))
)
(connector
	(pt 1216 -312)
	(pt 1192 -312)
)
(connector
	(pt 1192 -312)
	(pt 1192 -296)
)
(connector
	(text "shiftRegOut[31..0]" (rect 1426 -336 1518 -324)(font "Arial" ))
	(pt 1424 -344)
	(pt 1528 -344)
	(bus)
)
(connector
	(pt 2016 -224)
	(pt 2016 -232)
)
(connector
	(text "shiftRegOut[15..0]" (rect 1554 -304 1646 -292)(font "Arial" ))
	(pt 1528 -288)
	(pt 1656 -288)
	(bus)
)
(connector
	(text "shiftRegOut[31..16]" (rect 1554 -288 1651 -276)(font "Arial" ))
	(pt 1528 -272)
	(pt 1656 -272)
	(bus)
)
(connector
	(pt 1528 -344)
	(pt 1528 -288)
	(bus)
)
(connector
	(pt 1528 -288)
	(pt 1528 -272)
	(bus)
)
(connector
	(pt 1888 -288)
	(pt 1984 -288)
	(bus)
)
(connector
	(pt 1104 -296)
	(pt 1104 -304)
)
(connector
	(pt 1104 -296)
	(pt 1192 -296)
)
(connector
	(pt 1192 -296)
	(pt 1216 -296)
)
(connector
	(pt 1216 -280)
	(pt 1080 -280)
)
(connector
	(text "shiftRegIn[31..0]" (rect 986 -280 1069 -268)(font "Arial" ))
	(pt 1216 -264)
	(pt 976 -264)
	(bus)
)
(connector
	(text "shiftRegIn[31..16]" (rect 882 -264 971 -252)(font "Arial" ))
	(pt 872 -248)
	(pt 976 -248)
	(bus)
)
(connector
	(text "shiftRegIn[15..0]" (rect 882 -296 965 -284)(font "Arial" ))
	(pt 872 -280)
	(pt 976 -280)
	(bus)
)
(connector
	(pt 976 -280)
	(pt 976 -264)
	(bus)
)
(connector
	(pt 976 -264)
	(pt 976 -248)
	(bus)
)
(connector
	(pt 1216 -120)
	(pt 1128 -120)
)
(connector
	(pt 1216 -344)
	(pt 1128 -344)
)
(connector
	(pt 1216 -360)
	(pt 1144 -360)
)
(connector
	(pt 1144 -136)
	(pt 1216 -136)
)
(connector
	(pt 1432 168)
	(pt 1432 -120)
)
(connector
	(pt 1128 -344)
	(pt 1128 -120)
)
(connector
	(pt 1128 -120)
	(pt 1128 152)
)
(connector
	(pt 1144 -360)
	(pt 1144 -136)
)
(connector
	(pt 1144 -136)
	(pt 1144 168)
)
(connector
	(pt 2016 -224)
	(pt 1952 -224)
)
(connector
	(pt 1984 -272)
	(pt 1936 -272)
)
(connector
	(pt 1984 -256)
	(pt 1920 -256)
)
(connector
	(pt 1952 32)
	(pt 2072 32)
)
(connector
	(pt 2016 -16)
	(pt 2040 -16)
)
(connector
	(pt 1968 -16)
	(pt 1936 -16)
)
(connector
	(pt 2040 -32)
	(pt 2024 -32)
)
(connector
	(pt 2024 -32)
	(pt 2024 -48)
)
(connector
	(pt 2024 -48)
	(pt 1920 -48)
)
(connector
	(text "clock" (rect 1282 152 1307 164)(font "Arial" ))
	(pt 1144 168)
	(pt 1432 168)
)
(connector
	(pt 1432 168)
	(pt 1936 168)
)
(connector
	(pt 1952 32)
	(pt 1952 152)
)
(connector
	(pt 1936 -16)
	(pt 1936 168)
)
(connector
	(pt 1952 -72)
	(pt 2016 -72)
)
(connector
	(pt 1920 -160)
	(pt 1984 -160)
)
(connector
	(pt 1936 -144)
	(pt 1984 -144)
)
(connector
	(pt 2096 -160)
	(pt 2048 -160)
)
(connector
	(pt 1952 -224)
	(pt 1952 -72)
)
(connector
	(pt 1952 -72)
	(pt 1952 32)
)
(connector
	(pt 1936 -272)
	(pt 1936 -144)
)
(connector
	(pt 1936 -144)
	(pt 1936 -16)
)
(connector
	(pt 2016 -104)
	(pt 2016 -72)
)
(connector
	(pt 2096 -160)
	(pt 2096 -192)
)
(connector
	(pt 1920 -256)
	(pt 1920 -200)
)
(connector
	(pt 1920 -200)
	(pt 1920 -160)
)
(connector
	(pt 1920 -200)
	(pt 2136 -200)
)
(connector
	(pt 2096 -192)
	(pt 2136 -192)
)
(connector
	(pt 2104 -32)
	(pt 2120 -32)
)
(connector
	(pt 2120 -32)
	(pt 2120 -184)
)
(connector
	(pt 2136 -184)
	(pt 2120 -184)
)
(connector
	(pt 2200 -192)
	(pt 2224 -192)
)
(connector
	(pt 2048 -288)
	(pt 2216 -288)
	(bus)
)
(connector
	(pt 1424 -360)
	(pt 2216 -360)
)
(connector
	(pt 1216 -88)
	(pt 1096 -88)
)
(connector
	(pt 1096 -88)
	(pt 1096 -112)
)
(connector
	(pt 1064 -72)
	(pt 1216 -72)
	(bus)
)
(connector
	(pt 1216 -328)
	(pt 1160 -328)
)
(connector
	(pt 1160 -104)
	(pt 1216 -104)
)
(connector
	(pt 1160 -328)
	(pt 1160 -104)
)
(connector
	(pt 800 -280)
	(pt 800 -248)
	(bus)
)
(connector
	(pt 824 -248)
	(pt 800 -248)
	(bus)
)
(connector
	(pt 696 152)
	(pt 696 -224)
)
(connector
	(text "InData[15..0]" (rect 738 -296 802 -284)(font "Arial" ))
	(pt 728 -280)
	(pt 800 -280)
	(bus)
)
(connector
	(pt 800 -280)
	(pt 824 -280)
	(bus)
)
(connector
	(pt 624 -264)
	(pt 664 -264)
)
(connector
	(pt 624 -280)
	(pt 664 -280)
	(bus)
)
(connector
	(pt 1080 -280)
	(pt 1080 -384)
)
(connector
	(pt 1080 -384)
	(pt 624 -384)
)
(connector
	(pt 632 152)
	(pt 696 152)
)
(connector
	(pt 2072 32)
	(pt 2072 24)
)
(connector
	(pt 1536 -64)
	(pt 1536 -80)
)
(connector
	(pt 1432 -120)
	(pt 1504 -120)
)
(connector
	(pt 1448 152)
	(pt 1448 -64)
)
(connector
	(text "async_nreset" (rect 1282 136 1349 148)(font "Arial" ))
	(pt 1128 152)
	(pt 1448 152)
)
(connector
	(pt 1448 152)
	(pt 1952 152)
)
(connector
	(pt 1448 -64)
	(pt 1536 -64)
)
(connector
	(pt 1568 -136)
	(pt 1576 -136)
)
(connector
	(text "dataOutLatch" (rect 1730 -144 1796 -132)(font "Arial" ))
	(pt 1920 -128)
	(pt 1704 -128)
)
(connector
	(pt 1920 -160)
	(pt 1920 -128)
)
(connector
	(pt 1920 -128)
	(pt 1920 -48)
)
(connector
	(pt 1624 -136)
	(pt 1640 -136)
)
(connector
	(pt 1640 -120)
	(pt 1632 -120)
)
(connector
	(pt 1480 -136)
	(pt 1480 -72)
)
(connector
	(pt 1480 -72)
	(pt 1632 -72)
)
(connector
	(pt 1632 -120)
	(pt 1632 -72)
)
(connector
	(pt 1368 -136)
	(pt 1480 -136)
)
(connector
	(pt 1480 -136)
	(pt 1504 -136)
)
(connector
	(pt 632 64)
	(pt 736 64)
)
(connector
	(pt 728 168)
	(pt 728 80)
)
(connector
	(pt 728 80)
	(pt 736 80)
)
(connector
	(pt 632 168)
	(pt 728 168)
)
(connector
	(pt 816 168)
	(pt 816 80)
)
(connector
	(pt 728 168)
	(pt 816 168)
)
(connector
	(pt 816 168)
	(pt 1144 168)
)
(connector
	(pt 952 64)
	(pt 960 64)
)
(connector
	(pt 1008 64)
	(pt 1024 64)
)
(connector
	(pt 1024 80)
	(pt 1016 80)
)
(connector
	(pt 864 64)
	(pt 864 128)
)
(connector
	(pt 864 128)
	(pt 1016 128)
)
(connector
	(pt 1016 80)
	(pt 1016 128)
)
(connector
	(pt 816 80)
	(pt 888 80)
)
(connector
	(pt 800 64)
	(pt 864 64)
)
(connector
	(pt 864 64)
	(pt 888 64)
)
(connector
	(pt 920 120)
	(pt 920 152)
)
(connector
	(pt 696 152)
	(pt 920 152)
)
(connector
	(pt 920 152)
	(pt 1128 152)
)
(connector
	(pt 1160 -104)
	(pt 1160 72)
)
(connector
	(pt 1088 72)
	(pt 1160 72)
)
(connector
	(text "frameStartPulse" (rect 1354 56 1434 68)(font "Arial" ))
	(pt 1160 72)
	(pt 2232 72)
)
(junction (pt 1192 -296))
(junction (pt 1144 168))
(junction (pt 1128 152))
(junction (pt 1528 -288))
(junction (pt 1432 168))
(junction (pt 1448 152))
(junction (pt 976 -264))
(junction (pt 1128 -120))
(junction (pt 1144 -136))
(junction (pt 1952 -72))
(junction (pt 1952 32))
(junction (pt 1936 -16))
(junction (pt 1920 -160))
(junction (pt 1936 -144))
(junction (pt 1920 -200))
(junction (pt 1160 -104))
(junction (pt 800 -280))
(junction (pt 696 152))
(junction (pt 1480 -136))
(junction (pt 1920 -128))
(junction (pt 728 168))
(junction (pt 816 168))
(junction (pt 864 64))
(junction (pt 920 152))
(junction (pt 1160 72))
(text "Output register" (rect 1984 -336 2068 -322)(font "Arial" (font_size 8)))
(text "clock to the 11M29Hz clock" (rect 728 16 882 30)(font "Arial" (font_size 8)))
(text "Serializer / deserializer" (rect 1232 -408 1361 -394)(font "Arial" (font_size 8)))
(text "Detect the flank of the zero" (rect 1472 -208 1626 -194)(font "Arial" (font_size 8)))
(text "output from the bit coutner" (rect 1472 -192 1621 -178)(font "Arial" (font_size 8)))
(text "into a 32 bit data stream" (rect 912 -328 1047 -314)(font "Arial" (font_size 8)))
(text "Merge right and left channel" (rect 912 -344 1070 -330)(font "Arial" (font_size 8)))
(text "Splitt mono signal to" (rect 768 -344 880 -330)(font "Arial" (font_size 8)))
(text "both stereo channels" (rect 768 -328 888 -314)(font "Arial" (font_size 8)))
(text "Data synchronisation" (rect 632 -352 752 -338)(font "Arial" (font_size 8)))
(text "input buffer" (rect 664 -336 730 -322)(font "Arial" (font_size 8)))
(text "Bit counter for SerDes" (rect 1216 -184 1343 -170)(font "Arial" (font_size 8)))
(text "Mix stereo channels into one mono channel" (rect 1664 -344 1909 -330)(font "Arial" (font_size 8)))
(text "Number of bits for the" (rect 936 -136 1059 -122)(font "Arial" (font_size 8)))
(text "bit coutner to count" (rect 936 -120 1045 -106)(font "Arial" (font_size 8)))
(text "Synchronize the flank of the 44k1Hz" (rect 728 0 934 14)(font "Arial" (font_size 8)))
(text "Detect rising flank of the 44k1Hz clock" (rect 896 24 1113 38)(font "Arial" (font_size 8)))
(text "To avoid hazzard on dataOutValid" (rect 2112 -8 2305 6)(font "Arial" (font_size 8)))
