/*
WARNING: Do NOT edit the input and output ports in this file in a text
editor if you plan to continue editing the block that represents it in
the Block Editor! File corruption is VERY likely to occur.
*/
/*
Copyright (C) 1991-2008 Altera Corporation
Your use of Altera Corporation's design tools, logic functions 
and other software and tools, and its AMPP partner logic 
functions, and any output files from any of the foregoing 
(including device programming or simulation files), and any 
associated documentation or information are expressly subject 
to the terms and conditions of the Altera Program License 
Subscription Agreement, Altera MegaCore Function License 
Agreement, or other applicable license agreement, including, 
without limitation, that your use is for the sole purpose of 
programming logic devices manufactured by Altera and sold by 
Altera or its authorized distributors.  Please refer to the 
applicable agreement for further details.
*/
//#pragma file_not_in_maxplusii_format
(header "graphic" (version "1.3"))
(pin
	(input)
	(rect 64 136 232 152)
	(text "INPUT" (rect 133 0 161 10)(font "Arial" (font_size 6)))
	(text "MTOR[15..0]" (rect 5 0 67 12)(font "Arial" ))
	(pt 168 8)
	(drawing
		(line (pt 92 12)(pt 117 12)(line_width 1))
		(line (pt 92 4)(pt 117 4)(line_width 1))
		(line (pt 121 8)(pt 168 8)(line_width 1))
		(line (pt 92 12)(pt 92 4)(line_width 1))
		(line (pt 117 4)(pt 121 8)(line_width 1))
		(line (pt 117 12)(pt 121 8)(line_width 1))
	)
	(text "VCC" (rect 136 7 156 17)(font "Arial" (font_size 6)))
)
(pin
	(input)
	(rect 64 280 232 296)
	(text "INPUT" (rect 133 0 161 10)(font "Arial" (font_size 6)))
	(text "RESET_N" (rect 5 0 54 12)(font "Arial" ))
	(pt 168 8)
	(drawing
		(line (pt 92 12)(pt 117 12)(line_width 1))
		(line (pt 92 4)(pt 117 4)(line_width 1))
		(line (pt 121 8)(pt 168 8)(line_width 1))
		(line (pt 92 12)(pt 92 4)(line_width 1))
		(line (pt 117 4)(pt 121 8)(line_width 1))
		(line (pt 117 12)(pt 121 8)(line_width 1))
	)
	(text "VCC" (rect 136 7 156 17)(font "Arial" (font_size 6)))
)
(pin
	(input)
	(rect 64 224 232 240)
	(text "INPUT" (rect 133 0 161 10)(font "Arial" (font_size 6)))
	(text "CLK" (rect 5 0 26 12)(font "Arial" ))
	(pt 168 8)
	(drawing
		(line (pt 92 12)(pt 117 12)(line_width 1))
		(line (pt 92 4)(pt 117 4)(line_width 1))
		(line (pt 121 8)(pt 168 8)(line_width 1))
		(line (pt 92 12)(pt 92 4)(line_width 1))
		(line (pt 117 4)(pt 121 8)(line_width 1))
		(line (pt 117 12)(pt 121 8)(line_width 1))
	)
	(text "VCC" (rect 136 7 156 17)(font "Arial" (font_size 6)))
)
(pin
	(input)
	(rect 64 152 232 168)
	(text "INPUT" (rect 133 0 161 10)(font "Arial" (font_size 6)))
	(text "LOAD" (rect 5 0 34 12)(font "Arial" ))
	(pt 168 8)
	(drawing
		(line (pt 92 12)(pt 117 12)(line_width 1))
		(line (pt 92 4)(pt 117 4)(line_width 1))
		(line (pt 121 8)(pt 168 8)(line_width 1))
		(line (pt 92 12)(pt 92 4)(line_width 1))
		(line (pt 117 4)(pt 121 8)(line_width 1))
		(line (pt 117 12)(pt 121 8)(line_width 1))
	)
	(text "VCC" (rect 136 7 156 17)(font "Arial" (font_size 6)))
)
(pin
	(input)
	(rect 64 192 232 208)
	(text "INPUT" (rect 133 0 161 10)(font "Arial" (font_size 6)))
	(text "LSR" (rect 5 0 26 12)(font "Arial" ))
	(pt 168 8)
	(drawing
		(line (pt 92 12)(pt 117 12)(line_width 1))
		(line (pt 92 4)(pt 117 4)(line_width 1))
		(line (pt 121 8)(pt 168 8)(line_width 1))
		(line (pt 92 12)(pt 92 4)(line_width 1))
		(line (pt 117 4)(pt 121 8)(line_width 1))
		(line (pt 117 12)(pt 121 8)(line_width 1))
	)
	(text "VCC" (rect 136 7 156 17)(font "Arial" (font_size 6)))
)
(pin
	(output)
	(rect 744 168 920 184)
	(text "OUTPUT" (rect 1 0 39 10)(font "Arial" (font_size 6)))
	(text "MTOR_LSB" (rect 90 0 146 12)(font "Arial" ))
	(pt 0 8)
	(drawing
		(line (pt 0 8)(pt 52 8)(line_width 1))
		(line (pt 52 4)(pt 78 4)(line_width 1))
		(line (pt 52 12)(pt 78 12)(line_width 1))
		(line (pt 52 12)(pt 52 4)(line_width 1))
		(line (pt 78 4)(pt 82 8)(line_width 1))
		(line (pt 82 8)(pt 78 12)(line_width 1))
		(line (pt 78 12)(pt 82 8)(line_width 1))
	)
)
(symbol
	(rect 272 272 320 304)
	(text "NOT" (rect 1 0 21 10)(font "Arial" (font_size 6)))
	(text "inst3" (rect 3 21 26 33)(font "Arial" ))
	(port
		(pt 0 16)
		(input)
		(text "IN" (rect 2 7 13 19)(font "Courier New" (bold))(invisible))
		(text "IN" (rect 2 7 13 19)(font "Courier New" (bold))(invisible))
		(line (pt 0 16)(pt 13 16)(line_width 1))
	)
	(port
		(pt 48 16)
		(output)
		(text "OUT" (rect 32 7 49 19)(font "Courier New" (bold))(invisible))
		(text "OUT" (rect 32 7 49 19)(font "Courier New" (bold))(invisible))
		(line (pt 39 16)(pt 48 16)(line_width 1))
	)
	(drawing
		(line (pt 13 25)(pt 13 7)(line_width 1))
		(line (pt 13 7)(pt 31 16)(line_width 1))
		(line (pt 13 25)(pt 31 16)(line_width 1))
		(circle (rect 31 12 39 20)(line_width 1))
	)
)
(symbol
	(rect 376 168 440 216)
	(text "OR2" (rect 1 0 19 10)(font "Arial" (font_size 6)))
	(text "inst1" (rect 3 37 26 49)(font "Arial" ))
	(port
		(pt 0 32)
		(input)
		(text "IN2" (rect 2 23 19 35)(font "Courier New" (bold))(invisible))
		(text "IN2" (rect 2 23 19 35)(font "Courier New" (bold))(invisible))
		(line (pt 0 32)(pt 15 32)(line_width 1))
	)
	(port
		(pt 0 16)
		(input)
		(text "IN1" (rect 2 7 19 19)(font "Courier New" (bold))(invisible))
		(text "IN1" (rect 2 7 19 19)(font "Courier New" (bold))(invisible))
		(line (pt 0 16)(pt 15 16)(line_width 1))
	)
	(port
		(pt 64 24)
		(output)
		(text "OUT" (rect 48 15 65 27)(font "Courier New" (bold))(invisible))
		(text "OUT" (rect 48 15 65 27)(font "Courier New" (bold))(invisible))
		(line (pt 48 24)(pt 64 24)(line_width 1))
	)
	(drawing
		(line (pt 14 36)(pt 25 36)(line_width 1))
		(line (pt 14 13)(pt 25 13)(line_width 1))
		(arc (pt 7 29)(pt 7 19)(rect -14 8 19 41)(line_width 1))
		(arc (pt 49 24)(pt 25 13)(rect -6 13 57 76)(line_width 1))
		(arc (pt 25 35)(pt 49 24)(rect -6 -27 57 36)(line_width 1))
	)
)
(symbol
	(rect 472 240 504 272)
	(text "GND" (rect 8 16 29 26)(font "Arial" (font_size 6)))
	(text "inst2" (rect 3 21 26 33)(font "Arial" )(invisible))
	(port
		(pt 16 0)
		(output)
		(text "1" (rect 18 0 23 12)(font "Courier New" (bold))(invisible))
		(text "1" (rect 18 0 23 12)(font "Courier New" (bold))(invisible))
		(line (pt 16 8)(pt 16 0)(line_width 1))
	)
	(drawing
		(line (pt 8 8)(pt 16 16)(line_width 1))
		(line (pt 16 16)(pt 24 8)(line_width 1))
		(line (pt 8 8)(pt 24 8)(line_width 1))
	)
)
(symbol
	(rect 512 112 656 256)
	(text "lpm_shiftreg0" (rect 34 1 124 17)(font "Arial" (font_size 10)))
	(text "inst" (rect 8 128 25 140)(font "Arial" ))
	(port
		(pt 0 48)
		(input)
		(text "load" (rect 0 0 23 14)(font "Arial" (font_size 8)))
		(text "load" (rect 20 42 43 56)(font "Arial" (font_size 8)))
		(line (pt 0 48)(pt 16 48)(line_width 1))
	)
	(port
		(pt 0 32)
		(input)
		(text "data[15..0]" (rect 0 0 60 14)(font "Arial" (font_size 8)))
		(text "data[15..0]" (rect 20 26 80 40)(font "Arial" (font_size 8)))
		(line (pt 0 32)(pt 16 32)(line_width 3))
	)
	(port
		(pt 0 96)
		(input)
		(text "clock" (rect 0 0 29 14)(font "Arial" (font_size 8)))
		(text "clock" (rect 26 88 55 102)(font "Arial" (font_size 8)))
		(line (pt 0 96)(pt 16 96)(line_width 1))
	)
	(port
		(pt 0 80)
		(input)
		(text "enable" (rect 0 0 37 14)(font "Arial" (font_size 8)))
		(text "enable" (rect 20 72 57 86)(font "Arial" (font_size 8)))
		(line (pt 0 80)(pt 16 80)(line_width 1))
	)
	(port
		(pt 0 112)
		(input)
		(text "shiftin" (rect 0 0 34 14)(font "Arial" (font_size 8)))
		(text "shiftin" (rect 20 106 54 120)(font "Arial" (font_size 8)))
		(line (pt 0 112)(pt 16 112)(line_width 1))
	)
	(port
		(pt 80 144)
		(input)
		(text "aclr" (rect 0 0 14 21)(font "Arial" (font_size 8))(vertical))
		(text "aclr" (rect 73 107 87 128)(font "Arial" (font_size 8))(vertical))
		(line (pt 80 144)(pt 80 128)(line_width 1))
	)
	(port
		(pt 144 64)
		(output)
		(text "shiftout" (rect 0 0 42 14)(font "Arial" (font_size 8)))
		(text "shiftout" (rect 89 58 131 72)(font "Arial" (font_size 8)))
		(line (pt 144 64)(pt 128 64)(line_width 1))
	)
	(drawing
		(text "right shift" (rect 88 17 135 29)(font "Arial" ))
		(line (pt 16 16)(pt 128 16)(line_width 1))
		(line (pt 128 16)(pt 128 128)(line_width 1))
		(line (pt 128 128)(pt 16 128)(line_width 1))
		(line (pt 16 128)(pt 16 16)(line_width 1))
		(line (pt 16 88)(pt 22 94)(line_width 1))
		(line (pt 22 94)(pt 16 100)(line_width 1))
	)
)
(connector
	(pt 512 144)
	(pt 232 144)
	(bus)
)
(connector
	(pt 376 184)
	(pt 360 184)
)
(connector
	(pt 360 184)
	(pt 360 160)
)
(connector
	(pt 232 160)
	(pt 360 160)
)
(connector
	(pt 360 160)
	(pt 512 160)
)
(connector
	(pt 440 192)
	(pt 512 192)
)
(connector
	(pt 232 288)
	(pt 272 288)
)
(connector
	(pt 320 288)
	(pt 592 288)
)
(connector
	(pt 376 200)
	(pt 232 200)
)
(connector
	(pt 512 208)
	(pt 464 208)
)
(connector
	(pt 232 232)
	(pt 464 232)
)
(connector
	(pt 464 208)
	(pt 464 232)
)
(connector
	(pt 512 224)
	(pt 488 224)
)
(connector
	(pt 488 224)
	(pt 488 240)
)
(connector
	(pt 656 176)
	(pt 744 176)
)
(connector
	(pt 592 256)
	(pt 592 288)
)
(junction (pt 360 160))
