/*
WARNING: Do NOT edit the input and output ports in this file in a text
editor if you plan to continue editing the block that represents it in
the Block Editor! File corruption is VERY likely to occur.
*/
/*
Copyright (C) 1991-2008 Altera Corporation
Your use of Altera Corporation's design tools, logic functions 
and other software and tools, and its AMPP partner logic 
functions, and any output files from any of the foregoing 
(including device programming or simulation files), and any 
associated documentation or information are expressly subject 
to the terms and conditions of the Altera Program License 
Subscription Agreement, Altera MegaCore Function License 
Agreement, or other applicable license agreement, including, 
without limitation, that your use is for the sole purpose of 
programming logic devices manufactured by Altera and sold by 
Altera or its authorized distributors.  Please refer to the 
applicable agreement for further details.
*/
//#pragma file_not_in_maxplusii_format
(header "graphic" (version "1.3"))
(global
	(rect 432 8 720 48)
	(parameter)
	(text "PARAM" (rect 3 -1 46 13)(font "Arial" (font_size 8)))
	(text "DEFAULT VALUE" (rect 141 0 229 12)(font "Arial" ))
	(text "busWidth" (rect 3 16 56 30)(font "Arial" (font_size 8)))
	(text " NAME" (rect 108 0 142 12)(font "Arial" ))
	(text "8" (rect 141 16 148 30)(font "Arial" (font_size 8)))
	(drawing
		(line (pt 138 40)(pt 138 0)(line_width 1))
	)
)
(pin
	(input)
	(rect 224 192 392 208)
	(text "INPUT" (rect 133 0 161 10)(font "Arial" (font_size 6)))
	(text "sel" (rect 5 0 19 12)(font "Arial" ))
	(pt 168 8)
	(drawing
		(line (pt 92 12)(pt 117 12)(line_width 1))
		(line (pt 92 4)(pt 117 4)(line_width 1))
		(line (pt 121 8)(pt 168 8)(line_width 1))
		(line (pt 92 12)(pt 92 4)(line_width 1))
		(line (pt 117 4)(pt 121 8)(line_width 1))
		(line (pt 117 12)(pt 121 8)(line_width 1))
	)
	(text "VCC" (rect 136 7 156 17)(font "Arial" (font_size 6)))
)
(pin
	(input)
	(rect 200 80 392 96)
	(text "INPUT" (rect 157 0 185 10)(font "Arial" (font_size 6)))
	(text "data0[busWidth-1..0]" (rect 5 0 107 12)(font "Arial" ))
	(pt 192 8)
	(drawing
		(line (pt 116 12)(pt 141 12)(line_width 1))
		(line (pt 116 4)(pt 141 4)(line_width 1))
		(line (pt 145 8)(pt 192 8)(line_width 1))
		(line (pt 116 12)(pt 116 4)(line_width 1))
		(line (pt 141 4)(pt 145 8)(line_width 1))
		(line (pt 141 12)(pt 145 8)(line_width 1))
	)
	(text "VCC" (rect 160 7 180 17)(font "Arial" (font_size 6)))
)
(pin
	(input)
	(rect 200 152 392 168)
	(text "INPUT" (rect 157 0 185 10)(font "Arial" (font_size 6)))
	(text "data1[busWidth-1..0]" (rect 5 0 107 12)(font "Arial" ))
	(pt 192 8)
	(drawing
		(line (pt 116 12)(pt 141 12)(line_width 1))
		(line (pt 116 4)(pt 141 4)(line_width 1))
		(line (pt 145 8)(pt 192 8)(line_width 1))
		(line (pt 116 12)(pt 116 4)(line_width 1))
		(line (pt 141 4)(pt 145 8)(line_width 1))
		(line (pt 141 12)(pt 145 8)(line_width 1))
	)
	(text "VCC" (rect 160 7 180 17)(font "Arial" (font_size 6)))
)
(pin
	(output)
	(rect 864 112 1073 128)
	(text "OUTPUT" (rect 1 0 39 10)(font "Arial" (font_size 6)))
	(text "dataOut[busWidth-1..0]" (rect 90 0 204 12)(font "Arial" ))
	(pt 0 8)
	(drawing
		(line (pt 0 8)(pt 52 8)(line_width 1))
		(line (pt 52 4)(pt 78 4)(line_width 1))
		(line (pt 52 12)(pt 78 12)(line_width 1))
		(line (pt 52 12)(pt 52 4)(line_width 1))
		(line (pt 78 4)(pt 82 8)(line_width 1))
		(line (pt 82 8)(pt 78 12)(line_width 1))
		(line (pt 78 12)(pt 82 8)(line_width 1))
	)
)
(symbol
	(rect 504 88 568 136)
	(text "AND2" (rect 1 0 25 10)(font "Arial" (font_size 6)))
	(text "inst" (rect 3 37 20 49)(font "Arial" ))
	(port
		(pt 0 16)
		(input)
		(text "IN1" (rect 2 7 19 19)(font "Courier New" (bold))(invisible))
		(text "IN1" (rect 2 7 19 19)(font "Courier New" (bold))(invisible))
		(line (pt 0 16)(pt 14 16)(line_width 1))
	)
	(port
		(pt 0 32)
		(input)
		(text "IN2" (rect 2 23 19 35)(font "Courier New" (bold))(invisible))
		(text "IN2" (rect 2 23 19 35)(font "Courier New" (bold))(invisible))
		(line (pt 0 32)(pt 14 32)(line_width 1))
	)
	(port
		(pt 64 24)
		(output)
		(text "OUT" (rect 48 15 65 27)(font "Courier New" (bold))(invisible))
		(text "OUT" (rect 48 15 65 27)(font "Courier New" (bold))(invisible))
		(line (pt 42 24)(pt 64 24)(line_width 1))
	)
	(drawing
		(line (pt 14 12)(pt 30 12)(line_width 1))
		(line (pt 14 37)(pt 31 37)(line_width 1))
		(line (pt 14 12)(pt 14 37)(line_width 1))
		(arc (pt 31 37)(pt 30 12)(rect 18 12 43 37)(line_width 1))
	)
)
(symbol
	(rect 424 104 472 136)
	(text "NOT" (rect 1 0 21 10)(font "Arial" (font_size 6)))
	(text "inst1" (rect 3 21 26 33)(font "Arial" ))
	(port
		(pt 0 16)
		(input)
		(text "IN" (rect 2 7 13 19)(font "Courier New" (bold))(invisible))
		(text "IN" (rect 2 7 13 19)(font "Courier New" (bold))(invisible))
		(line (pt 0 16)(pt 13 16)(line_width 1))
	)
	(port
		(pt 48 16)
		(output)
		(text "OUT" (rect 32 7 49 19)(font "Courier New" (bold))(invisible))
		(text "OUT" (rect 32 7 49 19)(font "Courier New" (bold))(invisible))
		(line (pt 39 16)(pt 48 16)(line_width 1))
	)
	(drawing
		(line (pt 13 25)(pt 13 7)(line_width 1))
		(line (pt 13 7)(pt 31 16)(line_width 1))
		(line (pt 13 25)(pt 31 16)(line_width 1))
		(circle (rect 31 12 39 20)(line_width 1))
	)
)
(symbol
	(rect 504 144 568 192)
	(text "AND2" (rect 1 0 25 10)(font "Arial" (font_size 6)))
	(text "inst2" (rect 3 37 26 49)(font "Arial" ))
	(port
		(pt 0 16)
		(input)
		(text "IN1" (rect 2 7 19 19)(font "Courier New" (bold))(invisible))
		(text "IN1" (rect 2 7 19 19)(font "Courier New" (bold))(invisible))
		(line (pt 0 16)(pt 14 16)(line_width 1))
	)
	(port
		(pt 0 32)
		(input)
		(text "IN2" (rect 2 23 19 35)(font "Courier New" (bold))(invisible))
		(text "IN2" (rect 2 23 19 35)(font "Courier New" (bold))(invisible))
		(line (pt 0 32)(pt 14 32)(line_width 1))
	)
	(port
		(pt 64 24)
		(output)
		(text "OUT" (rect 48 15 65 27)(font "Courier New" (bold))(invisible))
		(text "OUT" (rect 48 15 65 27)(font "Courier New" (bold))(invisible))
		(line (pt 42 24)(pt 64 24)(line_width 1))
	)
	(drawing
		(line (pt 14 12)(pt 30 12)(line_width 1))
		(line (pt 14 37)(pt 31 37)(line_width 1))
		(line (pt 14 12)(pt 14 37)(line_width 1))
		(arc (pt 31 37)(pt 30 12)(rect 18 12 43 37)(line_width 1))
	)
)
(symbol
	(rect 688 96 752 144)
	(text "OR2" (rect 1 0 19 10)(font "Arial" (font_size 6)))
	(text "inst3" (rect 3 37 26 49)(font "Arial" ))
	(port
		(pt 0 32)
		(input)
		(text "IN2" (rect 2 23 19 35)(font "Courier New" (bold))(invisible))
		(text "IN2" (rect 2 23 19 35)(font "Courier New" (bold))(invisible))
		(line (pt 0 32)(pt 15 32)(line_width 1))
	)
	(port
		(pt 0 16)
		(input)
		(text "IN1" (rect 2 7 19 19)(font "Courier New" (bold))(invisible))
		(text "IN1" (rect 2 7 19 19)(font "Courier New" (bold))(invisible))
		(line (pt 0 16)(pt 15 16)(line_width 1))
	)
	(port
		(pt 64 24)
		(output)
		(text "OUT" (rect 48 15 65 27)(font "Courier New" (bold))(invisible))
		(text "OUT" (rect 48 15 65 27)(font "Courier New" (bold))(invisible))
		(line (pt 48 24)(pt 64 24)(line_width 1))
	)
	(drawing
		(line (pt 14 36)(pt 25 36)(line_width 1))
		(line (pt 14 13)(pt 25 13)(line_width 1))
		(arc (pt 7 29)(pt 7 19)(rect -14 8 19 41)(line_width 1))
		(arc (pt 49 24)(pt 25 13)(rect -6 13 57 76)(line_width 1))
		(arc (pt 25 35)(pt 49 24)(rect -6 -27 57 36)(line_width 1))
	)
)
(connector
	(pt 392 200)
	(pt 408 200)
)
(connector
	(pt 408 120)
	(pt 424 120)
)
(connector
	(pt 472 120)
	(pt 504 120)
)
(connector
	(pt 408 176)
	(pt 504 176)
)
(connector
	(pt 408 120)
	(pt 408 176)
)
(connector
	(pt 408 176)
	(pt 408 200)
)
(connector
	(pt 488 88)
	(pt 488 104)
	(bus)
)
(connector
	(pt 488 104)
	(pt 504 104)
	(bus)
)
(connector
	(pt 672 168)
	(pt 672 128)
	(bus)
)
(connector
	(pt 672 128)
	(pt 688 128)
	(bus)
)
(connector
	(text "data0[busWidth-1..0]" (rect 402 72 504 84)(font "Arial" ))
	(pt 392 88)
	(pt 488 88)
	(bus)
)
(connector
	(text "data1[busWidth-1..0]" (rect 402 144 504 156)(font "Arial" ))
	(pt 392 160)
	(pt 504 160)
	(bus)
)
(connector
	(text "internal0[busWidth-1..0]" (rect 578 96 694 108)(font "Arial" ))
	(pt 568 112)
	(pt 688 112)
	(bus)
)
(connector
	(text "internal1[busWidth-1..0]" (rect 578 152 694 164)(font "Arial" ))
	(pt 568 168)
	(pt 672 168)
	(bus)
)
(connector
	(text "dataout[busWidth-1..0]" (rect 770 104 882 116)(font "Arial" ))
	(pt 752 120)
	(pt 864 120)
	(bus)
)
(junction (pt 408 176))
