/*
WARNING: Do NOT edit the input and output ports in this file in a text
editor if you plan to continue editing the block that represents it in
the Block Editor! File corruption is VERY likely to occur.
*/
/*
Copyright (C) 1991-2008 Altera Corporation
Your use of Altera Corporation's design tools, logic functions 
and other software and tools, and its AMPP partner logic 
functions, and any output files from any of the foregoing 
(including device programming or simulation files), and any 
associated documentation or information are expressly subject 
to the terms and conditions of the Altera Program License 
Subscription Agreement, Altera MegaCore Function License 
Agreement, or other applicable license agreement, including, 
without limitation, that your use is for the sole purpose of 
programming logic devices manufactured by Altera and sold by 
Altera or its authorized distributors.  Please refer to the 
applicable agreement for further details.
*/
//#pragma file_not_in_maxplusii_format
(header "graphic" (version "1.3"))
(pin
	(input)
	(rect 168 232 336 248)
	(text "INPUT" (rect 133 0 161 10)(font "Arial" (font_size 6)))
	(text "test0" (rect 5 0 29 12)(font "Arial" ))
	(pt 168 8)
	(drawing
		(line (pt 92 12)(pt 117 12)(line_width 1))
		(line (pt 92 4)(pt 117 4)(line_width 1))
		(line (pt 121 8)(pt 168 8)(line_width 1))
		(line (pt 92 12)(pt 92 4)(line_width 1))
		(line (pt 117 4)(pt 121 8)(line_width 1))
		(line (pt 117 12)(pt 121 8)(line_width 1))
	)
	(text "VCC" (rect 136 7 156 17)(font "Arial" (font_size 6)))
)
(pin
	(input)
	(rect 168 264 336 280)
	(text "INPUT" (rect 133 0 161 10)(font "Arial" (font_size 6)))
	(text "test1" (rect 5 0 29 12)(font "Arial" ))
	(pt 168 8)
	(drawing
		(line (pt 92 12)(pt 117 12)(line_width 1))
		(line (pt 92 4)(pt 117 4)(line_width 1))
		(line (pt 121 8)(pt 168 8)(line_width 1))
		(line (pt 92 12)(pt 92 4)(line_width 1))
		(line (pt 117 4)(pt 121 8)(line_width 1))
		(line (pt 117 12)(pt 121 8)(line_width 1))
	)
	(text "VCC" (rect 136 7 156 17)(font "Arial" (font_size 6)))
)
(pin
	(input)
	(rect 168 312 336 328)
	(text "INPUT" (rect 133 0 161 10)(font "Arial" (font_size 6)))
	(text "sel" (rect 5 0 19 12)(font "Arial" ))
	(pt 168 8)
	(drawing
		(line (pt 92 12)(pt 117 12)(line_width 1))
		(line (pt 92 4)(pt 117 4)(line_width 1))
		(line (pt 121 8)(pt 168 8)(line_width 1))
		(line (pt 92 12)(pt 92 4)(line_width 1))
		(line (pt 117 4)(pt 121 8)(line_width 1))
		(line (pt 117 12)(pt 121 8)(line_width 1))
	)
	(text "VCC" (rect 136 7 156 17)(font "Arial" (font_size 6)))
)
(pin
	(output)
	(rect 736 248 912 264)
	(text "OUTPUT" (rect 1 0 39 10)(font "Arial" (font_size 6)))
	(text "testut" (rect 90 0 118 12)(font "Arial" ))
	(pt 0 8)
	(drawing
		(line (pt 0 8)(pt 52 8)(line_width 1))
		(line (pt 52 4)(pt 78 4)(line_width 1))
		(line (pt 52 12)(pt 78 12)(line_width 1))
		(line (pt 52 12)(pt 52 4)(line_width 1))
		(line (pt 78 4)(pt 82 8)(line_width 1))
		(line (pt 82 8)(pt 78 12)(line_width 1))
		(line (pt 78 12)(pt 82 8)(line_width 1))
	)
)
(symbol
	(rect 456 208 568 296)
	(text "BUSMUX" (rect 28 0 91 16)(font "Arial" (font_size 10)))
	(text "inst9" (rect 3 77 26 89)(font "Arial" ))
	(port
		(pt 0 64)
		(input)
		(text "datab[WIDTH-1..0]" (rect 6 51 108 65)(font "Arial" (font_size 8)))
		(text "datab[]" (rect 6 51 44 65)(font "Arial" (font_size 8)))
		(line (pt 0 64)(pt 44 64)(line_width 3))
	)
	(port
		(pt 56 88)
		(input)
		(text "sel" (rect 59 70 75 84)(font "Arial" (font_size 8)))
		(text "sel" (rect 59 70 75 84)(font "Arial" (font_size 8)))
		(line (pt 56 88)(pt 56 72)(line_width 1))
	)
	(port
		(pt 0 32)
		(input)
		(text "dataa[WIDTH-1..0]" (rect 6 19 108 33)(font "Arial" (font_size 8)))
		(text "dataa[]" (rect 6 19 44 33)(font "Arial" (font_size 8)))
		(line (pt 0 32)(pt 44 32)(line_width 3))
	)
	(port
		(pt 112 48)
		(output)
		(text "result[WIDTH-1..0]" (rect 75 35 177 49)(font "Arial" (font_size 8)))
		(text "result[]" (rect 75 35 113 49)(font "Arial" (font_size 8)))
		(line (pt 68 48)(pt 112 48)(line_width 3))
	)
	(parameter
		"WIDTH"
		"1"
		"Width of I/O, any integer > 0"
		" 1" " 2" " 3" " 4" " 5" " 6" " 7" " 8" " 9" "10" "11" "12" "13" "14" "15" "16" "20" "24" "28" "32" "40" "48" "56" "64" 
	)
	(drawing
		(text "0" (rect 52 31 56 41)(font "Arial" (font_size 6)))
		(text "1" (rect 52 55 56 65)(font "Arial" (font_size 6)))
		(line (pt 68 64)(pt 68 32)(line_width 1))
		(line (pt 44 80)(pt 44 16)(line_width 1))
		(line (pt 44 16)(pt 68 32)(line_width 1))
		(line (pt 44 80)(pt 68 64)(line_width 1))
	)
	(annotation_block (parameter)(rect 568 264 672 296))
)
(connector
	(pt 456 240)
	(pt 336 240)
	(bus)
)
(connector
	(pt 456 272)
	(pt 336 272)
	(bus)
)
(connector
	(pt 568 256)
	(pt 736 256)
	(bus)
)
(connector
	(pt 512 296)
	(pt 512 320)
)
(connector
	(pt 512 320)
	(pt 336 320)
)
