/*
WARNING: Do NOT edit the input and output ports in this file in a text
editor if you plan to continue editing the block that represents it in
the Block Editor! File corruption is VERY likely to occur.
*/
/*
Copyright (C) 2018  Intel Corporation. All rights reserved.
Your use of Intel Corporation's design tools, logic functions 
and other software and tools, and its AMPP partner logic 
functions, and any output files from any of the foregoing 
(including device programming or simulation files), and any 
associated documentation or information are expressly subject 
to the terms and conditions of the Intel Program License 
Subscription Agreement, the Intel Quartus Prime License Agreement,
the Intel FPGA IP License Agreement, or other applicable license
agreement, including, without limitation, that your use is for
the sole purpose of programming logic devices manufactured by
Intel and sold by Intel or its authorized distributors.  Please
refer to the applicable agreement for further details.
*/
//#pragma file_not_in_maxplusii_format
(header "graphic" (version "1.4"))
(pin
	(input)
	(rect -56 -208 112 -192)
	(text "INPUT" (rect 133 0 162 10)(font "Arial" (font_size 6)))
	(text "CLOCK_50" (rect 9 0 66 11)(font "Arial" ))
	(pt 168 8)
	(drawing
		(line (pt 92 12)(pt 117 12))
		(line (pt 92 4)(pt 117 4))
		(line (pt 121 8)(pt 168 8))
		(line (pt 92 12)(pt 92 4))
		(line (pt 117 4)(pt 121 8))
		(line (pt 117 12)(pt 121 8))
	)
	(text "VCC" (rect 136 7 157 17)(font "Arial" (font_size 6)))
	(annotation_block (location)(rect -104 -192 -56 -176))
)
(pin
	(output)
	(rect 1656 -32 1832 -16)
	(text "OUTPUT" (rect 1 0 41 10)(font "Arial" (font_size 6)))
	(text "VGA_CLK" (rect 90 0 144 11)(font "Arial" ))
	(pt 0 8)
	(drawing
		(line (pt 0 8)(pt 52 8))
		(line (pt 52 4)(pt 78 4))
		(line (pt 52 12)(pt 78 12))
		(line (pt 52 12)(pt 52 4))
		(line (pt 78 4)(pt 82 8))
		(line (pt 82 8)(pt 78 12))
		(line (pt 78 12)(pt 82 8))
	)
	(annotation_block (location)(rect 1856 -32 1920 -16))
)
(pin
	(output)
	(rect 1656 32 1832 48)
	(text "OUTPUT" (rect 1 0 41 10)(font "Arial" (font_size 6)))
	(text "VGA_BLANK_N" (rect 90 0 170 11)(font "Arial" ))
	(pt 0 8)
	(drawing
		(line (pt 0 8)(pt 52 8))
		(line (pt 52 4)(pt 78 4))
		(line (pt 52 12)(pt 78 12))
		(line (pt 52 12)(pt 52 4))
		(line (pt 78 4)(pt 82 8))
		(line (pt 82 8)(pt 78 12))
		(line (pt 78 12)(pt 82 8))
	)
	(annotation_block (location)(rect 1856 32 1912 48))
)
(pin
	(output)
	(rect 1656 -16 1832 0)
	(text "OUTPUT" (rect 1 0 41 10)(font "Arial" (font_size 6)))
	(text "VGA_HS" (rect 90 0 136 11)(font "Arial" ))
	(pt 0 8)
	(drawing
		(line (pt 0 8)(pt 52 8))
		(line (pt 52 4)(pt 78 4))
		(line (pt 52 12)(pt 78 12))
		(line (pt 52 12)(pt 52 4))
		(line (pt 78 4)(pt 82 8))
		(line (pt 82 8)(pt 78 12))
		(line (pt 78 12)(pt 82 8))
	)
	(annotation_block (location)(rect 1856 -16 1920 0))
)
(pin
	(output)
	(rect 1656 0 1832 16)
	(text "OUTPUT" (rect 1 0 41 10)(font "Arial" (font_size 6)))
	(text "VGA_VS" (rect 90 0 136 11)(font "Arial" ))
	(pt 0 8)
	(drawing
		(line (pt 0 8)(pt 52 8))
		(line (pt 52 4)(pt 78 4))
		(line (pt 52 12)(pt 78 12))
		(line (pt 52 12)(pt 52 4))
		(line (pt 78 4)(pt 82 8))
		(line (pt 82 8)(pt 78 12))
		(line (pt 78 12)(pt 82 8))
	)
	(annotation_block (location)(rect 1856 0 1920 16))
)
(pin
	(output)
	(rect 1656 16 1832 32)
	(text "OUTPUT" (rect 1 0 41 10)(font "Arial" (font_size 6)))
	(text "VGA_SYNC_N" (rect 90 0 164 11)(font "Arial" ))
	(pt 0 8)
	(drawing
		(line (pt 0 8)(pt 52 8))
		(line (pt 52 4)(pt 78 4))
		(line (pt 52 12)(pt 78 12))
		(line (pt 52 12)(pt 52 4))
		(line (pt 78 4)(pt 82 8))
		(line (pt 82 8)(pt 78 12))
		(line (pt 78 12)(pt 82 8))
	)
	(annotation_block (location)(rect 1856 16 1920 32))
)
(pin
	(output)
	(rect 1656 296 1832 312)
	(text "OUTPUT" (rect 1 0 41 10)(font "Arial" (font_size 6)))
	(text "VGA_R[7..0]" (rect 90 0 152 11)(font "Arial" ))
	(pt 0 8)
	(drawing
		(line (pt 0 8)(pt 52 8))
		(line (pt 52 4)(pt 78 4))
		(line (pt 52 12)(pt 78 12))
		(line (pt 52 12)(pt 52 4))
		(line (pt 78 4)(pt 82 8))
		(line (pt 82 8)(pt 78 12))
		(line (pt 78 12)(pt 82 8))
	)
	(annotation_block (location)(rect 1616 392 1704 512))
)
(pin
	(output)
	(rect 1656 312 1832 328)
	(text "OUTPUT" (rect 1 0 41 10)(font "Arial" (font_size 6)))
	(text "VGA_G[7..0]" (rect 90 0 151 13)(font "Intel Clear" ))
	(pt 0 8)
	(drawing
		(line (pt 0 8)(pt 52 8))
		(line (pt 52 4)(pt 78 4))
		(line (pt 52 12)(pt 78 12))
		(line (pt 52 12)(pt 52 4))
		(line (pt 78 4)(pt 82 8))
		(line (pt 82 8)(pt 78 12))
		(line (pt 78 12)(pt 82 8))
	)
	(annotation_block (location)(rect 1728 392 1784 512))
)
(pin
	(output)
	(rect 1656 328 1832 344)
	(text "OUTPUT" (rect 1 0 41 10)(font "Arial" (font_size 6)))
	(text "VGA_B[7..0]" (rect 90 0 151 13)(font "Intel Clear" ))
	(pt 0 8)
	(drawing
		(line (pt 0 8)(pt 52 8))
		(line (pt 52 4)(pt 78 4))
		(line (pt 52 12)(pt 78 12))
		(line (pt 52 12)(pt 52 4))
		(line (pt 78 4)(pt 82 8))
		(line (pt 82 8)(pt 78 12))
		(line (pt 78 12)(pt 82 8))
	)
	(annotation_block (location)(rect 1800 392 1864 512))
)
(symbol
	(rect 1208 -40 1456 136)
	(text "vga_controller" (rect 5 0 75 11)(font "Arial" ))
	(text "inst1" (rect 8 160 32 173)(font "Intel Clear" ))
	(port
		(pt 0 32)
		(input)
		(text "pixel_clock" (rect 0 0 55 11)(font "Arial" ))
		(text "pixel_clock" (rect 21 27 76 38)(font "Arial" ))
		(line (pt 0 32)(pt 16 32))
	)
	(port
		(pt 0 48)
		(input)
		(text "reset" (rect 0 0 25 11)(font "Arial" ))
		(text "reset" (rect 21 43 46 54)(font "Arial" ))
		(line (pt 0 48)(pt 16 48))
	)
	(port
		(pt 248 32)
		(output)
		(text "h_sync" (rect 0 0 36 11)(font "Arial" ))
		(text "h_sync" (rect 197 27 233 38)(font "Arial" ))
		(line (pt 248 32)(pt 232 32))
	)
	(port
		(pt 248 48)
		(output)
		(text "v_sync" (rect 0 0 35 11)(font "Arial" ))
		(text "v_sync" (rect 198 43 233 54)(font "Arial" ))
		(line (pt 248 48)(pt 232 48))
	)
	(port
		(pt 248 64)
		(output)
		(text "n_sync" (rect 0 0 36 11)(font "Arial" ))
		(text "n_sync" (rect 197 59 233 70)(font "Arial" ))
		(line (pt 248 64)(pt 232 64))
	)
	(port
		(pt 248 80)
		(output)
		(text "n_blank" (rect 0 0 40 11)(font "Arial" ))
		(text "n_blank" (rect 194 75 234 86)(font "Arial" ))
		(line (pt 248 80)(pt 232 80))
	)
	(port
		(pt 248 96)
		(output)
		(text "frame_buff_en" (rect 0 0 73 11)(font "Arial" ))
		(text "frame_buff_en" (rect 166 91 239 102)(font "Arial" ))
		(line (pt 248 96)(pt 232 96))
	)
	(port
		(pt 248 112)
		(output)
		(text "h_frame_buff_add[15..0]" (rect 0 0 120 11)(font "Arial" ))
		(text "h_frame_buff_add[15..0]" (rect 126 107 246 118)(font "Arial" ))
		(line (pt 248 112)(pt 232 112)(line_width 3))
	)
	(port
		(pt 248 128)
		(output)
		(text "v_frame_buff_add[15..0]" (rect 0 0 119 11)(font "Arial" ))
		(text "v_frame_buff_add[15..0]" (rect 127 123 246 134)(font "Arial" ))
		(line (pt 248 128)(pt 232 128)(line_width 3))
	)
	(parameter
		"horizontal_pixels"
		"1024"
		""
		(type "PARAMETER_SIGNED_DEC")	)
	(parameter
		"front_porch_h"
		"24"
		""
		(type "PARAMETER_SIGNED_DEC")	)
	(parameter
		"sync_puls_h"
		"136"
		""
		(type "PARAMETER_SIGNED_DEC")	)
	(parameter
		"back_porch_h"
		"160"
		""
		(type "PARAMETER_SIGNED_DEC")	)
	(parameter
		"vertical_pixels"
		"768"
		""
		(type "PARAMETER_SIGNED_DEC")	)
	(parameter
		"front_porch_v"
		"3"
		""
		(type "PARAMETER_SIGNED_DEC")	)
	(parameter
		"sync_puls_v"
		"6"
		""
		(type "PARAMETER_SIGNED_DEC")	)
	(parameter
		"back_porch_v"
		"29"
		""
		(type "PARAMETER_SIGNED_DEC")	)
	(parameter
		"refersh_rate"
		"60"
		""
		(type "PARAMETER_SIGNED_DEC")	)
	(drawing
		(rectangle (rect 16 16 232 160))
	)
	(annotation_block (parameter)(rect 1240 -216 1448 -64))
)
(symbol
	(rect 528 272 784 416)
	(text "drawer" (rect 5 0 40 11)(font "Arial" ))
	(text "inst3" (rect 8 128 32 141)(font "Intel Clear" ))
	(port
		(pt 0 32)
		(input)
		(text "clk" (rect 0 0 15 11)(font "Arial" ))
		(text "clk" (rect 21 27 36 38)(font "Arial" ))
		(line (pt 0 32)(pt 16 32))
	)
	(port
		(pt 0 48)
		(input)
		(text "ball_pos_x[15..0]" (rect 0 0 83 11)(font "Arial" ))
		(text "ball_pos_x[15..0]" (rect 21 43 104 54)(font "Arial" ))
		(line (pt 0 48)(pt 16 48)(line_width 3))
	)
	(port
		(pt 0 64)
		(input)
		(text "ball_pos_y[15..0]" (rect 0 0 83 11)(font "Arial" ))
		(text "ball_pos_y[15..0]" (rect 21 59 104 70)(font "Arial" ))
		(line (pt 0 64)(pt 16 64)(line_width 3))
	)
	(port
		(pt 0 80)
		(input)
		(text "left_bat_y[15..0]" (rect 0 0 79 11)(font "Arial" ))
		(text "left_bat_y[15..0]" (rect 21 75 100 86)(font "Arial" ))
		(line (pt 0 80)(pt 16 80)(line_width 3))
	)
	(port
		(pt 0 96)
		(input)
		(text "right_bat_y[15..0]" (rect 0 0 84 11)(font "Arial" ))
		(text "right_bat_y[15..0]" (rect 21 91 105 102)(font "Arial" ))
		(line (pt 0 96)(pt 16 96)(line_width 3))
	)
	(port
		(pt 0 112)
		(input)
		(text "start_draw" (rect 0 0 53 11)(font "Arial" ))
		(text "start_draw" (rect 21 107 74 118)(font "Arial" ))
		(line (pt 0 112)(pt 16 112))
	)
	(port
		(pt 256 32)
		(output)
		(text "ready" (rect 0 0 29 11)(font "Arial" ))
		(text "ready" (rect 211 27 240 38)(font "Arial" ))
		(line (pt 256 32)(pt 240 32))
	)
	(port
		(pt 256 48)
		(output)
		(text "pixel_val" (rect 0 0 44 11)(font "Arial" ))
		(text "pixel_val" (rect 198 43 242 54)(font "Arial" ))
		(line (pt 256 48)(pt 240 48))
	)
	(port
		(pt 256 64)
		(output)
		(text "framebuffer_x[15..0]" (rect 0 0 99 11)(font "Arial" ))
		(text "framebuffer_x[15..0]" (rect 152 59 251 70)(font "Arial" ))
		(line (pt 256 64)(pt 240 64)(line_width 3))
	)
	(port
		(pt 256 80)
		(output)
		(text "framebuffer_y[15..0]" (rect 0 0 99 11)(font "Arial" ))
		(text "framebuffer_y[15..0]" (rect 152 75 251 86)(font "Arial" ))
		(line (pt 256 80)(pt 240 80)(line_width 3))
	)
	(port
		(pt 256 96)
		(output)
		(text "framebuffer_w_en" (rect 0 0 90 11)(font "Arial" ))
		(text "framebuffer_w_en" (rect 159 91 249 102)(font "Arial" ))
		(line (pt 256 96)(pt 240 96))
	)
	(parameter
		"horizontal_pixels"
		"1024"
		""
		(type "PARAMETER_SIGNED_DEC")	)
	(parameter
		"vertical_pixels"
		"768"
		""
		(type "PARAMETER_SIGNED_DEC")	)
	(parameter
		"ball_radius"
		"20"
		""
		(type "PARAMETER_SIGNED_DEC")	)
	(parameter
		"bat_width"
		"20"
		""
		(type "PARAMETER_SIGNED_DEC")	)
	(parameter
		"bat_height"
		"40"
		""
		(type "PARAMETER_SIGNED_DEC")	)
	(parameter
		"bat_pos_x"
		"30"
		""
		(type "PARAMETER_SIGNED_DEC")	)
	(drawing
		(rectangle (rect 16 16 240 128))
	)
	(annotation_block (parameter)(rect 552 128 760 240))
)
(symbol
	(rect 1064 272 1264 448)
	(text "framebuffer" (rect 5 0 62 11)(font "Arial" ))
	(text "inst7" (rect 8 160 32 171)(font "Arial" ))
	(port
		(pt 0 32)
		(input)
		(text "clk" (rect 0 0 15 11)(font "Arial" ))
		(text "clk" (rect 21 27 36 38)(font "Arial" ))
		(line (pt 0 32)(pt 16 32))
	)
	(port
		(pt 0 48)
		(input)
		(text "reset" (rect 0 0 25 11)(font "Arial" ))
		(text "reset" (rect 21 43 46 54)(font "Arial" ))
		(line (pt 0 48)(pt 16 48))
	)
	(port
		(pt 0 64)
		(input)
		(text "write_x[15..0]" (rect 0 0 66 11)(font "Arial" ))
		(text "write_x[15..0]" (rect 21 59 87 70)(font "Arial" ))
		(line (pt 0 64)(pt 16 64)(line_width 3))
	)
	(port
		(pt 0 80)
		(input)
		(text "write_y[15..0]" (rect 0 0 66 11)(font "Arial" ))
		(text "write_y[15..0]" (rect 21 75 87 86)(font "Arial" ))
		(line (pt 0 80)(pt 16 80)(line_width 3))
	)
	(port
		(pt 0 96)
		(input)
		(text "write_enable" (rect 0 0 63 11)(font "Arial" ))
		(text "write_enable" (rect 21 91 84 102)(font "Arial" ))
		(line (pt 0 96)(pt 16 96))
	)
	(port
		(pt 0 112)
		(input)
		(text "write_data" (rect 0 0 53 11)(font "Arial" ))
		(text "write_data" (rect 21 107 74 118)(font "Arial" ))
		(line (pt 0 112)(pt 16 112))
	)
	(port
		(pt 0 128)
		(input)
		(text "read_enable" (rect 0 0 62 11)(font "Arial" ))
		(text "read_enable" (rect 21 123 83 134)(font "Arial" ))
		(line (pt 0 128)(pt 16 128))
	)
	(port
		(pt 200 32)
		(output)
		(text "read_r[7..0]" (rect 0 0 56 11)(font "Arial" ))
		(text "read_r[7..0]" (rect 132 27 188 38)(font "Arial" ))
		(line (pt 200 32)(pt 184 32)(line_width 3))
	)
	(port
		(pt 200 48)
		(output)
		(text "read_g[7..0]" (rect 0 0 59 11)(font "Arial" ))
		(text "read_g[7..0]" (rect 130 43 189 54)(font "Arial" ))
		(line (pt 200 48)(pt 184 48)(line_width 3))
	)
	(port
		(pt 200 64)
		(output)
		(text "read_b[7..0]" (rect 0 0 59 11)(font "Arial" ))
		(text "read_b[7..0]" (rect 130 59 189 70)(font "Arial" ))
		(line (pt 200 64)(pt 184 64)(line_width 3))
	)
	(parameter
		"horizontal_pixels"
		"1024"
		""
		(type "PARAMETER_SIGNED_DEC")	)
	(parameter
		"vertical_pixels"
		"768"
		""
		(type "PARAMETER_SIGNED_DEC")	)
	(drawing
		(rectangle (rect 16 16 184 160))
	)
	(annotation_block (parameter)(rect 1072 184 1280 232))
)
(symbol
	(rect 496 -144 1008 56)
	(text "FRESH_SOPC" (rect 212 -1 320 15)(font "Arial" (font_size 10)))
	(text "inst" (rect 8 184 26 195)(font "Arial" ))
	(port
		(pt 0 72)
		(input)
		(text "clk_clk" (rect 0 0 40 13)(font "Arial" (font_size 8)))
		(text "clk_clk" (rect 4 61 44 74)(font "Arial" (font_size 8)))
		(line (pt 0 72)(pt 224 72))
	)
	(port
		(pt 0 112)
		(input)
		(text "reset_reset_n" (rect 0 0 79 13)(font "Arial" (font_size 8)))
		(text "reset_reset_n" (rect 4 101 83 114)(font "Arial" (font_size 8)))
		(line (pt 0 112)(pt 224 112))
	)
	(port
		(pt 0 152)
		(output)
		(text "store_ball_position_0_conduit_ball_x[31..0]" (rect 0 0 243 13)(font "Arial" (font_size 8)))
		(text "store_ball_position_0_conduit_ball_x[31..0]" (rect 4 141 247 154)(font "Arial" (font_size 8)))
		(line (pt 0 152)(pt 224 152)(line_width 3))
	)
	(port
		(pt 0 168)
		(output)
		(text "store_ball_position_0_conduit_ball_y[31..0]" (rect 0 0 243 13)(font "Arial" (font_size 8)))
		(text "store_ball_position_0_conduit_ball_y[31..0]" (rect 4 157 247 170)(font "Arial" (font_size 8)))
		(line (pt 0 168)(pt 224 168)(line_width 3))
	)
	(drawing
		(text "clk" (rect 209 43 229 57)(font "Arial" (color 128 0 0)(font_size 9)))
		(text "clk" (rect 229 67 244 78)(font "Arial" (color 0 0 0)))
		(text "reset" (rect 195 83 229 97)(font "Arial" (color 128 0 0)(font_size 9)))
		(text "reset_n" (rect 229 107 267 118)(font "Arial" (color 0 0 0)))
		(text "store_ball_position_0_conduit" (rect 50 123 239 137)(font "Arial" (color 128 0 0)(font_size 9)))
		(text "ball_x" (rect 229 147 259 158)(font "Arial" (color 0 0 0)))
		(text "ball_y" (rect 229 163 259 174)(font "Arial" (color 0 0 0)))
		(text " FRESH_SOPC " (rect 443 184 524 195)(font "Arial" ))
		(line (pt 224 32)(pt 288 32))
		(line (pt 288 32)(pt 288 184))
		(line (pt 224 184)(pt 288 184))
		(line (pt 224 32)(pt 224 184))
		(line (pt 225 52)(pt 225 76))
		(line (pt 226 52)(pt 226 76))
		(line (pt 225 92)(pt 225 116))
		(line (pt 226 92)(pt 226 116))
		(line (pt 225 132)(pt 225 172))
		(line (pt 226 132)(pt 226 172))
		(line (pt 0 0)(pt 512 0))
		(line (pt 512 0)(pt 512 200))
		(line (pt 0 200)(pt 512 200))
		(line (pt 0 0)(pt 0 200))
	)
)
(symbol
	(rect 408 -56 440 -40)
	(text "VCC" (rect 7 0 28 10)(font "Arial" (font_size 6)))
	(text "inst2" (rect 3 5 27 18)(font "Intel Clear" )(invisible))
	(port
		(pt 16 16)
		(output)
		(text "1" (rect 19 7 27 18)(font "Courier New" (bold))(invisible))
		(text "1" (rect 19 7 27 18)(font "Courier New" (bold))(invisible))
		(line (pt 16 16)(pt 16 8))
	)
	(drawing
		(line (pt 8 8)(pt 24 8))
	)
)
(connector
	(pt 464 -200)
	(pt 112 -200)
)
(connector
	(pt 784 368)
	(pt 1064 368)
)
(connector
	(pt 784 352)
	(pt 1064 352)
	(bus)
)
(connector
	(pt 784 336)
	(pt 1064 336)
	(bus)
)
(connector
	(pt 784 320)
	(pt 944 320)
)
(connector
	(pt 944 320)
	(pt 944 384)
)
(connector
	(pt 944 384)
	(pt 1064 384)
)
(connector
	(pt 1456 56)
	(pt 1488 56)
)
(connector
	(pt 1488 472)
	(pt 1488 56)
)
(connector
	(pt 1488 472)
	(pt 1032 472)
)
(connector
	(pt 1032 472)
	(pt 1032 400)
)
(connector
	(pt 1032 400)
	(pt 1064 400)
)
(connector
	(pt 464 304)
	(pt 528 304)
)
(connector
	(pt 464 -200)
	(pt 464 -192)
)
(connector
	(pt 1184 -192)
	(pt 1184 -8)
)
(connector
	(pt 1184 -8)
	(pt 1208 -8)
)
(connector
	(pt 1064 304)
	(pt 1040 304)
)
(connector
	(pt 1040 304)
	(pt 1040 -192)
)
(connector
	(pt 464 -192)
	(pt 1040 -192)
)
(connector
	(pt 1264 304)
	(pt 1656 304)
	(bus)
)
(connector
	(pt 1264 320)
	(pt 1656 320)
	(bus)
)
(connector
	(pt 1264 336)
	(pt 1656 336)
	(bus)
)
(connector
	(pt 1456 -8)
	(pt 1656 -8)
)
(connector
	(pt 1456 8)
	(pt 1656 8)
)
(connector
	(pt 1456 24)
	(pt 1656 24)
)
(connector
	(pt 1456 40)
	(pt 1656 40)
)
(connector
	(pt 1640 -192)
	(pt 1640 -24)
)
(connector
	(pt 1040 -192)
	(pt 1184 -192)
)
(connector
	(pt 1184 -192)
	(pt 1640 -192)
)
(connector
	(pt 1640 -24)
	(pt 1656 -24)
)
(connector
	(pt 496 -72)
	(pt 464 -72)
)
(connector
	(pt 464 -192)
	(pt 464 -72)
)
(connector
	(pt 464 -72)
	(pt 464 304)
)
(connector
	(pt 424 -40)
	(pt 424 -32)
)
(connector
	(pt 424 -32)
	(pt 496 -32)
)
(junction (pt 464 -192))
(junction (pt 1040 -192))
(junction (pt 1184 -192))
(junction (pt 464 -72))
