WIDTH=19;
DEPTH=256;

ADDRESS_RADIX=UNS;
DATA_RADIX=BIN;

CONTENT BEGIN
	0 : 0000000000000000000;
	1 : 0000001010000000110;
	2 : 0010010000000000101;
	3 : 0000001010000000110;
	4 : 0101010000000001100;
	5 : 0000000000001100010;
	6 : 0000001001000000110;
	7 : 0010110000000000101;
	8 : 0000001010000000110;
	9 : 1101110000000001100;
	10 : 0000000000001010010;
	11 : 0000000010000000001;
	12 : 0000000000000000000;
	13 : 0000000000000000000;
	14 : 0000000000000000000;
	15 : 0000000000000000000;
	16 : 0000000000000000000;
	17 : 0000000000000000000;
	18 : 0000000000000000000;
	19 : 0000000000000000000;
	20 : 0000000000000000000;
	21 : 0000000000000000000;
	22 : 0000000000000000000;
	23 : 0000000000000000000;
	24 : 0000000000000000000;
	25 : 0000000000000000000;
	26 : 0000000000000000000;
	27 : 0000000000000000000;
	28 : 0000000000000000000;
	29 : 0000000000000000000;
	30 : 0000000000000000000;
	31 : 0000000000000000000;
	32 : 0000000000000000000;
	33 : 0000000000000000000;
	34 : 0000000000000000000;
	35 : 0000000000000000000;
	36 : 0000000000000000000;
	37 : 0000000000000000000;
	38 : 0000000000000000000;
	39 : 0000000000000000000;
	40 : 0000000000000000000;
	41 : 0000000000000000000;
	42 : 0000000000000000000;
	43 : 0000000000000000000;
	44 : 0000000000000000000;
	45 : 0000000000000000000;
	46 : 0000000000000000000;
	47 : 0000000000000000000;
	48 : 0000001010000000110;
	49 : 0010010000000000101;
	50 : 0000001010000000110;
	51 : 0101010000000001100;
	52 : 0000000000001100010;
	53 : 0000001011111110110;
	54 : 1001100100000001100;
	55 : 0000000010011100010;
	56 : 0000000010000000001;
	57 : 0000001010000000110;
	58 : 1001100000000000100;
	59 : 0000000001110110001;
	60 : 0000000000000000000;
	61 : 0000000000000000000;
	62 : 0000000000000000000;
	63 : 0000000000000000000;
	64 : 0000000000000000000;
	65 : 0000000000000000000;
	66 : 0000000000000000000;
	67 : 0000000000000000000;
	68 : 0000000000000000000;
	69 : 0000000000000000000;
	70 : 0000000000000000000;
	71 : 0000000000000000000;
	72 : 0000000000000000000;
	73 : 0000000000000000000;
	74 : 0000000000000000000;
	75 : 0000000000000000000;
	76 : 0000000000000000000;
	77 : 0000000000000000000;
	78 : 0000000000000000000;
	79 : 0000000000000000000;
	80 : 0000001001000000110;
	81 : 0010010000000000101;
	82 : 0000001010000000110;
	83 : 0101010000000001100;
	84 : 0000000000001010010;
	85 : 0000001000000110110;
	86 : 1001100100000001100;
	87 : 0000000010011010010;
	88 : 0000000010000000001;
	89 : 0000001010000000110;
	90 : 1001100000000001100;
	91 : 0000000001110110001;
	92 : 0000000000000000000;
	93 : 0000000000000000000;
	94 : 0000000000000000000;
	95 : 0000000000000000000;
	96 : 0000000000000000000;
	97 : 0000000000000000000;
	98 : 0000000000000000000;
	99 : 0000000000000000000;
	100 : 0000000000000000000;
	101 : 0000000000000000000;
	102 : 0000000000000000000;
	103 : 0000000000000000000;
	104 : 0000000000000000000;
	105 : 0000000000000000000;
	106 : 0000000000000000000;
	107 : 0000000000000000000;
	108 : 0000000000000000000;
	109 : 0000000000000000000;
	110 : 0000001011000000110;
	111 : 0010000000000000011;
	112 : 0000000010000000001;
	113 : 0000000000000000000;
	114 : 0000000000000000000;
	115 : 0000000000000000000;
	116 : 0000000000000000000;
	117 : 0000000000000000000;
	118 : 0000000000000000000;
	119 : 0000000000000000000;
	120 : 0000000000000000000;
	121 : 0000000000000000000;
	122 : 0000000000000000000;
	123 : 0000000000000000000;
	124 : 0000000000000000000;
	125 : 0000000000000000000;
	126 : 0000000000000000000;
	127 : 0000000000000000000;
	128 : 0000000000000000000;
	129 : 0000000000000000000;
	130 : 0000000000000000000;
	131 : 0000000000000000000;
	132 : 0000000000000000000;
	133 : 0000000000000000000;
	134 : 0000000000000000000;
	135 : 0000000000000000000;
	136 : 0000000000000000000;
	137 : 0000000000000000000;
	138 : 0000000000000000000;
	139 : 0000000000000000000;
	140 : 0000000000000000000;
	141 : 0000000000000000000;
	142 : 0000000000000000000;
	143 : 0000000000000000000;
	144 : 0000000000000000000;
	145 : 0000000000000000000;
	146 : 0000000000000000000;
	147 : 0000000000000000000;
	148 : 0000000000000000000;
	149 : 0000000000000000000;
	150 : 0000000000000000000;
	151 : 0000000000000000000;
	152 : 0000000000000000000;
	153 : 0000000000000000000;
	154 : 0000000000000000000;
	155 : 0000000000000000000;
	156 : 0000000000000000000;
	157 : 0000000000000000000;
	158 : 0000000000000000000;
	159 : 0000000000000000000;
	160 : 0000000000000000000;
	161 : 0000000000000000000;
	162 : 0000000000000000000;
	163 : 0000000000000000000;
	164 : 0000000000000000000;
	165 : 0000000000000000000;
	166 : 0000000000000000000;
	167 : 0000000000000000000;
	168 : 0000000000000000000;
	169 : 0000000000000000000;
	170 : 0000000000000000000;
	171 : 0000000000000000000;
	172 : 0000000000000000000;
	173 : 0000000000000000000;
	174 : 0000000000000000000;
	175 : 0000000000000000000;
	176 : 0000000000000000000;
	177 : 0000000000000000000;
	178 : 0000000000000000000;
	179 : 0000000000000000000;
	180 : 0000000000000000000;
	181 : 0000000000000000000;
	182 : 0000000000000000000;
	183 : 0000000000000000000;
	184 : 0000000000000000000;
	185 : 0000000000000000000;
	186 : 0000000000000000000;
	187 : 0000000000000000000;
	188 : 0000000000000000000;
	189 : 0000000000000000000;
	190 : 0000000000000000000;
	191 : 0000000000000000000;
	192 : 0000000000000000000;
	193 : 0000000000000000000;
	194 : 0000000000000000000;
	195 : 0000000000000000000;
	196 : 0000000000000000000;
	197 : 0000000000000000000;
	198 : 0000000000000000000;
	199 : 0000000000000000000;
	200 : 0000000000000000000;
	201 : 0000000000000000000;
	202 : 0000000000000000000;
	203 : 0000000000000000000;
	204 : 0000000000000000000;
	205 : 0000000000000000000;
	206 : 0000000000000000000;
	207 : 0000000000000000000;
	208 : 0000000000000000000;
	209 : 0000000000000000000;
	210 : 0000000000000000000;
	211 : 0000000000000000000;
	212 : 0000000000000000000;
	213 : 0000000000000000000;
	214 : 0000000000000000000;
	215 : 0000000000000000000;
	216 : 0000000000000000000;
	217 : 0000000000000000000;
	218 : 0000000000000000000;
	219 : 0000000000000000000;
	220 : 0000000000000000000;
	221 : 0000000000000000000;
	222 : 0000000000000000000;
	223 : 0000000000000000000;
	224 : 0000000000000000000;
	225 : 0000000000000000000;
	226 : 0000000000000000000;
	227 : 0000000000000000000;
	228 : 0000000000000000000;
	229 : 0000000000000000000;
	230 : 0000000000000000000;
	231 : 0000000000000000000;
	232 : 0000000000000000000;
	233 : 0000000000000000000;
	234 : 0000000000000000000;
	235 : 0000000000000000000;
	236 : 0000000000000000000;
	237 : 0000000000000000000;
	238 : 0000000000000000000;
	239 : 0000000000000000000;
	240 : 0000000000000000000;
	241 : 0000000000000000000;
	242 : 0000000000000000000;
	243 : 0000000000000000000;
	244 : 0000000000000000000;
	245 : 0000000000000000000;
	246 : 0000000000000000000;
	247 : 0000000000000000000;
	248 : 0000000000000000000;
	249 : 0000000000000000000;
	250 : 0000000000000000000;
	251 : 0000000000000000000;
	252 : 0000000000000000000;
	253 : 0000000000000000000;
	254 : 0000000000000000000;
	255 : 0000000000000000000;
END;
