/*
WARNING: Do NOT edit the input and output ports in this file in a text
editor if you plan to continue editing the block that represents it in
the Block Editor! File corruption is VERY likely to occur.
*/
/*
Copyright (C) 1991-2008 Altera Corporation
Your use of Altera Corporation's design tools, logic functions 
and other software and tools, and its AMPP partner logic 
functions, and any output files from any of the foregoing 
(including device programming or simulation files), and any 
associated documentation or information are expressly subject 
to the terms and conditions of the Altera Program License 
Subscription Agreement, Altera MegaCore Function License 
Agreement, or other applicable license agreement, including, 
without limitation, that your use is for the sole purpose of 
programming logic devices manufactured by Altera and sold by 
Altera or its authorized distributors.  Please refer to the 
applicable agreement for further details.
*/
//#pragma file_not_in_maxplusii_format
(header "graphic" (version "1.3"))
(global
	(rect 416 -8 704 32)
	(parameter)
	(text "PARAM" (rect 3 -1 46 13)(font "Arial" (font_size 8)))
	(text "DEFAULT VALUE" (rect 141 0 229 12)(font "Arial" ))
	(text "busWidth" (rect 3 16 56 30)(font "Arial" (font_size 8)))
	(text " NAME" (rect 108 0 142 12)(font "Arial" ))
	(text "40" (rect 141 16 155 30)(font "Arial" (font_size 8)))
	(drawing
		(line (pt 138 40)(pt 138 0)(line_width 1))
	)
)
(pin
	(input)
	(rect 136 72 312 88)
	(text "INPUT" (rect 141 0 169 10)(font "Arial" (font_size 6)))
	(text "redOldValue[39..0]" (rect 5 0 95 12)(font "Arial" ))
	(pt 176 8)
	(drawing
		(line (pt 100 12)(pt 125 12)(line_width 1))
		(line (pt 100 4)(pt 125 4)(line_width 1))
		(line (pt 129 8)(pt 176 8)(line_width 1))
		(line (pt 100 12)(pt 100 4)(line_width 1))
		(line (pt 125 4)(pt 129 8)(line_width 1))
		(line (pt 125 12)(pt 129 8)(line_width 1))
	)
	(text "VCC" (rect 144 7 164 17)(font "Arial" (font_size 6)))
)
(pin
	(input)
	(rect 144 88 312 104)
	(text "INPUT" (rect 133 0 161 10)(font "Arial" (font_size 6)))
	(text "newValue[39..0]" (rect 5 0 82 12)(font "Arial" ))
	(pt 168 8)
	(drawing
		(line (pt 92 12)(pt 117 12)(line_width 1))
		(line (pt 92 4)(pt 117 4)(line_width 1))
		(line (pt 121 8)(pt 168 8)(line_width 1))
		(line (pt 92 12)(pt 92 4)(line_width 1))
		(line (pt 117 4)(pt 121 8)(line_width 1))
		(line (pt 117 12)(pt 121 8)(line_width 1))
	)
	(text "VCC" (rect 136 7 156 17)(font "Arial" (font_size 6)))
)
(pin
	(input)
	(rect 144 104 312 120)
	(text "INPUT" (rect 133 0 161 10)(font "Arial" (font_size 6)))
	(text "sel" (rect 5 0 19 12)(font "Arial" ))
	(pt 168 8)
	(drawing
		(line (pt 92 12)(pt 117 12)(line_width 1))
		(line (pt 92 4)(pt 117 4)(line_width 1))
		(line (pt 121 8)(pt 168 8)(line_width 1))
		(line (pt 92 12)(pt 92 4)(line_width 1))
		(line (pt 117 4)(pt 121 8)(line_width 1))
		(line (pt 117 12)(pt 121 8)(line_width 1))
	)
	(text "VCC" (rect 136 7 156 17)(font "Arial" (font_size 6)))
)
(pin
	(output)
	(rect 768 72 964 88)
	(text "OUTPUT" (rect 1 0 39 10)(font "Arial" (font_size 6)))
	(text "nextNewValue[39..0]" (rect 90 0 191 12)(font "Arial" ))
	(pt 0 8)
	(drawing
		(line (pt 0 8)(pt 52 8)(line_width 1))
		(line (pt 52 4)(pt 78 4)(line_width 1))
		(line (pt 52 12)(pt 78 12)(line_width 1))
		(line (pt 52 12)(pt 52 4)(line_width 1))
		(line (pt 78 4)(pt 82 8)(line_width 1))
		(line (pt 82 8)(pt 78 12)(line_width 1))
		(line (pt 78 12)(pt 82 8)(line_width 1))
	)
)
(symbol
	(rect 432 48 736 144)
	(text "2-1-mux" (rect 5 0 52 14)(font "Arial" (font_size 8)))
	(text "inst" (rect 8 80 25 92)(font "Arial" ))
	(port
		(pt 0 32)
		(input)
		(text "data0[busWidth-1..0]" (rect 0 0 118 14)(font "Arial" (font_size 8)))
		(text "data0[busWidth-1..0]" (rect 21 27 139 41)(font "Arial" (font_size 8)))
		(line (pt 0 32)(pt 16 32)(line_width 3))
	)
	(port
		(pt 0 48)
		(input)
		(text "data1[busWidth-1..0]" (rect 0 0 118 14)(font "Arial" (font_size 8)))
		(text "data1[busWidth-1..0]" (rect 21 43 139 57)(font "Arial" (font_size 8)))
		(line (pt 0 48)(pt 16 48)(line_width 3))
	)
	(port
		(pt 0 64)
		(input)
		(text "sel" (rect 0 0 16 14)(font "Arial" (font_size 8)))
		(text "sel" (rect 21 59 37 73)(font "Arial" (font_size 8)))
		(line (pt 0 64)(pt 16 64)(line_width 1))
	)
	(port
		(pt 304 32)
		(output)
		(text "dataOut[busWidth-1..0]" (rect 0 0 130 14)(font "Arial" (font_size 8)))
		(text "dataOut[busWidth-1..0]" (rect 153 27 283 41)(font "Arial" (font_size 8)))
		(line (pt 304 32)(pt 288 32)(line_width 3))
	)
	(drawing
		(rectangle (rect 16 16 288 80)(line_width 1))
	)
)
(connector
	(pt 312 80)
	(pt 432 80)
	(bus)
)
(connector
	(pt 312 96)
	(pt 432 96)
	(bus)
)
(connector
	(pt 432 112)
	(pt 312 112)
)
(connector
	(pt 736 80)
	(pt 768 80)
	(bus)
)
