/*
WARNING: Do NOT edit the input and output ports in this file in a text
editor if you plan to continue editing the block that represents it in
the Block Editor! File corruption is VERY likely to occur.
*/
/*
Copyright (C) 1991-2008 Altera Corporation
Your use of Altera Corporation's design tools, logic functions 
and other software and tools, and its AMPP partner logic 
functions, and any output files from any of the foregoing 
(including device programming or simulation files), and any 
associated documentation or information are expressly subject 
to the terms and conditions of the Altera Program License 
Subscription Agreement, Altera MegaCore Function License 
Agreement, or other applicable license agreement, including, 
without limitation, that your use is for the sole purpose of 
programming logic devices manufactured by Altera and sold by 
Altera or its authorized distributors.  Please refer to the 
applicable agreement for further details.
*/
//#pragma file_not_in_maxplusii_format
(header "graphic" (version "1.3"))
(pin
	(input)
	(rect 56 104 224 120)
	(text "INPUT" (rect 133 0 161 10)(font "Arial" (font_size 6)))
	(text "MAND[15..0]" (rect 5 0 68 12)(font "Arial" ))
	(pt 168 8)
	(drawing
		(line (pt 92 12)(pt 117 12)(line_width 1))
		(line (pt 92 4)(pt 117 4)(line_width 1))
		(line (pt 121 8)(pt 168 8)(line_width 1))
		(line (pt 92 12)(pt 92 4)(line_width 1))
		(line (pt 117 4)(pt 121 8)(line_width 1))
		(line (pt 117 12)(pt 121 8)(line_width 1))
	)
	(text "VCC" (rect 136 7 156 17)(font "Arial" (font_size 6)))
)
(pin
	(input)
	(rect 56 264 224 280)
	(text "INPUT" (rect 133 0 161 10)(font "Arial" (font_size 6)))
	(text "RESET_N" (rect 5 0 54 12)(font "Arial" ))
	(pt 168 8)
	(drawing
		(line (pt 92 12)(pt 117 12)(line_width 1))
		(line (pt 92 4)(pt 117 4)(line_width 1))
		(line (pt 121 8)(pt 168 8)(line_width 1))
		(line (pt 92 12)(pt 92 4)(line_width 1))
		(line (pt 117 4)(pt 121 8)(line_width 1))
		(line (pt 117 12)(pt 121 8)(line_width 1))
	)
	(text "VCC" (rect 136 7 156 17)(font "Arial" (font_size 6)))
)
(pin
	(input)
	(rect 56 216 224 232)
	(text "INPUT" (rect 133 0 161 10)(font "Arial" (font_size 6)))
	(text "CLK" (rect 5 0 26 12)(font "Arial" ))
	(pt 168 8)
	(drawing
		(line (pt 92 12)(pt 117 12)(line_width 1))
		(line (pt 92 4)(pt 117 4)(line_width 1))
		(line (pt 121 8)(pt 168 8)(line_width 1))
		(line (pt 92 12)(pt 92 4)(line_width 1))
		(line (pt 117 4)(pt 121 8)(line_width 1))
		(line (pt 117 12)(pt 121 8)(line_width 1))
	)
	(text "VCC" (rect 136 7 156 17)(font "Arial" (font_size 6)))
)
(pin
	(input)
	(rect 56 448 224 464)
	(text "INPUT" (rect 133 0 161 10)(font "Arial" (font_size 6)))
	(text "ENMUL" (rect 5 0 42 12)(font "Arial" ))
	(pt 168 8)
	(drawing
		(line (pt 92 12)(pt 117 12)(line_width 1))
		(line (pt 92 4)(pt 117 4)(line_width 1))
		(line (pt 121 8)(pt 168 8)(line_width 1))
		(line (pt 92 12)(pt 92 4)(line_width 1))
		(line (pt 117 4)(pt 121 8)(line_width 1))
		(line (pt 117 12)(pt 121 8)(line_width 1))
	)
	(text "VCC" (rect 136 7 156 17)(font "Arial" (font_size 6)))
)
(pin
	(input)
	(rect 56 416 224 432)
	(text "INPUT" (rect 133 0 161 10)(font "Arial" (font_size 6)))
	(text "HIGH" (rect 5 0 33 12)(font "Arial" ))
	(pt 168 8)
	(drawing
		(line (pt 92 12)(pt 117 12)(line_width 1))
		(line (pt 92 4)(pt 117 4)(line_width 1))
		(line (pt 121 8)(pt 168 8)(line_width 1))
		(line (pt 92 12)(pt 92 4)(line_width 1))
		(line (pt 117 4)(pt 121 8)(line_width 1))
		(line (pt 117 12)(pt 121 8)(line_width 1))
	)
	(text "VCC" (rect 136 7 156 17)(font "Arial" (font_size 6)))
)
(pin
	(input)
	(rect 56 432 224 448)
	(text "INPUT" (rect 133 0 161 10)(font "Arial" (font_size 6)))
	(text "SOUND" (rect 5 0 45 12)(font "Arial" ))
	(pt 168 8)
	(drawing
		(line (pt 92 12)(pt 117 12)(line_width 1))
		(line (pt 92 4)(pt 117 4)(line_width 1))
		(line (pt 121 8)(pt 168 8)(line_width 1))
		(line (pt 92 12)(pt 92 4)(line_width 1))
		(line (pt 117 4)(pt 121 8)(line_width 1))
		(line (pt 117 12)(pt 121 8)(line_width 1))
	)
	(text "VCC" (rect 136 7 156 17)(font "Arial" (font_size 6)))
)
(pin
	(input)
	(rect 56 296 224 312)
	(text "INPUT" (rect 133 0 161 10)(font "Arial" (font_size 6)))
	(text "RESET_DO" (rect 5 0 62 12)(font "Arial" ))
	(pt 168 8)
	(drawing
		(line (pt 92 12)(pt 117 12)(line_width 1))
		(line (pt 92 4)(pt 117 4)(line_width 1))
		(line (pt 121 8)(pt 168 8)(line_width 1))
		(line (pt 92 12)(pt 92 4)(line_width 1))
		(line (pt 117 4)(pt 121 8)(line_width 1))
		(line (pt 117 12)(pt 121 8)(line_width 1))
	)
	(text "VCC" (rect 136 7 156 17)(font "Arial" (font_size 6)))
)
(pin
	(input)
	(rect 56 232 224 248)
	(text "INPUT" (rect 133 0 161 10)(font "Arial" (font_size 6)))
	(text "LOAD_DO" (rect 5 0 56 12)(font "Arial" ))
	(pt 168 8)
	(drawing
		(line (pt 92 12)(pt 117 12)(line_width 1))
		(line (pt 92 4)(pt 117 4)(line_width 1))
		(line (pt 121 8)(pt 168 8)(line_width 1))
		(line (pt 92 12)(pt 92 4)(line_width 1))
		(line (pt 117 4)(pt 121 8)(line_width 1))
		(line (pt 117 12)(pt 121 8)(line_width 1))
	)
	(text "VCC" (rect 136 7 156 17)(font "Arial" (font_size 6)))
)
(pin
	(input)
	(rect 56 120 224 136)
	(text "INPUT" (rect 133 0 161 10)(font "Arial" (font_size 6)))
	(text "LSL" (rect 5 0 23 12)(font "Arial" ))
	(pt 168 8)
	(drawing
		(line (pt 92 12)(pt 117 12)(line_width 1))
		(line (pt 92 4)(pt 117 4)(line_width 1))
		(line (pt 121 8)(pt 168 8)(line_width 1))
		(line (pt 92 12)(pt 92 4)(line_width 1))
		(line (pt 117 4)(pt 121 8)(line_width 1))
		(line (pt 117 12)(pt 121 8)(line_width 1))
	)
	(text "VCC" (rect 136 7 156 17)(font "Arial" (font_size 6)))
)
(pin
	(input)
	(rect 56 48 224 64)
	(text "INPUT" (rect 133 0 161 10)(font "Arial" (font_size 6)))
	(text "TWOC" (rect 5 0 38 12)(font "Arial" ))
	(pt 168 8)
	(drawing
		(line (pt 92 12)(pt 117 12)(line_width 1))
		(line (pt 92 4)(pt 117 4)(line_width 1))
		(line (pt 121 8)(pt 168 8)(line_width 1))
		(line (pt 92 12)(pt 92 4)(line_width 1))
		(line (pt 117 4)(pt 121 8)(line_width 1))
		(line (pt 117 12)(pt 121 8)(line_width 1))
	)
	(text "VCC" (rect 136 7 156 17)(font "Arial" (font_size 6)))
)
(pin
	(input)
	(rect 56 136 224 152)
	(text "INPUT" (rect 133 0 161 10)(font "Arial" (font_size 6)))
	(text "LOAD_M" (rect 5 0 48 12)(font "Arial" ))
	(pt 168 8)
	(drawing
		(line (pt 92 12)(pt 117 12)(line_width 1))
		(line (pt 92 4)(pt 117 4)(line_width 1))
		(line (pt 121 8)(pt 168 8)(line_width 1))
		(line (pt 92 12)(pt 92 4)(line_width 1))
		(line (pt 117 4)(pt 121 8)(line_width 1))
		(line (pt 117 12)(pt 121 8)(line_width 1))
	)
	(text "VCC" (rect 136 7 156 17)(font "Arial" (font_size 6)))
)
(pin
	(output)
	(rect 1136 384 1312 400)
	(text "OUTPUT" (rect 1 0 39 10)(font "Arial" (font_size 6)))
	(text "RESULT[15..0]" (rect 90 0 164 12)(font "Arial" ))
	(pt 0 8)
	(drawing
		(line (pt 0 8)(pt 52 8)(line_width 1))
		(line (pt 52 4)(pt 78 4)(line_width 1))
		(line (pt 52 12)(pt 78 12)(line_width 1))
		(line (pt 52 12)(pt 52 4)(line_width 1))
		(line (pt 78 4)(pt 82 8)(line_width 1))
		(line (pt 82 8)(pt 78 12)(line_width 1))
		(line (pt 78 12)(pt 82 8)(line_width 1))
	)
)
(pin
	(output)
	(rect 1008 16 1200 32)
	(text "OUTPUT" (rect 1 0 39 10)(font "Arial" (font_size 6)))
	(text "add_RESULT[31..0]" (rect 90 0 187 12)(font "Arial" ))
	(pt 0 8)
	(drawing
		(line (pt 0 8)(pt 52 8)(line_width 1))
		(line (pt 52 4)(pt 78 4)(line_width 1))
		(line (pt 52 12)(pt 78 12)(line_width 1))
		(line (pt 52 12)(pt 52 4)(line_width 1))
		(line (pt 78 4)(pt 82 8)(line_width 1))
		(line (pt 82 8)(pt 78 12)(line_width 1))
		(line (pt 78 12)(pt 82 8)(line_width 1))
	)
)
(pin
	(output)
	(rect 696 16 926 32)
	(text "OUTPUT" (rect 1 0 39 10)(font "Arial" (font_size 6)))
	(text "SHIFTreg_OUTDATA[31..0]" (rect 90 0 225 12)(font "Arial" ))
	(pt 0 8)
	(drawing
		(line (pt 0 8)(pt 52 8)(line_width 1))
		(line (pt 52 4)(pt 78 4)(line_width 1))
		(line (pt 52 12)(pt 78 12)(line_width 1))
		(line (pt 52 12)(pt 52 4)(line_width 1))
		(line (pt 78 4)(pt 82 8)(line_width 1))
		(line (pt 82 8)(pt 78 12)(line_width 1))
		(line (pt 78 12)(pt 82 8)(line_width 1))
	)
)
(pin
	(output)
	(rect 1224 120 1400 136)
	(text "OUTPUT" (rect 1 0 39 10)(font "Arial" (font_size 6)))
	(text "REG_Q[31..0]" (rect 90 0 159 12)(font "Arial" ))
	(pt 0 8)
	(drawing
		(line (pt 0 8)(pt 52 8)(line_width 1))
		(line (pt 52 4)(pt 78 4)(line_width 1))
		(line (pt 52 12)(pt 78 12)(line_width 1))
		(line (pt 52 12)(pt 52 4)(line_width 1))
		(line (pt 78 4)(pt 82 8)(line_width 1))
		(line (pt 82 8)(pt 78 12)(line_width 1))
		(line (pt 78 12)(pt 82 8)(line_width 1))
	)
)
(symbol
	(rect 352 80 584 208)
	(text "wb_mul_shiftreg32left" (rect 5 0 132 14)(font "Arial" (font_size 8)))
	(text "inst" (rect 8 112 25 124)(font "Arial" ))
	(port
		(pt 0 32)
		(input)
		(text "INDATA[15..0]" (rect 0 0 80 14)(font "Arial" (font_size 8)))
		(text "INDATA[15..0]" (rect 21 27 101 41)(font "Arial" (font_size 8)))
		(line (pt 0 32)(pt 16 32)(line_width 3))
	)
	(port
		(pt 0 48)
		(input)
		(text "LSL" (rect 0 0 22 14)(font "Arial" (font_size 8)))
		(text "LSL" (rect 21 43 43 57)(font "Arial" (font_size 8)))
		(line (pt 0 48)(pt 16 48)(line_width 1))
	)
	(port
		(pt 0 80)
		(input)
		(text "CLK" (rect 0 0 23 14)(font "Arial" (font_size 8)))
		(text "CLK" (rect 21 75 44 89)(font "Arial" (font_size 8)))
		(line (pt 0 80)(pt 16 80)(line_width 1))
	)
	(port
		(pt 0 96)
		(input)
		(text "RESET_N" (rect 0 0 53 14)(font "Arial" (font_size 8)))
		(text "RESET_N" (rect 21 91 74 105)(font "Arial" (font_size 8)))
		(line (pt 0 96)(pt 16 96)(line_width 1))
	)
	(port
		(pt 0 64)
		(input)
		(text "LOAD" (rect 0 0 34 14)(font "Arial" (font_size 8)))
		(text "LOAD" (rect 21 59 55 73)(font "Arial" (font_size 8)))
		(line (pt 0 64)(pt 16 64)(line_width 1))
	)
	(port
		(pt 232 32)
		(output)
		(text "OUTDATA[31..0]" (rect 0 0 94 14)(font "Arial" (font_size 8)))
		(text "OUTDATA[31..0]" (rect 128 24 222 38)(font "Arial" (font_size 8)))
		(line (pt 232 32)(pt 216 32)(line_width 3))
	)
	(drawing
		(rectangle (rect 16 16 216 112)(line_width 1))
	)
)
(symbol
	(rect 624 80 688 128)
	(text "XOR" (rect 1 0 21 10)(font "Arial" (font_size 6)))
	(text "inst2" (rect 3 37 26 49)(font "Arial" ))
	(port
		(pt 0 16)
		(input)
		(text "IN1" (rect 2 7 19 19)(font "Courier New" (bold))(invisible))
		(text "IN1" (rect 2 7 19 19)(font "Courier New" (bold))(invisible))
		(line (pt 0 16)(pt 11 16)(line_width 1))
	)
	(port
		(pt 0 32)
		(input)
		(text "IN2" (rect 2 23 19 35)(font "Courier New" (bold))(invisible))
		(text "IN2" (rect 2 23 19 35)(font "Courier New" (bold))(invisible))
		(line (pt 0 32)(pt 11 32)(line_width 1))
	)
	(port
		(pt 64 24)
		(output)
		(text "OUT" (rect 48 15 65 27)(font "Courier New" (bold))(invisible))
		(text "OUT" (rect 48 15 65 27)(font "Courier New" (bold))(invisible))
		(line (pt 49 24)(pt 64 24)(line_width 1))
	)
	(drawing
		(line (pt 14 13)(pt 25 13)(line_width 1))
		(line (pt 14 36)(pt 25 36)(line_width 1))
		(arc (pt 7 29)(pt 7 19)(rect -14 8 19 41)(line_width 1))
		(arc (pt 49 24)(pt 25 13)(rect -6 13 57 76)(line_width 1))
		(arc (pt 25 35)(pt 49 24)(rect -6 -27 57 36)(line_width 1))
		(arc (pt 8 36)(pt 8 12)(rect -21 7 14 42)(line_width 1))
	)
)
(symbol
	(rect 744 48 904 160)
	(text "lpm_add_sub0" (rect 38 1 137 17)(font "Arial" (font_size 10)))
	(text "inst3" (rect 8 96 31 108)(font "Arial" ))
	(port
		(pt 0 56)
		(input)
		(text "dataa[31..0]" (rect 0 0 67 14)(font "Arial" (font_size 8)))
		(text "dataa[31..0]" (rect 4 43 71 57)(font "Arial" (font_size 8)))
		(line (pt 0 56)(pt 64 56)(line_width 3))
	)
	(port
		(pt 0 88)
		(input)
		(text "datab[31..0]" (rect 0 0 67 14)(font "Arial" (font_size 8)))
		(text "datab[31..0]" (rect 4 75 71 89)(font "Arial" (font_size 8)))
		(line (pt 0 88)(pt 64 88)(line_width 3))
	)
	(port
		(pt 0 32)
		(input)
		(text "cin" (rect 0 0 16 14)(font "Arial" (font_size 8)))
		(text "cin" (rect 4 19 20 33)(font "Arial" (font_size 8)))
		(line (pt 0 32)(pt 80 32)(line_width 1))
	)
	(port
		(pt 160 72)
		(output)
		(text "result[31..0]" (rect 0 0 67 14)(font "Arial" (font_size 8)))
		(text "result[31..0]" (rect 100 59 167 73)(font "Arial" (font_size 8)))
		(line (pt 160 72)(pt 96 72)(line_width 3))
	)
	(drawing
		(text "A" (rect 66 50 75 64)(font "Arial" (font_size 8)))
		(text "B" (rect 66 82 74 96)(font "Arial" (font_size 8)))
		(text "A+B" (rect 73 66 97 80)(font "Arial" (font_size 8)))
		(line (pt 64 48)(pt 96 56)(line_width 1))
		(line (pt 96 56)(pt 96 88)(line_width 1))
		(line (pt 96 88)(pt 64 96)(line_width 1))
		(line (pt 64 96)(pt 64 48)(line_width 1))
		(line (pt 80 32)(pt 80 52)(line_width 1))
	)
)
(symbol
	(rect 1040 88 1184 184)
	(text "lpm_dff0" (rect 48 1 104 17)(font "Arial" (font_size 10)))
	(text "inst4" (rect 8 80 31 92)(font "Arial" ))
	(port
		(pt 0 32)
		(input)
		(text "data[31..0]" (rect 0 0 60 14)(font "Arial" (font_size 8)))
		(text "data[31..0]" (rect 20 26 80 40)(font "Arial" (font_size 8)))
		(line (pt 0 32)(pt 16 32)(line_width 3))
	)
	(port
		(pt 0 48)
		(input)
		(text "clock" (rect 0 0 29 14)(font "Arial" (font_size 8)))
		(text "clock" (rect 26 42 55 56)(font "Arial" (font_size 8)))
		(line (pt 0 48)(pt 16 48)(line_width 1))
	)
	(port
		(pt 0 64)
		(input)
		(text "enable" (rect 0 0 37 14)(font "Arial" (font_size 8)))
		(text "enable" (rect 20 58 57 72)(font "Arial" (font_size 8)))
		(line (pt 0 64)(pt 16 64)(line_width 1))
	)
	(port
		(pt 80 96)
		(input)
		(text "aclr" (rect 0 0 14 21)(font "Arial" (font_size 8))(vertical))
		(text "aclr" (rect 73 59 87 80)(font "Arial" (font_size 8))(vertical))
		(line (pt 80 96)(pt 80 80)(line_width 1))
	)
	(port
		(pt 144 40)
		(output)
		(text "q[31..0]" (rect 0 0 42 14)(font "Arial" (font_size 8)))
		(text "q[31..0]" (rect 89 34 131 48)(font "Arial" (font_size 8)))
		(line (pt 144 40)(pt 128 40)(line_width 3))
	)
	(drawing
		(text "DFF" (rect 109 17 131 29)(font "Arial" ))
		(line (pt 16 16)(pt 128 16)(line_width 1))
		(line (pt 128 16)(pt 128 80)(line_width 1))
		(line (pt 128 80)(pt 16 80)(line_width 1))
		(line (pt 16 80)(pt 16 16)(line_width 1))
		(line (pt 16 42)(pt 22 48)(line_width 1))
		(line (pt 22 48)(pt 16 54)(line_width 1))
	)
)
(symbol
	(rect 1016 272 1080 320)
	(text "OR2" (rect 1 0 19 10)(font "Arial" (font_size 6)))
	(text "inst5" (rect 3 37 26 49)(font "Arial" ))
	(port
		(pt 0 32)
		(input)
		(text "IN2" (rect 2 23 19 35)(font "Courier New" (bold))(invisible))
		(text "IN2" (rect 2 23 19 35)(font "Courier New" (bold))(invisible))
		(line (pt 0 32)(pt 15 32)(line_width 1))
	)
	(port
		(pt 0 16)
		(input)
		(text "IN1" (rect 2 7 19 19)(font "Courier New" (bold))(invisible))
		(text "IN1" (rect 2 7 19 19)(font "Courier New" (bold))(invisible))
		(line (pt 0 16)(pt 15 16)(line_width 1))
	)
	(port
		(pt 64 24)
		(output)
		(text "OUT" (rect 48 15 65 27)(font "Courier New" (bold))(invisible))
		(text "OUT" (rect 48 15 65 27)(font "Courier New" (bold))(invisible))
		(line (pt 48 24)(pt 64 24)(line_width 1))
	)
	(drawing
		(line (pt 14 36)(pt 25 36)(line_width 1))
		(line (pt 14 13)(pt 25 13)(line_width 1))
		(arc (pt 7 29)(pt 7 19)(rect -14 8 19 41)(line_width 1))
		(arc (pt 49 24)(pt 25 13)(rect -6 13 57 76)(line_width 1))
		(arc (pt 25 35)(pt 49 24)(rect -6 -27 57 36)(line_width 1))
	)
)
(symbol
	(rect 936 256 984 288)
	(text "NOT" (rect 1 0 21 10)(font "Arial" (font_size 6)))
	(text "inst6" (rect 3 21 26 33)(font "Arial" ))
	(port
		(pt 0 16)
		(input)
		(text "IN" (rect 2 7 13 19)(font "Courier New" (bold))(invisible))
		(text "IN" (rect 2 7 13 19)(font "Courier New" (bold))(invisible))
		(line (pt 0 16)(pt 13 16)(line_width 1))
	)
	(port
		(pt 48 16)
		(output)
		(text "OUT" (rect 32 7 49 19)(font "Courier New" (bold))(invisible))
		(text "OUT" (rect 32 7 49 19)(font "Courier New" (bold))(invisible))
		(line (pt 39 16)(pt 48 16)(line_width 1))
	)
	(drawing
		(line (pt 13 25)(pt 13 7)(line_width 1))
		(line (pt 13 7)(pt 31 16)(line_width 1))
		(line (pt 13 25)(pt 31 16)(line_width 1))
		(circle (rect 31 12 39 20)(line_width 1))
	)
)
(symbol
	(rect 728 360 944 488)
	(text "wb_mul_outputselector" (rect 5 0 138 14)(font "Arial" (font_size 8)))
	(text "inst7" (rect 8 112 31 124)(font "Arial" ))
	(port
		(pt 0 48)
		(input)
		(text "MAND[15..0]" (rect 0 0 70 14)(font "Arial" (font_size 8)))
		(text "MAND[15..0]" (rect 21 43 91 57)(font "Arial" (font_size 8)))
		(line (pt 0 48)(pt 16 48)(line_width 3))
	)
	(port
		(pt 0 32)
		(input)
		(text "PRODUCT[31..0]" (rect 0 0 92 14)(font "Arial" (font_size 8)))
		(text "PRODUCT[31..0]" (rect 21 27 113 41)(font "Arial" (font_size 8)))
		(line (pt 0 32)(pt 16 32)(line_width 3))
	)
	(port
		(pt 0 64)
		(input)
		(text "HIGH" (rect 0 0 28 14)(font "Arial" (font_size 8)))
		(text "HIGH" (rect 21 59 49 73)(font "Arial" (font_size 8)))
		(line (pt 0 64)(pt 16 64)(line_width 1))
	)
	(port
		(pt 0 80)
		(input)
		(text "SOUND" (rect 0 0 42 14)(font "Arial" (font_size 8)))
		(text "SOUND" (rect 21 75 63 89)(font "Arial" (font_size 8)))
		(line (pt 0 80)(pt 16 80)(line_width 1))
	)
	(port
		(pt 0 96)
		(input)
		(text "ENMUL" (rect 0 0 40 14)(font "Arial" (font_size 8)))
		(text "ENMUL" (rect 21 91 61 105)(font "Arial" (font_size 8)))
		(line (pt 0 96)(pt 16 96)(line_width 1))
	)
	(port
		(pt 216 32)
		(output)
		(text "RESULT[15..0]" (rect -8 0 73 14)(font "Arial" (font_size 8)))
		(text "RESULT[15..0]" (rect 128 24 209 38)(font "Arial" (font_size 8)))
		(line (pt 216 32)(pt 200 32)(line_width 3))
	)
	(drawing
		(rectangle (rect 16 16 200 112)(line_width 1))
	)
)
(connector
	(pt 616 96)
	(pt 624 96)
)
(connector
	(pt 616 56)
	(pt 616 96)
)
(connector
	(pt 224 56)
	(pt 616 56)
)
(connector
	(pt 616 56)
	(pt 704 56)
)
(connector
	(pt 704 56)
	(pt 704 80)
)
(connector
	(pt 688 104)
	(pt 744 104)
	(bus)
)
(connector
	(pt 704 80)
	(pt 744 80)
)
(connector
	(text "LOAD_DO" (rect 994 136 1045 148)(font "Arial" ))
	(pt 1040 152)
	(pt 984 152)
)
(connector
	(pt 352 128)
	(pt 224 128)
)
(connector
	(pt 352 144)
	(pt 224 144)
)
(connector
	(pt 352 160)
	(pt 320 160)
)
(connector
	(pt 320 160)
	(pt 320 224)
)
(connector
	(pt 224 240)
	(pt 984 240)
)
(connector
	(pt 984 240)
	(pt 984 152)
)
(connector
	(pt 968 224)
	(pt 968 136)
)
(connector
	(text "CLK" (rect 994 120 1015 132)(font "Arial" ))
	(pt 1040 136)
	(pt 968 136)
)
(connector
	(pt 224 224)
	(pt 320 224)
)
(connector
	(pt 320 224)
	(pt 968 224)
)
(connector
	(pt 352 176)
	(pt 336 176)
)
(connector
	(pt 336 176)
	(pt 336 272)
)
(connector
	(pt 1120 296)
	(pt 1080 296)
)
(connector
	(pt 1120 184)
	(pt 1120 296)
)
(connector
	(pt 1016 304)
	(pt 224 304)
)
(connector
	(pt 984 272)
	(pt 1000 272)
)
(connector
	(pt 1000 272)
	(pt 1000 288)
)
(connector
	(pt 1000 288)
	(pt 1016 288)
)
(connector
	(pt 224 272)
	(pt 336 272)
)
(connector
	(pt 336 272)
	(pt 936 272)
)
(connector
	(pt 704 136)
	(pt 744 136)
	(bus)
)
(connector
	(pt 1200 128)
	(pt 1200 336)
	(bus)
)
(connector
	(text "PRODUCT[31..0]" (rect 1114 320 1200 332)(font "Arial" ))
	(pt 1200 336)
	(pt 704 336)
	(bus)
)
(connector
	(pt 704 136)
	(pt 704 336)
	(bus)
)
(connector
	(pt 704 336)
	(pt 704 392)
	(bus)
)
(connector
	(pt 704 392)
	(pt 728 392)
	(bus)
)
(connector
	(pt 728 408)
	(pt 304 408)
	(bus)
)
(connector
	(pt 304 408)
	(pt 304 112)
	(bus)
)
(connector
	(text "mand[15..0]" (rect 234 96 293 108)(font "Arial" ))
	(pt 352 112)
	(pt 304 112)
	(bus)
)
(connector
	(pt 304 112)
	(pt 224 112)
	(bus)
)
(connector
	(pt 728 424)
	(pt 224 424)
)
(connector
	(pt 728 440)
	(pt 224 440)
)
(connector
	(pt 728 456)
	(pt 224 456)
)
(connector
	(pt 944 392)
	(pt 1136 392)
	(bus)
)
(connector
	(pt 592 112)
	(pt 592 24)
	(bus)
)
(connector
	(pt 592 24)
	(pt 696 24)
	(bus)
)
(connector
	(pt 584 112)
	(pt 592 112)
	(bus)
)
(connector
	(pt 592 112)
	(pt 624 112)
	(bus)
)
(connector
	(pt 968 120)
	(pt 968 24)
	(bus)
)
(connector
	(pt 968 24)
	(pt 1008 24)
	(bus)
)
(connector
	(pt 904 120)
	(pt 968 120)
	(bus)
)
(connector
	(pt 968 120)
	(pt 1040 120)
	(bus)
)
(connector
	(pt 1184 128)
	(pt 1200 128)
	(bus)
)
(connector
	(pt 1200 128)
	(pt 1224 128)
	(bus)
)
(junction (pt 616 56))
(junction (pt 320 224))
(junction (pt 336 272))
(junction (pt 704 336))
(junction (pt 304 112))
(junction (pt 592 112))
(junction (pt 968 120))
(junction (pt 1200 128))
(text "32-BIT INVERT" (rect 616 128 698 142)(font "Arial" (font_size 8)))
