/*
WARNING: Do NOT edit the input and output ports in this file in a text
editor if you plan to continue editing the block that represents it in
the Block Editor! File corruption is VERY likely to occur.
*/
/*
Copyright (C) 1991-2008 Altera Corporation
Your use of Altera Corporation's design tools, logic functions 
and other software and tools, and its AMPP partner logic 
functions, and any output files from any of the foregoing 
(including device programming or simulation files), and any 
associated documentation or information are expressly subject 
to the terms and conditions of the Altera Program License 
Subscription Agreement, Altera MegaCore Function License 
Agreement, or other applicable license agreement, including, 
without limitation, that your use is for the sole purpose of 
programming logic devices manufactured by Altera and sold by 
Altera or its authorized distributors.  Please refer to the 
applicable agreement for further details.
*/
//#pragma file_not_in_maxplusii_format
(header "graphic" (version "1.3"))
(pin
	(input)
	(rect 88 88 256 104)
	(text "INPUT" (rect 133 0 161 10)(font "Arial" (font_size 6)))
	(text "A[15..0]" (rect 9 0 47 12)(font "Arial" ))
	(pt 168 8)
	(drawing
		(line (pt 92 12)(pt 117 12)(line_width 1))
		(line (pt 92 4)(pt 117 4)(line_width 1))
		(line (pt 121 8)(pt 168 8)(line_width 1))
		(line (pt 92 12)(pt 92 4)(line_width 1))
		(line (pt 117 4)(pt 121 8)(line_width 1))
		(line (pt 117 12)(pt 121 8)(line_width 1))
	)
	(text "VCC" (rect 136 7 156 17)(font "Arial" (font_size 6)))
)
(pin
	(input)
	(rect 88 328 256 344)
	(text "INPUT" (rect 133 0 161 10)(font "Arial" (font_size 6)))
	(text "B[15..0]" (rect 9 0 47 12)(font "Arial" ))
	(pt 168 8)
	(drawing
		(line (pt 92 12)(pt 117 12)(line_width 1))
		(line (pt 92 4)(pt 117 4)(line_width 1))
		(line (pt 121 8)(pt 168 8)(line_width 1))
		(line (pt 92 12)(pt 92 4)(line_width 1))
		(line (pt 117 4)(pt 121 8)(line_width 1))
		(line (pt 117 12)(pt 121 8)(line_width 1))
	)
	(text "VCC" (rect 136 7 156 17)(font "Arial" (font_size 6)))
)
(pin
	(input)
	(rect 88 232 256 248)
	(text "INPUT" (rect 133 0 161 10)(font "Arial" (font_size 6)))
	(text "C[7..0]" (rect 9 0 43 12)(font "Arial" ))
	(pt 168 8)
	(drawing
		(line (pt 92 12)(pt 117 12)(line_width 1))
		(line (pt 92 4)(pt 117 4)(line_width 1))
		(line (pt 121 8)(pt 168 8)(line_width 1))
		(line (pt 92 12)(pt 92 4)(line_width 1))
		(line (pt 117 4)(pt 121 8)(line_width 1))
		(line (pt 117 12)(pt 121 8)(line_width 1))
	)
	(text "VCC" (rect 136 7 156 17)(font "Arial" (font_size 6)))
)
(pin
	(input)
	(rect 88 256 256 272)
	(text "INPUT" (rect 133 0 161 10)(font "Arial" (font_size 6)))
	(text "D[7..0]" (rect 9 0 43 12)(font "Arial" ))
	(pt 168 8)
	(drawing
		(line (pt 92 12)(pt 117 12)(line_width 1))
		(line (pt 92 4)(pt 117 4)(line_width 1))
		(line (pt 121 8)(pt 168 8)(line_width 1))
		(line (pt 92 12)(pt 92 4)(line_width 1))
		(line (pt 117 4)(pt 121 8)(line_width 1))
		(line (pt 117 12)(pt 121 8)(line_width 1))
	)
	(text "VCC" (rect 136 7 156 17)(font "Arial" (font_size 6)))
)
(pin
	(input)
	(rect 88 344 256 360)
	(text "INPUT" (rect 133 0 161 10)(font "Arial" (font_size 6)))
	(text "CLK" (rect 9 0 30 12)(font "Arial" ))
	(pt 168 8)
	(drawing
		(line (pt 92 12)(pt 117 12)(line_width 1))
		(line (pt 92 4)(pt 117 4)(line_width 1))
		(line (pt 121 8)(pt 168 8)(line_width 1))
		(line (pt 92 12)(pt 92 4)(line_width 1))
		(line (pt 117 4)(pt 121 8)(line_width 1))
		(line (pt 117 12)(pt 121 8)(line_width 1))
	)
	(text "VCC" (rect 136 7 156 17)(font "Arial" (font_size 6)))
)
(pin
	(input)
	(rect 88 360 256 376)
	(text "INPUT" (rect 133 0 161 10)(font "Arial" (font_size 6)))
	(text "RESET_N" (rect 9 0 58 12)(font "Arial" ))
	(pt 168 8)
	(drawing
		(line (pt 92 12)(pt 117 12)(line_width 1))
		(line (pt 92 4)(pt 117 4)(line_width 1))
		(line (pt 121 8)(pt 168 8)(line_width 1))
		(line (pt 92 12)(pt 92 4)(line_width 1))
		(line (pt 117 4)(pt 121 8)(line_width 1))
		(line (pt 117 12)(pt 121 8)(line_width 1))
	)
	(text "VCC" (rect 136 7 156 17)(font "Arial" (font_size 6)))
)
(pin
	(input)
	(rect 88 168 256 184)
	(text "INPUT" (rect 133 0 161 10)(font "Arial" (font_size 6)))
	(text "DVI" (rect 5 0 23 12)(font "Arial" ))
	(pt 168 8)
	(drawing
		(line (pt 92 12)(pt 117 12)(line_width 1))
		(line (pt 92 4)(pt 117 4)(line_width 1))
		(line (pt 121 8)(pt 168 8)(line_width 1))
		(line (pt 92 12)(pt 92 4)(line_width 1))
		(line (pt 117 4)(pt 121 8)(line_width 1))
		(line (pt 117 12)(pt 121 8)(line_width 1))
	)
	(text "VCC" (rect 136 7 156 17)(font "Arial" (font_size 6)))
)
(pin
	(output)
	(rect 1032 392 1208 408)
	(text "OUTPUT" (rect 1 0 39 10)(font "Arial" (font_size 6)))
	(text "STATUS[7..0]" (rect 90 0 157 12)(font "Arial" ))
	(pt 0 8)
	(drawing
		(line (pt 0 8)(pt 52 8)(line_width 1))
		(line (pt 52 4)(pt 78 4)(line_width 1))
		(line (pt 52 12)(pt 78 12)(line_width 1))
		(line (pt 52 12)(pt 52 4)(line_width 1))
		(line (pt 78 4)(pt 82 8)(line_width 1))
		(line (pt 82 8)(pt 78 12)(line_width 1))
		(line (pt 78 12)(pt 82 8)(line_width 1))
	)
)
(pin
	(output)
	(rect 1032 328 1208 344)
	(text "OUTPUT" (rect 1 0 39 10)(font "Arial" (font_size 6)))
	(text "RESULT_A[15..0]" (rect 90 0 177 12)(font "Arial" ))
	(pt 0 8)
	(drawing
		(line (pt 0 8)(pt 52 8)(line_width 1))
		(line (pt 52 4)(pt 78 4)(line_width 1))
		(line (pt 52 12)(pt 78 12)(line_width 1))
		(line (pt 52 12)(pt 52 4)(line_width 1))
		(line (pt 78 4)(pt 82 8)(line_width 1))
		(line (pt 82 8)(pt 78 12)(line_width 1))
		(line (pt 78 12)(pt 82 8)(line_width 1))
	)
)
(pin
	(output)
	(rect 1032 312 1208 328)
	(text "OUTPUT" (rect 1 0 39 10)(font "Arial" (font_size 6)))
	(text "RESULT_B[15..0]" (rect 90 0 177 12)(font "Arial" ))
	(pt 0 8)
	(drawing
		(line (pt 0 8)(pt 52 8)(line_width 1))
		(line (pt 52 4)(pt 78 4)(line_width 1))
		(line (pt 52 12)(pt 78 12)(line_width 1))
		(line (pt 52 12)(pt 52 4)(line_width 1))
		(line (pt 78 4)(pt 82 8)(line_width 1))
		(line (pt 82 8)(pt 78 12)(line_width 1))
		(line (pt 78 12)(pt 82 8)(line_width 1))
	)
)
(pin
	(output)
	(rect 1032 296 1208 312)
	(text "OUTPUT" (rect 1 0 39 10)(font "Arial" (font_size 6)))
	(text "DVO" (rect 90 0 113 12)(font "Arial" ))
	(pt 0 8)
	(drawing
		(line (pt 0 8)(pt 52 8)(line_width 1))
		(line (pt 52 4)(pt 78 4)(line_width 1))
		(line (pt 52 12)(pt 78 12)(line_width 1))
		(line (pt 52 12)(pt 52 4)(line_width 1))
		(line (pt 78 4)(pt 82 8)(line_width 1))
		(line (pt 82 8)(pt 78 12)(line_width 1))
		(line (pt 78 12)(pt 82 8)(line_width 1))
	)
)
(symbol
	(rect 640 272 864 448)
	(text "mul" (rect 5 0 23 14)(font "Arial" (font_size 8)))
	(text "inst1" (rect 16 160 39 172)(font "Arial" ))
	(port
		(pt 0 32)
		(input)
		(text "DVI" (rect 0 0 20 14)(font "Arial" (font_size 8)))
		(text "DVI" (rect 21 24 41 38)(font "Arial" (font_size 8)))
		(line (pt 0 32)(pt 16 32)(line_width 1))
	)
	(port
		(pt 0 64)
		(input)
		(text "MTOR[15..0]" (rect 0 0 69 14)(font "Arial" (font_size 8)))
		(text "MTOR[15..0]" (rect 21 56 90 70)(font "Arial" (font_size 8)))
		(line (pt 0 64)(pt 16 64)(line_width 3))
	)
	(port
		(pt 0 80)
		(input)
		(text "CLK" (rect 0 0 23 14)(font "Arial" (font_size 8)))
		(text "CLK" (rect 21 72 44 86)(font "Arial" (font_size 8)))
		(line (pt 0 80)(pt 16 80)(line_width 1))
	)
	(port
		(pt 0 96)
		(input)
		(text "RESET_N" (rect 0 0 53 14)(font "Arial" (font_size 8)))
		(text "RESET_N" (rect 21 88 74 102)(font "Arial" (font_size 8)))
		(line (pt 0 96)(pt 16 96)(line_width 1))
	)
	(port
		(pt 0 48)
		(input)
		(text "MAND[15..0]" (rect 0 0 70 14)(font "Arial" (font_size 8)))
		(text "MAND[15..0]" (rect 21 40 91 54)(font "Arial" (font_size 8)))
		(line (pt 0 48)(pt 16 48)(line_width 3))
	)
	(port
		(pt 0 128)
		(input)
		(text "ENMUL" (rect 0 0 40 14)(font "Arial" (font_size 8)))
		(text "ENMUL" (rect 21 120 61 134)(font "Arial" (font_size 8)))
		(line (pt 0 128)(pt 16 128)(line_width 1))
	)
	(port
		(pt 0 144)
		(input)
		(text "SOUND" (rect 0 0 42 14)(font "Arial" (font_size 8)))
		(text "SOUND" (rect 21 136 63 150)(font "Arial" (font_size 8)))
		(line (pt 0 144)(pt 16 144)(line_width 1))
	)
	(port
		(pt 224 32)
		(output)
		(text "DVO" (rect 0 0 27 14)(font "Arial" (font_size 8)))
		(text "DVO" (rect 176 27 203 41)(font "Arial" (font_size 8)))
		(line (pt 224 32)(pt 208 32)(line_width 1))
	)
	(port
		(pt 224 128)
		(output)
		(text "COUNT[3..0]" (rect 0 0 69 14)(font "Arial" (font_size 8)))
		(text "COUNT[3..0]" (rect 144 120 213 134)(font "Arial" (font_size 8)))
		(line (pt 224 128)(pt 208 128)(line_width 3))
	)
	(port
		(pt 224 48)
		(output)
		(text "RESULT_B[15..0]" (rect 0 0 96 14)(font "Arial" (font_size 8)))
		(text "RESULT_B[15..0]" (rect 120 40 216 54)(font "Arial" (font_size 8)))
		(line (pt 224 48)(pt 208 48)(line_width 3))
	)
	(port
		(pt 224 64)
		(output)
		(text "RESULT_A[15..0]" (rect 0 0 97 14)(font "Arial" (font_size 8)))
		(text "RESULT_A[15..0]" (rect 120 56 217 70)(font "Arial" (font_size 8)))
		(line (pt 224 64)(pt 208 64)(line_width 3))
	)
	(drawing
		(rectangle (rect 16 16 208 160)(line_width 1))
	)
)
(symbol
	(rect 368 64 520 160)
	(text "abs" (rect 5 0 26 14)(font "Arial" (font_size 8)))
	(text "inst" (rect 8 80 25 92)(font "Arial" ))
	(port
		(pt 0 56)
		(input)
		(text "ENABS" (rect 0 0 41 14)(font "Arial" (font_size 8)))
		(text "ENABS" (rect 21 51 62 65)(font "Arial" (font_size 8)))
		(line (pt 0 56)(pt 16 56)(line_width 1))
	)
	(port
		(pt 0 32)
		(input)
		(text "DI[15..0]" (rect 0 0 46 14)(font "Arial" (font_size 8)))
		(text "DI[15..0]" (rect 21 27 67 41)(font "Arial" (font_size 8)))
		(line (pt 0 32)(pt 16 32)(line_width 3))
	)
	(port
		(pt 152 32)
		(output)
		(text "DO[15..0]" (rect 0 0 53 14)(font "Arial" (font_size 8)))
		(text "DO[15..0]" (rect 78 27 131 41)(font "Arial" (font_size 8)))
		(line (pt 152 32)(pt 136 32)(line_width 3))
	)
	(drawing
		(rectangle (rect 16 16 136 80)(line_width 1))
	)
)
(symbol
	(rect 624 64 864 224)
	(text "fact" (rect 5 0 27 14)(font "Arial" (font_size 8)))
	(text "inst5" (rect 8 144 31 156)(font "Arial" ))
	(port
		(pt 0 48)
		(input)
		(text "reductionSpeed[3..0]" (rect 0 0 118 14)(font "Arial" (font_size 8)))
		(text "reductionSpeed[3..0]" (rect 21 43 139 57)(font "Arial" (font_size 8)))
		(line (pt 0 48)(pt 16 48)(line_width 3))
	)
	(port
		(pt 0 32)
		(input)
		(text "DI[15..0]" (rect 0 0 46 14)(font "Arial" (font_size 8)))
		(text "DI[15..0]" (rect 21 27 67 41)(font "Arial" (font_size 8)))
		(line (pt 0 32)(pt 16 32)(line_width 3))
	)
	(port
		(pt 0 64)
		(input)
		(text "DVI" (rect 0 0 20 14)(font "Arial" (font_size 8)))
		(text "DVI" (rect 21 59 41 73)(font "Arial" (font_size 8)))
		(line (pt 0 64)(pt 16 64)(line_width 1))
	)
	(port
		(pt 0 80)
		(input)
		(text "CLK" (rect 0 0 23 14)(font "Arial" (font_size 8)))
		(text "CLK" (rect 21 75 44 89)(font "Arial" (font_size 8)))
		(line (pt 0 80)(pt 16 80)(line_width 1))
	)
	(port
		(pt 0 96)
		(input)
		(text "RESET_N" (rect 0 0 53 14)(font "Arial" (font_size 8)))
		(text "RESET_N" (rect 21 91 74 105)(font "Arial" (font_size 8)))
		(line (pt 0 96)(pt 16 96)(line_width 1))
	)
	(port
		(pt 0 112)
		(input)
		(text "ENFACT" (rect 0 0 47 14)(font "Arial" (font_size 8)))
		(text "ENFACT" (rect 21 107 68 121)(font "Arial" (font_size 8)))
		(line (pt 0 112)(pt 16 112)(line_width 1))
	)
	(port
		(pt 240 32)
		(output)
		(text "DVO" (rect 0 0 27 14)(font "Arial" (font_size 8)))
		(text "DVO" (rect 192 27 219 41)(font "Arial" (font_size 8)))
		(line (pt 240 32)(pt 224 32)(line_width 1))
	)
	(port
		(pt 240 48)
		(output)
		(text "factor[15..0]" (rect 0 0 69 14)(font "Arial" (font_size 8)))
		(text "factor[15..0]" (rect 150 43 219 57)(font "Arial" (font_size 8)))
		(line (pt 240 48)(pt 224 48)(line_width 3))
	)
	(drawing
		(rectangle (rect 16 16 224 144)(line_width 1))
	)
)
(connector
	(text "C[3..0]" (rect 578 96 612 108)(font "Arial" ))
	(pt 568 112)
	(pt 624 112)
	(bus)
)
(connector
	(pt 864 112)
	(pt 880 112)
	(bus)
)
(connector
	(pt 624 128)
	(pt 536 128)
)
(connector
	(pt 624 144)
	(pt 552 144)
)
(connector
	(pt 624 160)
	(pt 568 160)
)
(connector
	(text "C[5]" (rect 594 160 615 172)(font "Arial" ))
	(pt 584 176)
	(pt 624 176)
)
(connector
	(pt 896 96)
	(pt 896 256)
)
(connector
	(text "STATUS[7..4]" (rect 874 384 941 396)(font "Arial" ))
	(pt 864 400)
	(pt 928 400)
	(bus)
)
(connector
	(text "STATUS[7..0]" (rect 970 384 1037 396)(font "Arial" ))
	(pt 1032 400)
	(pt 968 400)
	(bus)
)
(connector
	(pt 640 304)
	(pt 624 304)
)
(connector
	(pt 640 320)
	(pt 608 320)
	(bus)
)
(connector
	(pt 608 240)
	(pt 608 320)
	(bus)
)
(connector
	(text "factor[15..0]" (rect 626 224 687 236)(font "Arial" ))
	(pt 880 240)
	(pt 608 240)
	(bus)
)
(connector
	(pt 624 256)
	(pt 624 304)
)
(connector
	(pt 896 256)
	(pt 624 256)
)
(connector
	(text "B[15..0]" (rect 266 320 304 332)(font "Arial" ))
	(pt 256 336)
	(pt 640 336)
	(bus)
)
(connector
	(pt 552 144)
	(pt 552 352)
)
(connector
	(pt 256 352)
	(pt 552 352)
)
(connector
	(pt 552 352)
	(pt 640 352)
)
(connector
	(pt 568 160)
	(pt 568 368)
)
(connector
	(pt 256 368)
	(pt 568 368)
)
(connector
	(pt 568 368)
	(pt 640 368)
)
(connector
	(text "D[7..0]" (rect 266 248 300 260)(font "Arial" ))
	(pt 256 264)
	(pt 296 264)
	(bus)
)
(connector
	(text "C[7..0]" (rect 266 224 300 236)(font "Arial" ))
	(pt 256 240)
	(pt 296 240)
	(bus)
)
(connector
	(text "D[7]" (rect 610 400 631 412)(font "Arial" ))
	(pt 640 416)
	(pt 600 416)
)
(connector
	(text "C[6]" (rect 610 384 631 396)(font "Arial" ))
	(pt 640 400)
	(pt 600 400)
)
(connector
	(text "STATUS[3]" (rect 890 288 944 300)(font "Arial" ))
	(pt 864 304)
	(pt 1032 304)
)
(connector
	(text "STATUS[2]" (rect 872 80 926 92)(font "Arial" ))
	(pt 864 96)
	(pt 896 96)
)
(connector
	(pt 864 336)
	(pt 1032 336)
	(bus)
)
(connector
	(pt 536 128)
	(pt 536 176)
)
(connector
	(pt 536 176)
	(pt 256 176)
)
(connector
	(text "A[15..0]" (rect 266 80 304 92)(font "Arial" ))
	(pt 256 96)
	(pt 368 96)
	(bus)
)
(connector
	(pt 520 96)
	(pt 624 96)
	(bus)
)
(connector
	(text "C[4]" (rect 346 104 367 116)(font "Arial" ))
	(pt 368 120)
	(pt 344 120)
)
(connector
	(pt 864 320)
	(pt 1032 320)
	(bus)
)
(connector
	(pt 880 112)
	(pt 880 240)
	(bus)
)
(junction (pt 552 352))
(junction (pt 568 368))
