-- Contents are randomly generated during RTL generation.
WIDTH=10;
DEPTH=64;

ADDRESS_RADIX=HEX;
DATA_RADIX=HEX;

CONTENT BEGIN

00 : 277;
01 : 31e;
02 : 31c;
03 : 287;
04 : 0fa;
05 : 125;
06 : 2b3;
07 : 385;
08 : 39f;
09 : 1b8;
0a : 029;
0b : 0aa;
0c : 339;
0d : 208;
0e : 35e;
0f : 14c;
10 : 09d;
11 : 02c;
12 : 3e8;
13 : 0f2;
14 : 3d6;
15 : 36a;
16 : 09b;
17 : 1d6;
18 : 2b9;
19 : 03c;
1a : 356;
1b : 081;
1c : 1e8;
1d : 23b;
1e : 198;
1f : 373;
20 : 13b;
21 : 3a5;
22 : 347;
23 : 1c0;
24 : 2ce;
25 : 083;
26 : 2a4;
27 : 07b;
28 : 143;
29 : 073;
2a : 0b4;
2b : 128;
2c : 1f2;
2d : 1f5;
2e : 357;
2f : 12e;
30 : 265;
31 : 363;
32 : 1dd;
33 : 0c7;
34 : 26b;
35 : 2f3;
36 : 38d;
37 : 0f5;
38 : 056;
39 : 3c5;
3a : 185;
3b : 217;
3c : 12e;
3d : 279;
3e : 30f;
3f : 3b4;

END;
