/*
WARNING: Do NOT edit the input and output ports in this file in a text
editor if you plan to continue editing the block that represents it in
the Block Editor! File corruption is VERY likely to occur.
*/
/*
Copyright (C) 1991-2008 Altera Corporation
Your use of Altera Corporation's design tools, logic functions 
and other software and tools, and its AMPP partner logic 
functions, and any output files from any of the foregoing 
(including device programming or simulation files), and any 
associated documentation or information are expressly subject 
to the terms and conditions of the Altera Program License 
Subscription Agreement, Altera MegaCore Function License 
Agreement, or other applicable license agreement, including, 
without limitation, that your use is for the sole purpose of 
programming logic devices manufactured by Altera and sold by 
Altera or its authorized distributors.  Please refer to the 
applicable agreement for further details.
*/
//#pragma file_not_in_maxplusii_format
(header "graphic" (version "1.3"))
(pin
	(input)
	(rect 80 216 248 232)
	(text "INPUT" (rect 133 0 161 10)(font "Arial" (font_size 6)))
	(text "async_nreset" (rect 5 0 72 12)(font "Arial" ))
	(pt 168 8)
	(drawing
		(line (pt 92 12)(pt 117 12)(line_width 1))
		(line (pt 92 4)(pt 117 4)(line_width 1))
		(line (pt 121 8)(pt 168 8)(line_width 1))
		(line (pt 92 12)(pt 92 4)(line_width 1))
		(line (pt 117 4)(pt 121 8)(line_width 1))
		(line (pt 117 12)(pt 121 8)(line_width 1))
	)
	(text "VCC" (rect 136 7 156 17)(font "Arial" (font_size 6)))
)
(pin
	(input)
	(rect 80 232 248 248)
	(text "INPUT" (rect 133 0 161 10)(font "Arial" (font_size 6)))
	(text "clk" (rect 5 0 19 12)(font "Arial" ))
	(pt 168 8)
	(drawing
		(line (pt 92 12)(pt 117 12)(line_width 1))
		(line (pt 92 4)(pt 117 4)(line_width 1))
		(line (pt 121 8)(pt 168 8)(line_width 1))
		(line (pt 92 12)(pt 92 4)(line_width 1))
		(line (pt 117 4)(pt 121 8)(line_width 1))
		(line (pt 117 12)(pt 121 8)(line_width 1))
	)
	(text "VCC" (rect 136 7 156 17)(font "Arial" (font_size 6)))
)
(pin
	(input)
	(rect 80 280 248 296)
	(text "INPUT" (rect 133 0 161 10)(font "Arial" (font_size 6)))
	(text "data" (rect 5 0 26 12)(font "Arial" ))
	(pt 168 8)
	(drawing
		(line (pt 92 12)(pt 117 12)(line_width 1))
		(line (pt 92 4)(pt 117 4)(line_width 1))
		(line (pt 121 8)(pt 168 8)(line_width 1))
		(line (pt 92 12)(pt 92 4)(line_width 1))
		(line (pt 117 4)(pt 121 8)(line_width 1))
		(line (pt 117 12)(pt 121 8)(line_width 1))
	)
	(text "VCC" (rect 136 7 156 17)(font "Arial" (font_size 6)))
)
(pin
	(input)
	(rect 80 376 248 392)
	(text "INPUT" (rect 133 0 161 10)(font "Arial" (font_size 6)))
	(text "testBit[3..0]" (rect 5 0 62 12)(font "Arial" ))
	(pt 168 8)
	(drawing
		(line (pt 92 12)(pt 117 12)(line_width 1))
		(line (pt 92 4)(pt 117 4)(line_width 1))
		(line (pt 121 8)(pt 168 8)(line_width 1))
		(line (pt 92 12)(pt 92 4)(line_width 1))
		(line (pt 117 4)(pt 121 8)(line_width 1))
		(line (pt 117 12)(pt 121 8)(line_width 1))
	)
	(text "VCC" (rect 136 7 156 17)(font "Arial" (font_size 6)))
)
(pin
	(input)
	(rect 80 392 248 408)
	(text "INPUT" (rect 133 0 161 10)(font "Arial" (font_size 6)))
	(text "result_TEST" (rect 5 0 64 12)(font "Arial" ))
	(pt 168 8)
	(drawing
		(line (pt 92 12)(pt 117 12)(line_width 1))
		(line (pt 92 4)(pt 117 4)(line_width 1))
		(line (pt 121 8)(pt 168 8)(line_width 1))
		(line (pt 92 12)(pt 92 4)(line_width 1))
		(line (pt 117 4)(pt 121 8)(line_width 1))
		(line (pt 117 12)(pt 121 8)(line_width 1))
	)
	(text "VCC" (rect 136 7 156 17)(font "Arial" (font_size 6)))
)
(pin
	(input)
	(rect 80 320 248 336)
	(text "INPUT" (rect 133 0 161 10)(font "Arial" (font_size 6)))
	(text "sync_reset" (rect 5 0 60 12)(font "Arial" ))
	(pt 168 8)
	(drawing
		(line (pt 92 12)(pt 117 12)(line_width 1))
		(line (pt 92 4)(pt 117 4)(line_width 1))
		(line (pt 121 8)(pt 168 8)(line_width 1))
		(line (pt 92 12)(pt 92 4)(line_width 1))
		(line (pt 117 4)(pt 121 8)(line_width 1))
		(line (pt 117 12)(pt 121 8)(line_width 1))
	)
	(text "VCC" (rect 136 7 156 17)(font "Arial" (font_size 6)))
)
(pin
	(output)
	(rect 1304 344 1480 360)
	(text "OUTPUT" (rect 1 0 39 10)(font "Arial" (font_size 6)))
	(text "output[15..0]" (rect 90 0 152 12)(font "Arial" ))
	(pt 0 8)
	(drawing
		(line (pt 0 8)(pt 52 8)(line_width 1))
		(line (pt 52 4)(pt 78 4)(line_width 1))
		(line (pt 52 12)(pt 78 12)(line_width 1))
		(line (pt 52 12)(pt 52 4)(line_width 1))
		(line (pt 78 4)(pt 82 8)(line_width 1))
		(line (pt 82 8)(pt 78 12)(line_width 1))
		(line (pt 78 12)(pt 82 8)(line_width 1))
	)
)
(symbol
	(rect 928 320 992 400)
	(text "DFFE" (rect 1 0 25 10)(font "Arial" (font_size 6)))
	(text "inst" (rect 3 68 20 80)(font "Arial" ))
	(port
		(pt 32 0)
		(input)
		(text "PRN" (rect 24 13 41 25)(font "Courier New" (bold)))
		(text "PRN" (rect 24 11 41 23)(font "Courier New" (bold)))
		(line (pt 32 4)(pt 32 0)(line_width 1))
	)
	(port
		(pt 32 80)
		(input)
		(text "CLRN" (rect 21 59 44 71)(font "Courier New" (bold)))
		(text "CLRN" (rect 21 58 44 70)(font "Courier New" (bold)))
		(line (pt 32 80)(pt 32 76)(line_width 1))
	)
	(port
		(pt 0 24)
		(input)
		(text "D" (rect 14 20 19 32)(font "Courier New" (bold)))
		(text "D" (rect 14 20 19 32)(font "Courier New" (bold)))
		(line (pt 0 24)(pt 12 24)(line_width 1))
	)
	(port
		(pt 0 40)
		(input)
		(text "CLK" (rect 2 28 19 40)(font "Courier New" (bold))(invisible))
		(text "CLK" (rect 2 28 19 40)(font "Courier New" (bold))(invisible))
		(line (pt 0 40)(pt 12 40)(line_width 1))
	)
	(port
		(pt 0 56)
		(input)
		(text "ENA" (rect 14 50 31 62)(font "Courier New" (bold)))
		(text "ENA" (rect 14 50 31 62)(font "Courier New" (bold)))
		(line (pt 0 56)(pt 12 56)(line_width 1))
	)
	(port
		(pt 64 24)
		(output)
		(text "Q" (rect 44 20 49 32)(font "Courier New" (bold)))
		(text "Q" (rect 44 20 49 32)(font "Courier New" (bold)))
		(line (pt 53 24)(pt 64 24)(line_width 1))
	)
	(drawing
		(line (pt 12 68)(pt 52 68)(line_width 1))
		(line (pt 12 12)(pt 52 12)(line_width 1))
		(line (pt 52 68)(pt 52 12)(line_width 1))
		(line (pt 12 68)(pt 12 12)(line_width 1))
		(line (pt 12 34)(pt 19 41)(line_width 1))
		(line (pt 18 41)(pt 12 47)(line_width 1))
		(circle (rect 28 4 36 12)(line_width 1))
		(circle (rect 28 68 36 76)(line_width 1))
	)
)
(symbol
	(rect 1120 328 1184 376)
	(text "OR2" (rect 1 0 19 10)(font "Arial" (font_size 6)))
	(text "inst1" (rect 3 37 26 49)(font "Arial" ))
	(port
		(pt 0 32)
		(input)
		(text "IN2" (rect 2 23 19 35)(font "Courier New" (bold))(invisible))
		(text "IN2" (rect 2 23 19 35)(font "Courier New" (bold))(invisible))
		(line (pt 0 32)(pt 15 32)(line_width 1))
	)
	(port
		(pt 0 16)
		(input)
		(text "IN1" (rect 2 7 19 19)(font "Courier New" (bold))(invisible))
		(text "IN1" (rect 2 7 19 19)(font "Courier New" (bold))(invisible))
		(line (pt 0 16)(pt 15 16)(line_width 1))
	)
	(port
		(pt 64 24)
		(output)
		(text "OUT" (rect 48 15 65 27)(font "Courier New" (bold))(invisible))
		(text "OUT" (rect 48 15 65 27)(font "Courier New" (bold))(invisible))
		(line (pt 48 24)(pt 64 24)(line_width 1))
	)
	(drawing
		(line (pt 14 36)(pt 25 36)(line_width 1))
		(line (pt 14 13)(pt 25 13)(line_width 1))
		(arc (pt 7 29)(pt 7 19)(rect -14 8 19 41)(line_width 1))
		(arc (pt 49 24)(pt 25 13)(rect -6 13 57 76)(line_width 1))
		(arc (pt 25 35)(pt 49 24)(rect -6 -27 57 36)(line_width 1))
	)
)
(symbol
	(rect 320 352 520 448)
	(text "wb_block_decoder" (rect 5 0 94 12)(font "Arial" ))
	(text "inst2" (rect 8 80 31 92)(font "Arial" ))
	(port
		(pt 0 32)
		(input)
		(text "A[widthin-1..0]" (rect 0 0 69 12)(font "Arial" ))
		(text "A[widthin-1..0]" (rect 21 27 90 39)(font "Arial" ))
		(line (pt 0 32)(pt 16 32)(line_width 3))
	)
	(port
		(pt 0 48)
		(input)
		(text "en" (rect 0 0 11 12)(font "Arial" ))
		(text "en" (rect 21 43 32 55)(font "Arial" ))
		(line (pt 0 48)(pt 16 48)(line_width 1))
	)
	(port
		(pt 200 32)
		(output)
		(text "Y[widthout-1..0]" (rect 0 0 77 12)(font "Arial" ))
		(text "Y[widthout-1..0]" (rect 102 27 179 39)(font "Arial" ))
		(line (pt 200 32)(pt 184 32)(line_width 3))
	)
	(parameter
		"widthIn"
		"4"
		""
	)
	(parameter
		"widthOut"
		"16"
		""
	)
	(drawing
		(rectangle (rect 16 16 184 80)(line_width 1))
	)
	(annotation_block (parameter)(rect 368 448 472 496))
)
(symbol
	(rect 736 352 800 400)
	(text "OR2" (rect 1 0 19 10)(font "Arial" (font_size 6)))
	(text "inst7" (rect 3 37 26 49)(font "Arial" ))
	(port
		(pt 0 32)
		(input)
		(text "IN2" (rect 2 23 19 35)(font "Courier New" (bold))(invisible))
		(text "IN2" (rect 2 23 19 35)(font "Courier New" (bold))(invisible))
		(line (pt 0 32)(pt 15 32)(line_width 1))
	)
	(port
		(pt 0 16)
		(input)
		(text "IN1" (rect 2 7 19 19)(font "Courier New" (bold))(invisible))
		(text "IN1" (rect 2 7 19 19)(font "Courier New" (bold))(invisible))
		(line (pt 0 16)(pt 15 16)(line_width 1))
	)
	(port
		(pt 64 24)
		(output)
		(text "OUT" (rect 48 15 65 27)(font "Courier New" (bold))(invisible))
		(text "OUT" (rect 48 15 65 27)(font "Courier New" (bold))(invisible))
		(line (pt 48 24)(pt 64 24)(line_width 1))
	)
	(drawing
		(line (pt 14 36)(pt 25 36)(line_width 1))
		(line (pt 14 13)(pt 25 13)(line_width 1))
		(arc (pt 7 29)(pt 7 19)(rect -14 8 19 41)(line_width 1))
		(arc (pt 49 24)(pt 25 13)(rect -6 13 57 76)(line_width 1))
		(arc (pt 25 35)(pt 49 24)(rect -6 -27 57 36)(line_width 1))
	)
)
(symbol
	(rect 736 296 800 344)
	(text "AND2" (rect 1 0 25 10)(font "Arial" (font_size 6)))
	(text "inst10" (rect 3 37 32 49)(font "Arial" ))
	(port
		(pt 0 16)
		(input)
		(text "IN1" (rect 2 7 19 19)(font "Courier New" (bold))(invisible))
		(text "IN1" (rect 2 7 19 19)(font "Courier New" (bold))(invisible))
		(line (pt 0 16)(pt 14 16)(line_width 1))
	)
	(port
		(pt 0 32)
		(input)
		(text "IN2" (rect 2 23 19 35)(font "Courier New" (bold))(invisible))
		(text "IN2" (rect 2 23 19 35)(font "Courier New" (bold))(invisible))
		(line (pt 0 32)(pt 14 32)(line_width 1))
	)
	(port
		(pt 64 24)
		(output)
		(text "OUT" (rect 48 15 65 27)(font "Courier New" (bold))(invisible))
		(text "OUT" (rect 48 15 65 27)(font "Courier New" (bold))(invisible))
		(line (pt 42 24)(pt 64 24)(line_width 1))
	)
	(drawing
		(line (pt 14 12)(pt 30 12)(line_width 1))
		(line (pt 14 37)(pt 31 37)(line_width 1))
		(line (pt 14 12)(pt 14 37)(line_width 1))
		(arc (pt 31 37)(pt 30 12)(rect 18 12 43 37)(line_width 1))
	)
)
(symbol
	(rect 656 312 704 344)
	(text "NOT" (rect 1 0 21 10)(font "Arial" (font_size 6)))
	(text "inst11" (rect 3 21 32 33)(font "Arial" ))
	(port
		(pt 0 16)
		(input)
		(text "IN" (rect 2 7 13 19)(font "Courier New" (bold))(invisible))
		(text "IN" (rect 2 7 13 19)(font "Courier New" (bold))(invisible))
		(line (pt 0 16)(pt 13 16)(line_width 1))
	)
	(port
		(pt 48 16)
		(output)
		(text "OUT" (rect 32 7 49 19)(font "Courier New" (bold))(invisible))
		(text "OUT" (rect 32 7 49 19)(font "Courier New" (bold))(invisible))
		(line (pt 39 16)(pt 48 16)(line_width 1))
	)
	(drawing
		(line (pt 13 25)(pt 13 7)(line_width 1))
		(line (pt 13 7)(pt 31 16)(line_width 1))
		(line (pt 13 25)(pt 31 16)(line_width 1))
		(circle (rect 31 12 39 20)(line_width 1))
	)
)
(connector
	(pt 928 360)
	(pt 912 360)
)
(connector
	(pt 1072 360)
	(pt 1120 360)
	(bus)
)
(connector
	(text "ff-Q[15..0]" (rect 1034 328 1087 340)(font "Arial" ))
	(pt 992 344)
	(pt 1120 344)
	(bus)
)
(connector
	(text "output[15..0]" (rect 1192 336 1254 348)(font "Arial" ))
	(pt 1304 352)
	(pt 1184 352)
	(bus)
)
(connector
	(pt 320 384)
	(pt 248 384)
	(bus)
)
(connector
	(pt 320 400)
	(pt 248 400)
)
(connector
	(pt 912 360)
	(pt 912 240)
)
(connector
	(pt 912 240)
	(pt 248 240)
)
(connector
	(pt 960 400)
	(pt 960 408)
)
(connector
	(pt 1072 360)
	(pt 1072 424)
	(bus)
)
(connector
	(pt 248 224)
	(pt 896 224)
)
(connector
	(pt 960 408)
	(pt 896 408)
)
(connector
	(pt 896 224)
	(pt 896 408)
)
(connector
	(pt 1072 424)
	(pt 616 424)
	(bus)
)
(connector
	(pt 616 384)
	(pt 616 424)
	(bus)
)
(connector
	(pt 616 328)
	(pt 616 368)
)
(connector
	(text "En[15..0]" (rect 826 360 870 372)(font "Arial" ))
	(pt 928 376)
	(pt 800 376)
	(bus)
)
(connector
	(pt 520 384)
	(pt 616 384)
	(bus)
)
(connector
	(pt 616 384)
	(pt 736 384)
	(bus)
)
(connector
	(pt 616 368)
	(pt 736 368)
)
(connector
	(pt 928 344)
	(pt 840 344)
)
(connector
	(pt 840 344)
	(pt 840 320)
)
(connector
	(pt 840 320)
	(pt 800 320)
)
(connector
	(pt 736 328)
	(pt 704 328)
)
(connector
	(pt 248 328)
	(pt 616 328)
)
(connector
	(pt 616 328)
	(pt 656 328)
)
(connector
	(text "dataBitIn" (rect 426 272 469 284)(font "Arial" ))
	(pt 248 288)
	(pt 720 288)
)
(connector
	(pt 720 288)
	(pt 720 312)
)
(connector
	(pt 736 312)
	(pt 720 312)
)
(junction (pt 616 328))
(junction (pt 616 384))
(text "Synchronous reset logic" (rect 640 264 779 278)(font "Arial" (font_size 8)))
