/*
WARNING: Do NOT edit the input and output ports in this file in a text
editor if you plan to continue editing the block that represents it in
the Block Editor! File corruption is VERY likely to occur.
*/
/*
Copyright (C) 1991-2008 Altera Corporation
Your use of Altera Corporation's design tools, logic functions 
and other software and tools, and its AMPP partner logic 
functions, and any output files from any of the foregoing 
(including device programming or simulation files), and any 
associated documentation or information are expressly subject 
to the terms and conditions of the Altera Program License 
Subscription Agreement, Altera MegaCore Function License 
Agreement, or other applicable license agreement, including, 
without limitation, that your use is for the sole purpose of 
programming logic devices manufactured by Altera and sold by 
Altera or its authorized distributors.  Please refer to the 
applicable agreement for further details.
*/
//#pragma file_not_in_maxplusii_format
(header "graphic" (version "1.3"))
(global
	(rect 568 112 856 152)
	(parameter)
	(text "PARAM" (rect 3 -1 46 13)(font "Arial" (font_size 8)))
	(text "DEFAULT VALUE" (rect 141 0 229 12)(font "Arial" ))
	(text "width" (rect 3 16 34 30)(font "Arial" (font_size 8)))
	(text " NAME" (rect 108 0 142 12)(font "Arial" ))
	(text "<none>" (rect 141 16 183 30)(font "Arial" (font_size 8)))
	(drawing
		(line (pt 138 40)(pt 138 0)(line_width 1))
	)
)
(pin
	(input)
	(rect 224 288 392 304)
	(text "INPUT" (rect 133 0 161 10)(font "Arial" (font_size 6)))
	(text "in[width-1..0]" (rect 5 0 67 12)(font "Arial" ))
	(pt 168 8)
	(drawing
		(line (pt 92 12)(pt 117 12)(line_width 1))
		(line (pt 92 4)(pt 117 4)(line_width 1))
		(line (pt 121 8)(pt 168 8)(line_width 1))
		(line (pt 92 12)(pt 92 4)(line_width 1))
		(line (pt 117 4)(pt 121 8)(line_width 1))
		(line (pt 117 12)(pt 121 8)(line_width 1))
	)
	(text "VCC" (rect 136 7 156 17)(font "Arial" (font_size 6)))
)
(pin
	(output)
	(rect 1064 328 1240 344)
	(text "OUTPUT" (rect 1 0 39 10)(font "Arial" (font_size 6)))
	(text "out" (rect 90 0 105 12)(font "Arial" ))
	(pt 0 8)
	(drawing
		(line (pt 0 8)(pt 52 8)(line_width 1))
		(line (pt 52 4)(pt 78 4)(line_width 1))
		(line (pt 52 12)(pt 78 12)(line_width 1))
		(line (pt 52 12)(pt 52 4)(line_width 1))
		(line (pt 78 4)(pt 82 8)(line_width 1))
		(line (pt 82 8)(pt 78 12)(line_width 1))
		(line (pt 78 12)(pt 82 8)(line_width 1))
	)
)
(symbol
	(rect 736 352 784 384)
	(text "WIRE" (rect 24 22 47 32)(font "Arial" (font_size 6)))
	(text "inst2" (rect 22 -1 45 11)(font "Arial" ))
	(port
		(pt 48 16)
		(input)
		(text "IN" (rect 2 7 13 19)(font "Courier New" (bold))(invisible))
		(text "IN" (rect 35 13 46 25)(font "Courier New" (bold))(invisible))
		(line (pt 48 16)(pt 34 16)(line_width 1))
	)
	(port
		(pt 0 16)
		(output)
		(text "OUT" (rect 32 7 49 19)(font "Courier New" (bold))(invisible))
		(text "OUT" (rect -1 13 16 25)(font "Courier New" (bold))(invisible))
		(line (pt 16 16)(pt 0 16)(line_width 1))
	)
	(drawing
		(line (pt 34 25)(pt 16 16)(line_width 1))
		(line (pt 34 7)(pt 34 25)(line_width 1))
		(line (pt 34 7)(pt 16 16)(line_width 1))
	)
	(rotate180)
)
(symbol
	(rect 456 280 504 312)
	(text "WIRE" (rect 1 0 24 10)(font "Arial" (font_size 6)))
	(text "inst6" (rect 3 21 26 33)(font "Arial" ))
	(port
		(pt 0 16)
		(input)
		(text "IN" (rect 2 7 13 19)(font "Courier New" (bold))(invisible))
		(text "IN" (rect 2 7 13 19)(font "Courier New" (bold))(invisible))
		(line (pt 0 16)(pt 14 16)(line_width 1))
	)
	(port
		(pt 48 16)
		(output)
		(text "OUT" (rect 32 7 49 19)(font "Courier New" (bold))(invisible))
		(text "OUT" (rect 32 7 49 19)(font "Courier New" (bold))(invisible))
		(line (pt 32 16)(pt 48 16)(line_width 1))
	)
	(drawing
		(line (pt 14 7)(pt 32 16)(line_width 1))
		(line (pt 14 25)(pt 14 7)(line_width 1))
		(line (pt 14 25)(pt 32 16)(line_width 1))
	)
)
(symbol
	(rect 992 320 1040 352)
	(text "WIRE" (rect 1 0 24 10)(font "Arial" (font_size 6)))
	(text "inst1" (rect 3 21 26 33)(font "Arial" ))
	(port
		(pt 0 16)
		(input)
		(text "IN" (rect 2 7 13 19)(font "Courier New" (bold))(invisible))
		(text "IN" (rect 2 7 13 19)(font "Courier New" (bold))(invisible))
		(line (pt 0 16)(pt 14 16)(line_width 1))
	)
	(port
		(pt 48 16)
		(output)
		(text "OUT" (rect 32 7 49 19)(font "Courier New" (bold))(invisible))
		(text "OUT" (rect 32 7 49 19)(font "Courier New" (bold))(invisible))
		(line (pt 32 16)(pt 48 16)(line_width 1))
	)
	(drawing
		(line (pt 14 7)(pt 32 16)(line_width 1))
		(line (pt 14 25)(pt 14 7)(line_width 1))
		(line (pt 14 25)(pt 32 16)(line_width 1))
	)
)
(symbol
	(rect 728 280 792 328)
	(text "AND2" (rect 1 0 25 10)(font "Arial" (font_size 6)))
	(text "inst4" (rect 3 37 26 49)(font "Arial" ))
	(port
		(pt 0 16)
		(input)
		(text "IN1" (rect 2 7 19 19)(font "Courier New" (bold))(invisible))
		(text "IN1" (rect 2 7 19 19)(font "Courier New" (bold))(invisible))
		(line (pt 0 16)(pt 14 16)(line_width 1))
	)
	(port
		(pt 0 32)
		(input)
		(text "IN2" (rect 2 23 19 35)(font "Courier New" (bold))(invisible))
		(text "IN2" (rect 2 23 19 35)(font "Courier New" (bold))(invisible))
		(line (pt 0 32)(pt 14 32)(line_width 1))
	)
	(port
		(pt 64 24)
		(output)
		(text "OUT" (rect 48 15 65 27)(font "Courier New" (bold))(invisible))
		(text "OUT" (rect 48 15 65 27)(font "Courier New" (bold))(invisible))
		(line (pt 42 24)(pt 64 24)(line_width 1))
	)
	(drawing
		(line (pt 14 12)(pt 30 12)(line_width 1))
		(line (pt 14 37)(pt 31 37)(line_width 1))
		(line (pt 14 12)(pt 14 37)(line_width 1))
		(arc (pt 31 37)(pt 30 12)(rect 18 12 43 37)(line_width 1))
	)
)
(symbol
	(rect 536 320 568 336)
	(text "VCC" (rect 7 0 27 10)(font "Arial" (font_size 6)))
	(text "inst" (rect 3 5 20 17)(font "Arial" )(invisible))
	(port
		(pt 16 16)
		(output)
		(text "1" (rect 19 7 24 19)(font "Courier New" (bold))(invisible))
		(text "1" (rect 19 7 24 19)(font "Courier New" (bold))(invisible))
		(line (pt 16 16)(pt 16 8)(line_width 1))
	)
	(drawing
		(line (pt 8 8)(pt 24 8)(line_width 1))
	)
)
(connector
	(text "B[width-1..0]" (rect 630 280 691 292)(font "Arial" ))
	(pt 728 296)
	(pt 504 296)
	(bus)
)
(connector
	(text "A[width-1..0]" (rect 640 296 701 308)(font "Arial" ))
	(pt 728 312)
	(pt 624 312)
	(bus)
)
(connector
	(text "A[width-2..0]" (rect 640 352 701 364)(font "Arial" ))
	(pt 624 368)
	(pt 736 368)
	(bus)
)
(connector
	(text "X[width-1..1]" (rect 800 352 860 364)(font "Arial" ))
	(pt 784 368)
	(pt 872 368)
	(bus)
)
(connector
	(text "X[width-1..0]" (rect 802 288 862 300)(font "Arial" ))
	(pt 792 304)
	(pt 872 304)
	(bus)
)
(connector
	(pt 872 304)
	(pt 872 336)
	(bus)
)
(connector
	(pt 872 336)
	(pt 872 368)
	(bus)
)
(connector
	(text "x[0]" (rect 882 320 900 332)(font "Arial" ))
	(pt 872 336)
	(pt 992 336)
)
(connector
	(pt 1040 336)
	(pt 1064 336)
)
(connector
	(pt 456 296)
	(pt 392 296)
	(bus)
)
(connector
	(text "A[width-1]" (rect 567 344 615 356)(font "Arial" ))
	(pt 624 360)
	(pt 552 360)
	(bus)
)
(connector
	(pt 624 312)
	(pt 624 360)
	(bus)
)
(connector
	(pt 624 360)
	(pt 624 368)
	(bus)
)
(connector
	(pt 552 360)
	(pt 552 336)
	(bus)
)
(junction (pt 872 336))
(junction (pt 624 360))
(text "AND operation on all bits on the bus" (rect 560 200 762 214)(font "Arial" (font_size 8)))
