Altera SOPC Builder Version 8.00 Build 231
Copyright (c) 1999-2007 Altera Corporation.  All rights reserved.


# 2008.09.09 18:04:39 (*) mk_custom_sdk starting
# 2008.09.09 18:04:39 (*) Reading project D:/user/Gr04/Lab2/wb_NiosProcessor.ptf.

# 2008.09.09 18:04:39 (*) Finding all CPUs
# 2008.09.09 18:04:39 (*) Finding all available components
# 2008.09.09 18:04:39 (*) Reading D:/user/Gr04/Lab2/.sopc_builder/install.ptf

# 2008.09.09 18:04:39 (*) Found 80 components

# 2008.09.09 18:04:40 (*) Finding all peripherals

# 2008.09.09 18:04:40 (*) Finding software components

# 2008.09.09 18:04:41 (*) (Legacy SDK Generation Skipped)
# 2008.09.09 18:04:41 (*) (All TCL Script Generation Skipped)
# 2008.09.09 18:04:41 (*) (No Libraries Built)
# 2008.09.09 18:04:41 (*) (Contents Generation Skipped)
# 2008.09.09 18:04:41 (*) mk_custom_sdk finishing

# 2008.09.09 18:04:41 (*) Starting generation for system: wb_NiosProcessor.

.
.
.
.
.
.
.
..

# 2008.09.09 18:04:43 (*) Running Generator Program for onchip_mem

# 2008.09.09 18:04:44 (*) Running Generator Program for cpu

# 2008.09.09 18:04:47 (*)   Checking for plaintext license.
# 2008.09.09 18:04:48 (*)   Plaintext license not found.
# 2008.09.09 18:04:48 (*)   Checking for encrypted license (non-evaluation).
# 2008.09.09 18:04:48 (*)   Encrypted license found.  SOF will not be time-limited.
Warning: currently assigned JTAG instance ID 0 for cpu/jtag_debug_module is shared by NiosProcessor.ptf/cpu/jtag_debug_module. Reassigned to 1.
# 2008.09.09 18:05:16 (*)   Creating encrypted HDL

# 2008.09.09 18:05:23 (*) Running Generator Program for jtag_uart

Warning: currently assigned JTAG instance ID 0 for jtag_uart/avalon_jtag_slave is shared by NiosProcessor.ptf/jtag_uart/avalon_jtag_slave. Reassigned to 1.

# 2008.09.09 18:05:26 (*) Running Generator Program for sys_clk_timer

# 2008.09.09 18:05:28 (*) Running Generator Program for sysid

# 2008.09.09 18:05:30 (*) Running Generator Program for ps2_keyboard

# 2008.09.09 18:05:33 (*) Running Generator Program for character_lcd

# 2008.09.09 18:05:34 (*) Running Generator Program for A_reg_pio

# 2008.09.09 18:05:36 (*) Running Generator Program for B_reg_pio



# 2008.09.09 18:05:37 (*) Making arbitration and system (top) modules.

# 2008.09.09 18:05:49 (*) Generating Quartus symbol for top level: wb_NiosProcessor

# 2008.09.09 18:05:49 (*) Generating Symbol D:/user/Gr04/Lab2/wb_NiosProcessor.bsf

# 2008.09.09 18:05:50 (*) Creating command-line system-generation script: D:/user/Gr04/Lab2/wb_NiosProcessor_generation_script

# 2008.09.09 18:05:50 (*) Running setup for HDL simulator: modelsim


# 2008.09.09 18:05:50 (*) Setting up Quartus with wb_NiosProcessor_setup_quartus.tcl
c:/altera/80/quartus/bin/quartus_sh -t wb_NiosProcessor_setup_quartus.tcl


Info: *******************************************************************
Info: Running Quartus II Shell
    Info: Version 8.0 Build 231 07/10/2008 Service Pack 1 SJ Full Version
    Info: Copyright (C) 1991-2008 Altera Corporation. All rights reserved.
    Info: Your use of Altera Corporation's design tools, logic functions 
    Info: and other software and tools, and its AMPP partner logic 
    Info: functions, and any output files from any of the foregoing 
    Info: (including device programming or simulation files), and any 
    Info: associated documentation or information are expressly subject 
    Info: to the terms and conditions of the Altera Program License 
    Info: Subscription Agreement, Altera MegaCore Function License 
    Info: Agreement, or other applicable license agreement, including, 
    Info: without limitation, that your use is for the sole purpose of 
    Info: programming logic devices manufactured by Altera and sold by 
    Info: Altera or its authorized distributors.
  Please refer to the 
    Info: applicable agreement for further details.
    Info: Processing started: Tue Sep 09 18:05:50 2008
Info: Command: quartus_sh -t wb_NiosProcessor_setup_quartus.tcl
Info: Evaluation of Tcl script wb_NiosProcessor_setup_quartus.tcl was successful
Info: Quartus II Shell was successful. 0 errors, 0 warnings
    Info: Peak virtual memory: 47 megabytes
    Info: Processing ended: Tue Sep 09 18:05:50 2008
    Info: Elapsed time: 00:00:00
    Info: Total CPU time (on all processors): 00:00:00

# 2008.09.09 18:05:51 (*) Completed generation for system: wb_NiosProcessor.
# 2008.09.09 18:05:51 (*) THE FOLLOWING SYSTEM ITEMS HAVE BEEN GENERATED:
  SOPC Builder database : D:/user/Gr04/Lab2/wb_NiosProcessor.ptf 
  System HDL Model : D:/user/Gr04/Lab2/wb_NiosProcessor.vhd 
  System Generation Script : D:/user/Gr04/Lab2/wb_NiosProcessor_generation_script 

# 2008.09.09 18:05:51 (*) SUCCESS: SYSTEM GENERATION COMPLETED.


Press 'Exit' to exit.
