/*
WARNING: Do NOT edit the input and output ports in this file in a text
editor if you plan to continue editing the block that represents it in
the Block Editor! File corruption is VERY likely to occur.
*/
/*
Copyright (C) 1991-2008 Altera Corporation
Your use of Altera Corporation's design tools, logic functions 
and other software and tools, and its AMPP partner logic 
functions, and any output files from any of the foregoing 
(including device programming or simulation files), and any 
associated documentation or information are expressly subject 
to the terms and conditions of the Altera Program License 
Subscription Agreement, Altera MegaCore Function License 
Agreement, or other applicable license agreement, including, 
without limitation, that your use is for the sole purpose of 
programming logic devices manufactured by Altera and sold by 
Altera or its authorized distributors.  Please refer to the 
applicable agreement for further details.
*/
//#pragma file_not_in_maxplusii_format
(header "graphic" (version "1.3"))
(pin
	(input)
	(rect 72 40 240 56)
	(text "INPUT" (rect 133 0 161 10)(font "Arial" (font_size 6)))
	(text "DVI" (rect 5 0 23 12)(font "Arial" ))
	(pt 168 8)
	(drawing
		(line (pt 92 12)(pt 117 12)(line_width 1))
		(line (pt 92 4)(pt 117 4)(line_width 1))
		(line (pt 121 8)(pt 168 8)(line_width 1))
		(line (pt 92 12)(pt 92 4)(line_width 1))
		(line (pt 117 4)(pt 121 8)(line_width 1))
		(line (pt 117 12)(pt 121 8)(line_width 1))
	)
	(text "VCC" (rect 136 7 156 17)(font "Arial" (font_size 6)))
)
(pin
	(input)
	(rect 80 248 248 264)
	(text "INPUT" (rect 133 0 161 10)(font "Arial" (font_size 6)))
	(text "MAND[15..0]" (rect 5 0 68 12)(font "Arial" ))
	(pt 168 8)
	(drawing
		(line (pt 92 12)(pt 117 12)(line_width 1))
		(line (pt 92 4)(pt 117 4)(line_width 1))
		(line (pt 121 8)(pt 168 8)(line_width 1))
		(line (pt 92 12)(pt 92 4)(line_width 1))
		(line (pt 117 4)(pt 121 8)(line_width 1))
		(line (pt 117 12)(pt 121 8)(line_width 1))
	)
	(text "VCC" (rect 136 7 156 17)(font "Arial" (font_size 6)))
)
(pin
	(input)
	(rect 72 56 240 72)
	(text "INPUT" (rect 133 0 161 10)(font "Arial" (font_size 6)))
	(text "MTOR[15..0]" (rect 5 0 67 12)(font "Arial" ))
	(pt 168 8)
	(drawing
		(line (pt 92 12)(pt 117 12)(line_width 1))
		(line (pt 92 4)(pt 117 4)(line_width 1))
		(line (pt 121 8)(pt 168 8)(line_width 1))
		(line (pt 92 12)(pt 92 4)(line_width 1))
		(line (pt 117 4)(pt 121 8)(line_width 1))
		(line (pt 117 12)(pt 121 8)(line_width 1))
	)
	(text "VCC" (rect 136 7 156 17)(font "Arial" (font_size 6)))
)
(pin
	(input)
	(rect 72 120 240 136)
	(text "INPUT" (rect 133 0 161 10)(font "Arial" (font_size 6)))
	(text "RESET_N" (rect 5 0 54 12)(font "Arial" ))
	(pt 168 8)
	(drawing
		(line (pt 92 12)(pt 117 12)(line_width 1))
		(line (pt 92 4)(pt 117 4)(line_width 1))
		(line (pt 121 8)(pt 168 8)(line_width 1))
		(line (pt 92 12)(pt 92 4)(line_width 1))
		(line (pt 117 4)(pt 121 8)(line_width 1))
		(line (pt 117 12)(pt 121 8)(line_width 1))
	)
	(text "VCC" (rect 136 7 156 17)(font "Arial" (font_size 6)))
)
(pin
	(input)
	(rect 72 104 240 120)
	(text "INPUT" (rect 133 0 161 10)(font "Arial" (font_size 6)))
	(text "CLK" (rect 5 0 26 12)(font "Arial" ))
	(pt 168 8)
	(drawing
		(line (pt 92 12)(pt 117 12)(line_width 1))
		(line (pt 92 4)(pt 117 4)(line_width 1))
		(line (pt 121 8)(pt 168 8)(line_width 1))
		(line (pt 92 12)(pt 92 4)(line_width 1))
		(line (pt 117 4)(pt 121 8)(line_width 1))
		(line (pt 117 12)(pt 121 8)(line_width 1))
	)
	(text "VCC" (rect 136 7 156 17)(font "Arial" (font_size 6)))
)
(pin
	(input)
	(rect 80 280 248 296)
	(text "INPUT" (rect 133 0 161 10)(font "Arial" (font_size 6)))
	(text "ENMUL" (rect 5 0 42 12)(font "Arial" ))
	(pt 168 8)
	(drawing
		(line (pt 92 12)(pt 117 12)(line_width 1))
		(line (pt 92 4)(pt 117 4)(line_width 1))
		(line (pt 121 8)(pt 168 8)(line_width 1))
		(line (pt 92 12)(pt 92 4)(line_width 1))
		(line (pt 117 4)(pt 121 8)(line_width 1))
		(line (pt 117 12)(pt 121 8)(line_width 1))
	)
	(text "VCC" (rect 136 7 156 17)(font "Arial" (font_size 6)))
)
(pin
	(input)
	(rect 80 296 248 312)
	(text "INPUT" (rect 133 0 161 10)(font "Arial" (font_size 6)))
	(text "SOUND" (rect 5 0 45 12)(font "Arial" ))
	(pt 168 8)
	(drawing
		(line (pt 92 12)(pt 117 12)(line_width 1))
		(line (pt 92 4)(pt 117 4)(line_width 1))
		(line (pt 121 8)(pt 168 8)(line_width 1))
		(line (pt 92 12)(pt 92 4)(line_width 1))
		(line (pt 117 4)(pt 121 8)(line_width 1))
		(line (pt 117 12)(pt 121 8)(line_width 1))
	)
	(text "VCC" (rect 136 7 156 17)(font "Arial" (font_size 6)))
)
(pin
	(output)
	(rect 904 40 1080 56)
	(text "OUTPUT" (rect 1 0 39 10)(font "Arial" (font_size 6)))
	(text "DVO" (rect 90 0 113 12)(font "Arial" ))
	(pt 0 8)
	(drawing
		(line (pt 0 8)(pt 52 8)(line_width 1))
		(line (pt 52 4)(pt 78 4)(line_width 1))
		(line (pt 52 12)(pt 78 12)(line_width 1))
		(line (pt 52 12)(pt 52 4)(line_width 1))
		(line (pt 78 4)(pt 82 8)(line_width 1))
		(line (pt 82 8)(pt 78 12)(line_width 1))
		(line (pt 78 12)(pt 82 8)(line_width 1))
	)
)
(pin
	(output)
	(rect 904 56 1080 72)
	(text "OUTPUT" (rect 1 0 39 10)(font "Arial" (font_size 6)))
	(text "COUNT[3..0]" (rect 90 0 154 12)(font "Arial" ))
	(pt 0 8)
	(drawing
		(line (pt 0 8)(pt 52 8)(line_width 1))
		(line (pt 52 4)(pt 78 4)(line_width 1))
		(line (pt 52 12)(pt 78 12)(line_width 1))
		(line (pt 52 12)(pt 52 4)(line_width 1))
		(line (pt 78 4)(pt 82 8)(line_width 1))
		(line (pt 82 8)(pt 78 12)(line_width 1))
		(line (pt 78 12)(pt 82 8)(line_width 1))
	)
)
(pin
	(output)
	(rect 904 104 1086 120)
	(text "OUTPUT" (rect 1 0 39 10)(font "Arial" (font_size 6)))
	(text "RESULT_B[15..0]" (rect 90 0 177 12)(font "Arial" ))
	(pt 0 8)
	(drawing
		(line (pt 0 8)(pt 52 8)(line_width 1))
		(line (pt 52 4)(pt 78 4)(line_width 1))
		(line (pt 52 12)(pt 78 12)(line_width 1))
		(line (pt 52 12)(pt 52 4)(line_width 1))
		(line (pt 78 4)(pt 82 8)(line_width 1))
		(line (pt 82 8)(pt 78 12)(line_width 1))
		(line (pt 78 12)(pt 82 8)(line_width 1))
	)
)
(pin
	(output)
	(rect 904 120 1086 136)
	(text "OUTPUT" (rect 1 0 39 10)(font "Arial" (font_size 6)))
	(text "RESULT_A[15..0]" (rect 90 0 177 12)(font "Arial" ))
	(pt 0 8)
	(drawing
		(line (pt 0 8)(pt 52 8)(line_width 1))
		(line (pt 52 4)(pt 78 4)(line_width 1))
		(line (pt 52 12)(pt 78 12)(line_width 1))
		(line (pt 52 12)(pt 52 4)(line_width 1))
		(line (pt 78 4)(pt 82 8)(line_width 1))
		(line (pt 82 8)(pt 78 12)(line_width 1))
		(line (pt 78 12)(pt 82 8)(line_width 1))
	)
)
(symbol
	(rect 328 16 520 208)
	(text "mul_control" (rect 8 0 72 14)(font "Arial" (font_size 8)))
	(text "inst5" (rect 8 176 31 188)(font "Arial" ))
	(port
		(pt 0 32)
		(input)
		(text "DVI" (rect 0 32 20 46)(font "Arial" (font_size 8)))
		(text "DVI" (rect 21 24 41 38)(font "Arial" (font_size 8)))
		(line (pt 0 32)(pt 16 32)(line_width 1))
	)
	(port
		(pt 0 48)
		(input)
		(text "MTOR[15..0]" (rect 0 32 69 46)(font "Arial" (font_size 8)))
		(text "MTOR[15..0]" (rect 21 40 90 54)(font "Arial" (font_size 8)))
		(line (pt 0 48)(pt 16 48)(line_width 3))
	)
	(port
		(pt 0 96)
		(input)
		(text "CLK" (rect 0 32 23 46)(font "Arial" (font_size 8)))
		(text "CLK" (rect 21 91 44 105)(font "Arial" (font_size 8)))
		(line (pt 0 96)(pt 16 96)(line_width 1))
	)
	(port
		(pt 0 112)
		(input)
		(text "RESET_N" (rect 0 32 53 46)(font "Arial" (font_size 8)))
		(text "RESET_N" (rect 21 107 74 121)(font "Arial" (font_size 8)))
		(line (pt 0 112)(pt 16 112)(line_width 1))
	)
	(port
		(pt 192 32)
		(output)
		(text "DVO" (rect 0 32 27 46)(font "Arial" (font_size 8)))
		(text "DVO" (rect 144 24 171 38)(font "Arial" (font_size 8)))
		(line (pt 192 32)(pt 176 32)(line_width 1))
	)
	(port
		(pt 192 48)
		(output)
		(text "COUNT[3..0]" (rect 0 32 69 46)(font "Arial" (font_size 8)))
		(text "COUNT[3..0]" (rect 102 40 171 54)(font "Arial" (font_size 8)))
		(line (pt 192 48)(pt 176 48)(line_width 3))
	)
	(port
		(pt 192 96)
		(output)
		(text "RESET_DO" (rect 0 32 62 46)(font "Arial" (font_size 8)))
		(text "RESET_DO" (rect 109 91 171 105)(font "Arial" (font_size 8)))
		(line (pt 192 96)(pt 176 96)(line_width 1))
	)
	(port
		(pt 192 112)
		(output)
		(text "LOAD_DO" (rect 0 32 59 46)(font "Arial" (font_size 8)))
		(text "LOAD_DO" (rect 112 107 171 121)(font "Arial" (font_size 8)))
		(line (pt 192 112)(pt 176 112)(line_width 1))
	)
	(port
		(pt 192 128)
		(output)
		(text "LSL" (rect 0 32 22 46)(font "Arial" (font_size 8)))
		(text "LSL" (rect 149 123 171 137)(font "Arial" (font_size 8)))
		(line (pt 192 128)(pt 176 128)(line_width 1))
	)
	(port
		(pt 192 144)
		(output)
		(text "TWOC" (rect 0 32 36 46)(font "Arial" (font_size 8)))
		(text "TWOC" (rect 135 139 171 153)(font "Arial" (font_size 8)))
		(line (pt 192 144)(pt 176 144)(line_width 1))
	)
	(port
		(pt 192 160)
		(output)
		(text "LOAD_M" (rect 0 32 50 46)(font "Arial" (font_size 8)))
		(text "LOAD_M" (rect 121 155 171 169)(font "Arial" (font_size 8)))
		(line (pt 192 160)(pt 176 160)(line_width 1))
	)
	(drawing
		(rectangle (rect 16 16 176 176)(line_width 1))
	)
)
(symbol
	(rect 576 80 800 336)
	(text "mul_data_path" (rect 5 0 87 14)(font "Arial" (font_size 8)))
	(text "inst" (rect 8 240 25 252)(font "Arial" ))
	(port
		(pt 0 80)
		(input)
		(text "TWOC" (rect 0 0 36 14)(font "Arial" (font_size 8)))
		(text "TWOC" (rect 21 72 57 86)(font "Arial" (font_size 8)))
		(line (pt 0 80)(pt 16 80)(line_width 1))
	)
	(port
		(pt 0 176)
		(input)
		(text "MAND[15..0]" (rect 0 0 70 14)(font "Arial" (font_size 8)))
		(text "MAND[15..0]" (rect 21 168 91 182)(font "Arial" (font_size 8)))
		(line (pt 0 176)(pt 16 176)(line_width 3))
	)
	(port
		(pt 0 64)
		(input)
		(text "LSL" (rect 0 0 22 14)(font "Arial" (font_size 8)))
		(text "LSL" (rect 21 56 43 70)(font "Arial" (font_size 8)))
		(line (pt 0 64)(pt 16 64)(line_width 1))
	)
	(port
		(pt 0 96)
		(input)
		(text "LOAD_M" (rect 0 0 50 14)(font "Arial" (font_size 8)))
		(text "LOAD_M" (rect 21 88 71 102)(font "Arial" (font_size 8)))
		(line (pt 0 96)(pt 16 96)(line_width 1))
	)
	(port
		(pt 0 144)
		(input)
		(text "CLK" (rect 0 0 23 14)(font "Arial" (font_size 8)))
		(text "CLK" (rect 21 136 44 150)(font "Arial" (font_size 8)))
		(line (pt 0 144)(pt 16 144)(line_width 1))
	)
	(port
		(pt 0 48)
		(input)
		(text "LOAD_DO" (rect 0 0 59 14)(font "Arial" (font_size 8)))
		(text "LOAD_DO" (rect 21 40 80 54)(font "Arial" (font_size 8)))
		(line (pt 0 48)(pt 16 48)(line_width 1))
	)
	(port
		(pt 0 160)
		(input)
		(text "RESET_N" (rect 0 0 53 14)(font "Arial" (font_size 8)))
		(text "RESET_N" (rect 21 152 74 166)(font "Arial" (font_size 8)))
		(line (pt 0 160)(pt 16 160)(line_width 1))
	)
	(port
		(pt 0 32)
		(input)
		(text "RESET_DO" (rect 0 0 62 14)(font "Arial" (font_size 8)))
		(text "RESET_DO" (rect 21 24 83 38)(font "Arial" (font_size 8)))
		(line (pt 0 32)(pt 16 32)(line_width 1))
	)
	(port
		(pt 0 208)
		(input)
		(text "ENMUL" (rect 0 0 40 14)(font "Arial" (font_size 8)))
		(text "ENMUL" (rect 21 200 61 214)(font "Arial" (font_size 8)))
		(line (pt 0 208)(pt 16 208)(line_width 1))
	)
	(port
		(pt 0 224)
		(input)
		(text "SOUND" (rect 0 0 42 14)(font "Arial" (font_size 8)))
		(text "SOUND" (rect 21 216 63 230)(font "Arial" (font_size 8)))
		(line (pt 0 224)(pt 16 224)(line_width 1))
	)
	(port
		(pt 224 32)
		(output)
		(text "RESULT_B[15..0]" (rect 0 0 96 14)(font "Arial" (font_size 8)))
		(text "RESULT_B[15..0]" (rect 107 27 203 41)(font "Arial" (font_size 8)))
		(line (pt 224 32)(pt 208 32)(line_width 3))
	)
	(port
		(pt 224 48)
		(output)
		(text "RESULT_A[15..0]" (rect 0 0 97 14)(font "Arial" (font_size 8)))
		(text "RESULT_A[15..0]" (rect 106 43 203 57)(font "Arial" (font_size 8)))
		(line (pt 224 48)(pt 208 48)(line_width 3))
	)
	(drawing
		(rectangle (rect 16 16 208 240)(line_width 1))
	)
)
(connector
	(pt 520 48)
	(pt 904 48)
)
(connector
	(pt 520 64)
	(pt 904 64)
	(bus)
)
(connector
	(pt 328 64)
	(pt 240 64)
	(bus)
)
(connector
	(pt 328 48)
	(pt 240 48)
)
(connector
	(pt 312 224)
	(pt 312 112)
)
(connector
	(pt 328 112)
	(pt 312 112)
)
(connector
	(pt 312 112)
	(pt 240 112)
)
(connector
	(pt 296 240)
	(pt 296 128)
)
(connector
	(pt 328 128)
	(pt 296 128)
)
(connector
	(pt 296 128)
	(pt 240 128)
)
(connector
	(pt 520 112)
	(pt 576 112)
)
(connector
	(pt 520 128)
	(pt 576 128)
)
(connector
	(pt 520 144)
	(pt 576 144)
)
(connector
	(pt 520 160)
	(pt 576 160)
)
(connector
	(pt 520 176)
	(pt 576 176)
)
(connector
	(pt 312 224)
	(pt 576 224)
)
(connector
	(pt 296 240)
	(pt 576 240)
)
(connector
	(pt 248 256)
	(pt 576 256)
	(bus)
)
(connector
	(pt 248 288)
	(pt 576 288)
)
(connector
	(pt 800 112)
	(pt 904 112)
	(bus)
)
(connector
	(pt 800 128)
	(pt 904 128)
	(bus)
)
(connector
	(pt 248 304)
	(pt 576 304)
)
(junction (pt 312 112))
(junction (pt 296 128))
