/*
WARNING: Do NOT edit the input and output ports in this file in a text
editor if you plan to continue editing the block that represents it in
the Block Editor! File corruption is VERY likely to occur.
*/
/*
Copyright (C) 1991-2008 Altera Corporation
Your use of Altera Corporation's design tools, logic functions 
and other software and tools, and its AMPP partner logic 
functions, and any output files from any of the foregoing 
(including device programming or simulation files), and any 
associated documentation or information are expressly subject 
to the terms and conditions of the Altera Program License 
Subscription Agreement, Altera MegaCore Function License 
Agreement, or other applicable license agreement, including, 
without limitation, that your use is for the sole purpose of 
programming logic devices manufactured by Altera and sold by 
Altera or its authorized distributors.  Please refer to the 
applicable agreement for further details.
*/
//#pragma file_not_in_maxplusii_format
(header "graphic" (version "1.3"))
(pin
	(input)
	(rect 1328 192 1496 208)
	(text "INPUT" (rect 133 0 161 10)(font "Arial" (font_size 6)))
	(text "50Mhz_clk" (rect 5 0 55 12)(font "Arial" ))
	(pt 168 8)
	(drawing
		(line (pt 92 12)(pt 117 12)(line_width 1))
		(line (pt 92 4)(pt 117 4)(line_width 1))
		(line (pt 121 8)(pt 168 8)(line_width 1))
		(line (pt 92 12)(pt 92 4)(line_width 1))
		(line (pt 117 4)(pt 121 8)(line_width 1))
		(line (pt 117 12)(pt 121 8)(line_width 1))
	)
	(text "VCC" (rect 136 7 156 17)(font "Arial" (font_size 6)))
	(annotation_block (location)(rect 256 192 304 208))
)
(pin
	(input)
	(rect 1320 344 1496 360)
	(text "INPUT" (rect 141 0 169 10)(font "Arial" (font_size 6)))
	(text "ext_async_nreset" (rect 5 0 93 12)(font "Arial" ))
	(pt 176 8)
	(drawing
		(line (pt 100 12)(pt 125 12)(line_width 1))
		(line (pt 100 4)(pt 125 4)(line_width 1))
		(line (pt 129 8)(pt 176 8)(line_width 1))
		(line (pt 100 12)(pt 100 4)(line_width 1))
		(line (pt 125 4)(pt 129 8)(line_width 1))
		(line (pt 125 12)(pt 129 8)(line_width 1))
	)
	(text "VCC" (rect 144 7 164 17)(font "Arial" (font_size 6)))
)
(pin
	(output)
	(rect 2952 360 3147 376)
	(text "OUTPUT" (rect 1 0 39 10)(font "Arial" (font_size 6)))
	(text "frameClock_44k1Hz" (rect 90 0 190 12)(font "Arial" ))
	(pt 0 8)
	(drawing
		(line (pt 0 8)(pt 52 8)(line_width 1))
		(line (pt 52 4)(pt 78 4)(line_width 1))
		(line (pt 52 12)(pt 78 12)(line_width 1))
		(line (pt 52 12)(pt 52 4)(line_width 1))
		(line (pt 78 4)(pt 82 8)(line_width 1))
		(line (pt 82 8)(pt 78 12)(line_width 1))
		(line (pt 78 12)(pt 82 8)(line_width 1))
	)
)
(pin
	(output)
	(rect 2952 328 3185 344)
	(text "OUTPUT" (rect 1 0 39 10)(font "Arial" (font_size 6)))
	(text "masterAudioClock_11M29hz" (rect 90 0 228 12)(font "Arial" ))
	(pt 0 8)
	(drawing
		(line (pt 0 8)(pt 52 8)(line_width 1))
		(line (pt 52 4)(pt 78 4)(line_width 1))
		(line (pt 52 12)(pt 78 12)(line_width 1))
		(line (pt 52 12)(pt 52 4)(line_width 1))
		(line (pt 78 4)(pt 82 8)(line_width 1))
		(line (pt 82 8)(pt 78 12)(line_width 1))
		(line (pt 78 12)(pt 82 8)(line_width 1))
	)
	(annotation_block (location)(rect 3128 232 3176 248))
)
(pin
	(output)
	(rect 2952 464 3128 480)
	(text "OUTPUT" (rect 1 0 39 10)(font "Arial" (font_size 6)))
	(text "async_nreset" (rect 90 0 157 12)(font "Arial" ))
	(pt 0 8)
	(drawing
		(line (pt 0 8)(pt 52 8)(line_width 1))
		(line (pt 52 4)(pt 78 4)(line_width 1))
		(line (pt 52 12)(pt 78 12)(line_width 1))
		(line (pt 52 12)(pt 52 4)(line_width 1))
		(line (pt 78 4)(pt 82 8)(line_width 1))
		(line (pt 82 8)(pt 78 12)(line_width 1))
		(line (pt 78 12)(pt 82 8)(line_width 1))
	)
)
(symbol
	(rect 1696 248 1728 296)
	(text "NOT" (rect 0 27 10 47)(font "Arial" (font_size 6))(vertical))
	(text "inst26" (rect 21 16 33 45)(font "Arial" )(vertical))
	(port
		(pt 16 48)
		(input)
		(text "IN" (rect 2 7 13 19)(font "Courier New" (bold))(invisible))
		(text "IN" (rect 7 35 19 46)(font "Courier New" (bold))(vertical)(invisible))
		(line (pt 16 48)(pt 16 35)(line_width 1))
	)
	(port
		(pt 16 0)
		(output)
		(text "OUT" (rect 32 7 49 19)(font "Courier New" (bold))(invisible))
		(text "OUT" (rect 7 -1 19 16)(font "Courier New" (bold))(vertical)(invisible))
		(line (pt 16 9)(pt 16 0)(line_width 1))
	)
	(drawing
		(line (pt 25 35)(pt 7 35)(line_width 1))
		(line (pt 7 35)(pt 16 17)(line_width 1))
		(line (pt 25 35)(pt 16 17)(line_width 1))
		(circle (rect 12 9 20 17)(line_width 1))
	)
	(rotate90)
)
(symbol
	(rect 2296 232 2328 248)
	(text "VCC" (rect 7 0 27 10)(font "Arial" (font_size 6)))
	(text "inst24" (rect 3 5 32 17)(font "Arial" )(invisible))
	(port
		(pt 16 16)
		(output)
		(text "1" (rect 19 7 24 19)(font "Courier New" (bold))(invisible))
		(text "1" (rect 19 7 24 19)(font "Courier New" (bold))(invisible))
		(line (pt 16 16)(pt 16 8)(line_width 1))
	)
	(drawing
		(line (pt 8 8)(pt 24 8)(line_width 1))
	)
)
(symbol
	(rect 2344 216 2376 232)
	(text "VCC" (rect 7 0 27 10)(font "Arial" (font_size 6)))
	(text "inst29" (rect 3 5 32 17)(font "Arial" )(invisible))
	(port
		(pt 16 16)
		(output)
		(text "1" (rect 19 7 24 19)(font "Courier New" (bold))(invisible))
		(text "1" (rect 19 7 24 19)(font "Courier New" (bold))(invisible))
		(line (pt 16 16)(pt 16 8)(line_width 1))
	)
	(drawing
		(line (pt 8 8)(pt 24 8)(line_width 1))
	)
)
(symbol
	(rect 2800 192 2864 272)
	(text "DFF" (rect 1 0 19 10)(font "Arial" (font_size 6)))
	(text "inst30" (rect 3 68 32 80)(font "Arial" ))
	(port
		(pt 32 80)
		(input)
		(text "CLRN" (rect 21 59 44 71)(font "Courier New" (bold)))
		(text "CLRN" (rect 21 58 44 70)(font "Courier New" (bold)))
		(line (pt 32 80)(pt 32 76)(line_width 1))
	)
	(port
		(pt 0 40)
		(input)
		(text "CLK" (rect 3 29 20 41)(font "Courier New" (bold))(invisible))
		(text "CLK" (rect 3 29 20 41)(font "Courier New" (bold))(invisible))
		(line (pt 0 40)(pt 12 40)(line_width 1))
	)
	(port
		(pt 0 24)
		(input)
		(text "D" (rect 14 20 19 32)(font "Courier New" (bold)))
		(text "D" (rect 14 20 19 32)(font "Courier New" (bold)))
		(line (pt 0 24)(pt 12 24)(line_width 1))
	)
	(port
		(pt 32 0)
		(input)
		(text "PRN" (rect 24 13 41 25)(font "Courier New" (bold)))
		(text "PRN" (rect 24 11 41 23)(font "Courier New" (bold)))
		(line (pt 32 4)(pt 32 0)(line_width 1))
	)
	(port
		(pt 64 24)
		(output)
		(text "Q" (rect 45 20 50 32)(font "Courier New" (bold)))
		(text "Q" (rect 45 20 50 32)(font "Courier New" (bold)))
		(line (pt 52 24)(pt 64 24)(line_width 1))
	)
	(drawing
		(line (pt 12 12)(pt 52 12)(line_width 1))
		(line (pt 12 68)(pt 52 68)(line_width 1))
		(line (pt 52 68)(pt 52 12)(line_width 1))
		(line (pt 12 68)(pt 12 12)(line_width 1))
		(line (pt 19 40)(pt 12 47)(line_width 1))
		(line (pt 12 32)(pt 20 40)(line_width 1))
		(circle (rect 28 4 36 12)(line_width 1))
		(circle (rect 28 68 36 76)(line_width 1))
	)
)
(symbol
	(rect 2680 192 2744 240)
	(text "XOR" (rect 1 0 21 10)(font "Arial" (font_size 6)))
	(text "inst32" (rect 3 37 32 49)(font "Arial" ))
	(port
		(pt 0 16)
		(input)
		(text "IN1" (rect 2 7 19 19)(font "Courier New" (bold))(invisible))
		(text "IN1" (rect 2 7 19 19)(font "Courier New" (bold))(invisible))
		(line (pt 0 16)(pt 11 16)(line_width 1))
	)
	(port
		(pt 0 32)
		(input)
		(text "IN2" (rect 2 23 19 35)(font "Courier New" (bold))(invisible))
		(text "IN2" (rect 2 23 19 35)(font "Courier New" (bold))(invisible))
		(line (pt 0 32)(pt 11 32)(line_width 1))
	)
	(port
		(pt 64 24)
		(output)
		(text "OUT" (rect 48 15 65 27)(font "Courier New" (bold))(invisible))
		(text "OUT" (rect 48 15 65 27)(font "Courier New" (bold))(invisible))
		(line (pt 49 24)(pt 64 24)(line_width 1))
	)
	(drawing
		(line (pt 14 13)(pt 25 13)(line_width 1))
		(line (pt 14 36)(pt 25 36)(line_width 1))
		(arc (pt 7 29)(pt 7 19)(rect -14 8 19 41)(line_width 1))
		(arc (pt 49 24)(pt 25 13)(rect -6 13 57 76)(line_width 1))
		(arc (pt 25 35)(pt 49 24)(rect -6 -27 57 36)(line_width 1))
		(arc (pt 8 36)(pt 8 12)(rect -21 7 14 42)(line_width 1))
	)
)
(symbol
	(rect 2440 168 2592 296)
	(text "wb_block_oneShotDownCounter" (rect 5 0 161 12)(font "Arial" ))
	(text "inst2" (rect 8 112 31 124)(font "Arial" ))
	(port
		(pt 0 32)
		(input)
		(text "clk" (rect 0 0 14 12)(font "Arial" ))
		(text "clk" (rect 21 27 35 39)(font "Arial" ))
		(line (pt 0 32)(pt 16 32)(line_width 1))
	)
	(port
		(pt 0 48)
		(input)
		(text "async_nreset" (rect 0 0 67 12)(font "Arial" ))
		(text "async_nreset" (rect 21 43 88 55)(font "Arial" ))
		(line (pt 0 48)(pt 16 48)(line_width 1))
	)
	(port
		(pt 0 64)
		(input)
		(text "le" (rect 0 0 8 12)(font "Arial" ))
		(text "le" (rect 21 59 29 71)(font "Arial" ))
		(line (pt 0 64)(pt 16 64)(line_width 1))
	)
	(port
		(pt 0 80)
		(input)
		(text "ce" (rect 0 0 11 12)(font "Arial" ))
		(text "ce" (rect 21 75 32 87)(font "Arial" ))
		(line (pt 0 80)(pt 16 80)(line_width 1))
	)
	(port
		(pt 0 96)
		(input)
		(text "d[wordsize-1..0]" (rect 0 0 76 12)(font "Arial" ))
		(text "d[wordsize-1..0]" (rect 21 91 97 103)(font "Arial" ))
		(line (pt 0 96)(pt 16 96)(line_width 3))
	)
	(port
		(pt 152 32)
		(output)
		(text "zero" (rect 0 0 20 12)(font "Arial" ))
		(text "zero" (rect 111 27 131 39)(font "Arial" ))
		(line (pt 152 32)(pt 136 32)(line_width 1))
	)
	(parameter
		"wordsize"
		"7"
		""
	)
	(drawing
		(rectangle (rect 16 16 136 112)(line_width 1))
	)
	(annotation_block (parameter)(rect 2464 296 2568 328))
)
(symbol
	(rect 1752 136 2056 296)
	(text "wb_clkGeneratorPLL" (rect 92 0 233 16)(font "Arial" (font_size 10)))
	(text "inst1" (rect 8 144 31 156)(font "Arial" ))
	(port
		(pt 0 64)
		(input)
		(text "inclk0" (rect 0 0 31 14)(font "Arial" (font_size 8)))
		(text "inclk0" (rect 4 51 35 65)(font "Arial" (font_size 8)))
		(line (pt 0 64)(pt 48 64)(line_width 1))
	)
	(port
		(pt 0 80)
		(input)
		(text "areset" (rect 0 0 36 14)(font "Arial" (font_size 8)))
		(text "areset" (rect 4 67 40 81)(font "Arial" (font_size 8)))
		(line (pt 0 80)(pt 48 80)(line_width 1))
	)
	(port
		(pt 304 64)
		(output)
		(text "c0" (rect 0 0 14 14)(font "Arial" (font_size 8)))
		(text "c0" (rect 289 51 303 65)(font "Arial" (font_size 8)))
		(line (pt 304 64)(pt 256 64)(line_width 1))
	)
	(port
		(pt 304 80)
		(output)
		(text "locked" (rect 0 0 36 14)(font "Arial" (font_size 8)))
		(text "locked" (rect 270 67 306 81)(font "Arial" (font_size 8)))
		(line (pt 304 80)(pt 256 80)(line_width 1))
	)
	(drawing
		(text "Cyclone II" (rect 247 145 298 157)(font "Arial" ))
		(text "inclk0 frequency: 50.000 MHz" (rect 58 59 205 71)(font "Arial" ))
		(text "Operation Mode: Normal" (rect 58 73 177 85)(font "Arial" ))
		(text "Clk " (rect 59 96 79 108)(font "Arial" ))
		(text "Ratio" (rect 101 96 126 108)(font "Arial" ))
		(text "Ph (dg)" (rect 149 96 184 108)(font "Arial" ))
		(text "DC (%)" (rect 184 96 220 108)(font "Arial" ))
		(text "c0" (rect 62 111 73 123)(font "Arial" ))
		(text "112829/500000" (rect 81 111 155 123)(font "Arial" ))
		(text "0.00" (rect 155 111 176 123)(font "Arial" ))
		(text "50.00" (rect 188 111 215 123)(font "Arial" ))
		(line (pt 0 0)(pt 305 0)(line_width 1))
		(line (pt 305 0)(pt 305 161)(line_width 1))
		(line (pt 0 161)(pt 305 161)(line_width 1))
		(line (pt 0 0)(pt 0 161)(line_width 1))
		(line (pt 56 94)(pt 217 94)(line_width 1))
		(line (pt 56 108)(pt 217 108)(line_width 1))
		(line (pt 56 123)(pt 217 123)(line_width 1))
		(line (pt 56 94)(pt 56 123)(line_width 1))
		(line (pt 78 94)(pt 78 123)(line_width 3))
		(line (pt 146 94)(pt 146 123)(line_width 3))
		(line (pt 181 94)(pt 181 123)(line_width 3))
		(line (pt 216 94)(pt 216 123)(line_width 1))
		(line (pt 48 48)(pt 256 48)(line_width 1))
		(line (pt 256 48)(pt 256 144)(line_width 1))
		(line (pt 48 144)(pt 256 144)(line_width 1))
		(line (pt 48 48)(pt 48 144)(line_width 1))
	)
)
(symbol
	(rect 1632 328 1696 408)
	(text "DFF" (rect 1 0 19 10)(font "Arial" (font_size 6)))
	(text "inst" (rect 3 68 20 80)(font "Arial" ))
	(port
		(pt 32 80)
		(input)
		(text "CLRN" (rect 21 59 44 71)(font "Courier New" (bold)))
		(text "CLRN" (rect 21 58 44 70)(font "Courier New" (bold)))
		(line (pt 32 80)(pt 32 76)(line_width 1))
	)
	(port
		(pt 0 40)
		(input)
		(text "CLK" (rect 3 29 20 41)(font "Courier New" (bold))(invisible))
		(text "CLK" (rect 3 29 20 41)(font "Courier New" (bold))(invisible))
		(line (pt 0 40)(pt 12 40)(line_width 1))
	)
	(port
		(pt 0 24)
		(input)
		(text "D" (rect 14 20 19 32)(font "Courier New" (bold)))
		(text "D" (rect 14 20 19 32)(font "Courier New" (bold)))
		(line (pt 0 24)(pt 12 24)(line_width 1))
	)
	(port
		(pt 32 0)
		(input)
		(text "PRN" (rect 24 13 41 25)(font "Courier New" (bold)))
		(text "PRN" (rect 24 11 41 23)(font "Courier New" (bold)))
		(line (pt 32 4)(pt 32 0)(line_width 1))
	)
	(port
		(pt 64 24)
		(output)
		(text "Q" (rect 45 20 50 32)(font "Courier New" (bold)))
		(text "Q" (rect 45 20 50 32)(font "Courier New" (bold)))
		(line (pt 52 24)(pt 64 24)(line_width 1))
	)
	(drawing
		(line (pt 12 12)(pt 52 12)(line_width 1))
		(line (pt 12 68)(pt 52 68)(line_width 1))
		(line (pt 52 68)(pt 52 12)(line_width 1))
		(line (pt 12 68)(pt 12 12)(line_width 1))
		(line (pt 19 40)(pt 12 47)(line_width 1))
		(line (pt 12 32)(pt 20 40)(line_width 1))
		(circle (rect 28 4 36 12)(line_width 1))
		(circle (rect 28 68 36 76)(line_width 1))
	)
)
(symbol
	(rect 1504 216 1536 264)
	(text "NOT" (rect 22 1 32 21)(font "Arial" (font_size 6))(vertical))
	(text "inst27" (rect -1 3 11 32)(font "Arial" )(vertical))
	(port
		(pt 16 0)
		(input)
		(text "IN" (rect 2 7 13 19)(font "Courier New" (bold))(invisible))
		(text "IN" (rect 13 2 25 13)(font "Courier New" (bold))(vertical)(invisible))
		(line (pt 16 0)(pt 16 13)(line_width 1))
	)
	(port
		(pt 16 48)
		(output)
		(text "OUT" (rect 32 7 49 19)(font "Courier New" (bold))(invisible))
		(text "OUT" (rect 13 32 25 49)(font "Courier New" (bold))(vertical)(invisible))
		(line (pt 16 39)(pt 16 48)(line_width 1))
	)
	(drawing
		(line (pt 7 13)(pt 25 13)(line_width 1))
		(line (pt 25 13)(pt 16 31)(line_width 1))
		(line (pt 7 13)(pt 16 31)(line_width 1))
		(circle (rect 12 31 20 39)(line_width 1))
	)
	(rotate270)
)
(symbol
	(rect 1536 328 1600 408)
	(text "DFF" (rect 1 0 19 10)(font "Arial" (font_size 6)))
	(text "inst3" (rect 3 68 26 80)(font "Arial" ))
	(port
		(pt 32 80)
		(input)
		(text "CLRN" (rect 21 59 44 71)(font "Courier New" (bold)))
		(text "CLRN" (rect 21 58 44 70)(font "Courier New" (bold)))
		(line (pt 32 80)(pt 32 76)(line_width 1))
	)
	(port
		(pt 0 40)
		(input)
		(text "CLK" (rect 3 29 20 41)(font "Courier New" (bold))(invisible))
		(text "CLK" (rect 3 29 20 41)(font "Courier New" (bold))(invisible))
		(line (pt 0 40)(pt 12 40)(line_width 1))
	)
	(port
		(pt 0 24)
		(input)
		(text "D" (rect 14 20 19 32)(font "Courier New" (bold)))
		(text "D" (rect 14 20 19 32)(font "Courier New" (bold)))
		(line (pt 0 24)(pt 12 24)(line_width 1))
	)
	(port
		(pt 32 0)
		(input)
		(text "PRN" (rect 24 13 41 25)(font "Courier New" (bold)))
		(text "PRN" (rect 24 11 41 23)(font "Courier New" (bold)))
		(line (pt 32 4)(pt 32 0)(line_width 1))
	)
	(port
		(pt 64 24)
		(output)
		(text "Q" (rect 45 20 50 32)(font "Courier New" (bold)))
		(text "Q" (rect 45 20 50 32)(font "Courier New" (bold)))
		(line (pt 52 24)(pt 64 24)(line_width 1))
	)
	(drawing
		(line (pt 12 12)(pt 52 12)(line_width 1))
		(line (pt 12 68)(pt 52 68)(line_width 1))
		(line (pt 52 68)(pt 52 12)(line_width 1))
		(line (pt 12 68)(pt 12 12)(line_width 1))
		(line (pt 19 40)(pt 12 47)(line_width 1))
		(line (pt 12 32)(pt 20 40)(line_width 1))
		(circle (rect 28 4 36 12)(line_width 1))
		(circle (rect 28 68 36 76)(line_width 1))
	)
)
(symbol
	(rect 2200 328 2264 408)
	(text "DFF" (rect 1 0 19 10)(font "Arial" (font_size 6)))
	(text "inst4" (rect 3 68 26 80)(font "Arial" ))
	(port
		(pt 32 80)
		(input)
		(text "CLRN" (rect 21 59 44 71)(font "Courier New" (bold)))
		(text "CLRN" (rect 21 58 44 70)(font "Courier New" (bold)))
		(line (pt 32 80)(pt 32 76)(line_width 1))
	)
	(port
		(pt 0 40)
		(input)
		(text "CLK" (rect 3 29 20 41)(font "Courier New" (bold))(invisible))
		(text "CLK" (rect 3 29 20 41)(font "Courier New" (bold))(invisible))
		(line (pt 0 40)(pt 12 40)(line_width 1))
	)
	(port
		(pt 0 24)
		(input)
		(text "D" (rect 14 20 19 32)(font "Courier New" (bold)))
		(text "D" (rect 14 20 19 32)(font "Courier New" (bold)))
		(line (pt 0 24)(pt 12 24)(line_width 1))
	)
	(port
		(pt 32 0)
		(input)
		(text "PRN" (rect 24 13 41 25)(font "Courier New" (bold)))
		(text "PRN" (rect 24 11 41 23)(font "Courier New" (bold)))
		(line (pt 32 4)(pt 32 0)(line_width 1))
	)
	(port
		(pt 64 24)
		(output)
		(text "Q" (rect 45 20 50 32)(font "Courier New" (bold)))
		(text "Q" (rect 45 20 50 32)(font "Courier New" (bold)))
		(line (pt 52 24)(pt 64 24)(line_width 1))
	)
	(drawing
		(line (pt 12 12)(pt 52 12)(line_width 1))
		(line (pt 12 68)(pt 52 68)(line_width 1))
		(line (pt 52 68)(pt 52 12)(line_width 1))
		(line (pt 12 68)(pt 12 12)(line_width 1))
		(line (pt 19 40)(pt 12 47)(line_width 1))
		(line (pt 12 32)(pt 20 40)(line_width 1))
		(circle (rect 28 4 36 12)(line_width 1))
		(circle (rect 28 68 36 76)(line_width 1))
	)
)
(symbol
	(rect 2168 248 2200 296)
	(text "NOT" (rect 22 1 32 21)(font "Arial" (font_size 6))(vertical))
	(text "inst28" (rect -1 3 11 32)(font "Arial" )(vertical))
	(port
		(pt 16 0)
		(input)
		(text "IN" (rect 2 7 13 19)(font "Courier New" (bold))(invisible))
		(text "IN" (rect 13 2 25 13)(font "Courier New" (bold))(vertical)(invisible))
		(line (pt 16 0)(pt 16 13)(line_width 1))
	)
	(port
		(pt 16 48)
		(output)
		(text "OUT" (rect 32 7 49 19)(font "Courier New" (bold))(invisible))
		(text "OUT" (rect 13 32 25 49)(font "Courier New" (bold))(vertical)(invisible))
		(line (pt 16 39)(pt 16 48)(line_width 1))
	)
	(drawing
		(line (pt 7 13)(pt 25 13)(line_width 1))
		(line (pt 25 13)(pt 16 31)(line_width 1))
		(line (pt 7 13)(pt 16 31)(line_width 1))
		(circle (rect 12 31 20 39)(line_width 1))
	)
	(rotate270)
)
(symbol
	(rect 2104 328 2168 408)
	(text "DFF" (rect 1 0 19 10)(font "Arial" (font_size 6)))
	(text "inst5" (rect 3 68 26 80)(font "Arial" ))
	(port
		(pt 32 80)
		(input)
		(text "CLRN" (rect 21 59 44 71)(font "Courier New" (bold)))
		(text "CLRN" (rect 21 58 44 70)(font "Courier New" (bold)))
		(line (pt 32 80)(pt 32 76)(line_width 1))
	)
	(port
		(pt 0 40)
		(input)
		(text "CLK" (rect 3 29 20 41)(font "Courier New" (bold))(invisible))
		(text "CLK" (rect 3 29 20 41)(font "Courier New" (bold))(invisible))
		(line (pt 0 40)(pt 12 40)(line_width 1))
	)
	(port
		(pt 0 24)
		(input)
		(text "D" (rect 14 20 19 32)(font "Courier New" (bold)))
		(text "D" (rect 14 20 19 32)(font "Courier New" (bold)))
		(line (pt 0 24)(pt 12 24)(line_width 1))
	)
	(port
		(pt 32 0)
		(input)
		(text "PRN" (rect 24 13 41 25)(font "Courier New" (bold)))
		(text "PRN" (rect 24 11 41 23)(font "Courier New" (bold)))
		(line (pt 32 4)(pt 32 0)(line_width 1))
	)
	(port
		(pt 64 24)
		(output)
		(text "Q" (rect 45 20 50 32)(font "Courier New" (bold)))
		(text "Q" (rect 45 20 50 32)(font "Courier New" (bold)))
		(line (pt 52 24)(pt 64 24)(line_width 1))
	)
	(drawing
		(line (pt 12 12)(pt 52 12)(line_width 1))
		(line (pt 12 68)(pt 52 68)(line_width 1))
		(line (pt 52 68)(pt 52 12)(line_width 1))
		(line (pt 12 68)(pt 12 12)(line_width 1))
		(line (pt 19 40)(pt 12 47)(line_width 1))
		(line (pt 12 32)(pt 20 40)(line_width 1))
		(circle (rect 28 4 36 12)(line_width 1))
		(circle (rect 28 68 36 76)(line_width 1))
	)
)
(symbol
	(rect 2656 448 2720 528)
	(text "DFF" (rect 1 0 19 10)(font "Arial" (font_size 6)))
	(text "inst6" (rect 3 68 26 80)(font "Arial" ))
	(port
		(pt 32 80)
		(input)
		(text "CLRN" (rect 21 59 44 71)(font "Courier New" (bold)))
		(text "CLRN" (rect 21 58 44 70)(font "Courier New" (bold)))
		(line (pt 32 80)(pt 32 76)(line_width 1))
	)
	(port
		(pt 0 40)
		(input)
		(text "CLK" (rect 3 29 20 41)(font "Courier New" (bold))(invisible))
		(text "CLK" (rect 3 29 20 41)(font "Courier New" (bold))(invisible))
		(line (pt 0 40)(pt 12 40)(line_width 1))
	)
	(port
		(pt 0 24)
		(input)
		(text "D" (rect 14 20 19 32)(font "Courier New" (bold)))
		(text "D" (rect 14 20 19 32)(font "Courier New" (bold)))
		(line (pt 0 24)(pt 12 24)(line_width 1))
	)
	(port
		(pt 32 0)
		(input)
		(text "PRN" (rect 24 13 41 25)(font "Courier New" (bold)))
		(text "PRN" (rect 24 11 41 23)(font "Courier New" (bold)))
		(line (pt 32 4)(pt 32 0)(line_width 1))
	)
	(port
		(pt 64 24)
		(output)
		(text "Q" (rect 45 20 50 32)(font "Courier New" (bold)))
		(text "Q" (rect 45 20 50 32)(font "Courier New" (bold)))
		(line (pt 52 24)(pt 64 24)(line_width 1))
	)
	(drawing
		(line (pt 12 12)(pt 52 12)(line_width 1))
		(line (pt 12 68)(pt 52 68)(line_width 1))
		(line (pt 52 68)(pt 52 12)(line_width 1))
		(line (pt 12 68)(pt 12 12)(line_width 1))
		(line (pt 19 40)(pt 12 47)(line_width 1))
		(line (pt 12 32)(pt 20 40)(line_width 1))
		(circle (rect 28 4 36 12)(line_width 1))
		(circle (rect 28 68 36 76)(line_width 1))
	)
)
(symbol
	(rect 2624 368 2656 416)
	(text "NOT" (rect 22 1 32 21)(font "Arial" (font_size 6))(vertical))
	(text "inst31" (rect -1 3 11 32)(font "Arial" )(vertical))
	(port
		(pt 16 0)
		(input)
		(text "IN" (rect 2 7 13 19)(font "Courier New" (bold))(invisible))
		(text "IN" (rect 13 2 25 13)(font "Courier New" (bold))(vertical)(invisible))
		(line (pt 16 0)(pt 16 13)(line_width 1))
	)
	(port
		(pt 16 48)
		(output)
		(text "OUT" (rect 32 7 49 19)(font "Courier New" (bold))(invisible))
		(text "OUT" (rect 13 32 25 49)(font "Courier New" (bold))(vertical)(invisible))
		(line (pt 16 39)(pt 16 48)(line_width 1))
	)
	(drawing
		(line (pt 7 13)(pt 25 13)(line_width 1))
		(line (pt 25 13)(pt 16 31)(line_width 1))
		(line (pt 7 13)(pt 16 31)(line_width 1))
		(circle (rect 12 31 20 39)(line_width 1))
	)
	(rotate270)
)
(symbol
	(rect 2560 448 2624 528)
	(text "DFF" (rect 1 0 19 10)(font "Arial" (font_size 6)))
	(text "inst7" (rect 3 68 26 80)(font "Arial" ))
	(port
		(pt 32 80)
		(input)
		(text "CLRN" (rect 21 59 44 71)(font "Courier New" (bold)))
		(text "CLRN" (rect 21 58 44 70)(font "Courier New" (bold)))
		(line (pt 32 80)(pt 32 76)(line_width 1))
	)
	(port
		(pt 0 40)
		(input)
		(text "CLK" (rect 3 29 20 41)(font "Courier New" (bold))(invisible))
		(text "CLK" (rect 3 29 20 41)(font "Courier New" (bold))(invisible))
		(line (pt 0 40)(pt 12 40)(line_width 1))
	)
	(port
		(pt 0 24)
		(input)
		(text "D" (rect 14 20 19 32)(font "Courier New" (bold)))
		(text "D" (rect 14 20 19 32)(font "Courier New" (bold)))
		(line (pt 0 24)(pt 12 24)(line_width 1))
	)
	(port
		(pt 32 0)
		(input)
		(text "PRN" (rect 24 13 41 25)(font "Courier New" (bold)))
		(text "PRN" (rect 24 11 41 23)(font "Courier New" (bold)))
		(line (pt 32 4)(pt 32 0)(line_width 1))
	)
	(port
		(pt 64 24)
		(output)
		(text "Q" (rect 45 20 50 32)(font "Courier New" (bold)))
		(text "Q" (rect 45 20 50 32)(font "Courier New" (bold)))
		(line (pt 52 24)(pt 64 24)(line_width 1))
	)
	(drawing
		(line (pt 12 12)(pt 52 12)(line_width 1))
		(line (pt 12 68)(pt 52 68)(line_width 1))
		(line (pt 52 68)(pt 52 12)(line_width 1))
		(line (pt 12 68)(pt 12 12)(line_width 1))
		(line (pt 19 40)(pt 12 47)(line_width 1))
		(line (pt 12 32)(pt 20 40)(line_width 1))
		(circle (rect 28 4 36 12)(line_width 1))
		(circle (rect 28 68 36 76)(line_width 1))
	)
)
(symbol
	(rect 2752 448 2816 528)
	(text "DFF" (rect 1 0 19 10)(font "Arial" (font_size 6)))
	(text "inst8" (rect 3 68 26 80)(font "Arial" ))
	(port
		(pt 32 80)
		(input)
		(text "CLRN" (rect 21 59 44 71)(font "Courier New" (bold)))
		(text "CLRN" (rect 21 58 44 70)(font "Courier New" (bold)))
		(line (pt 32 80)(pt 32 76)(line_width 1))
	)
	(port
		(pt 0 40)
		(input)
		(text "CLK" (rect 3 29 20 41)(font "Courier New" (bold))(invisible))
		(text "CLK" (rect 3 29 20 41)(font "Courier New" (bold))(invisible))
		(line (pt 0 40)(pt 12 40)(line_width 1))
	)
	(port
		(pt 0 24)
		(input)
		(text "D" (rect 14 20 19 32)(font "Courier New" (bold)))
		(text "D" (rect 14 20 19 32)(font "Courier New" (bold)))
		(line (pt 0 24)(pt 12 24)(line_width 1))
	)
	(port
		(pt 32 0)
		(input)
		(text "PRN" (rect 24 13 41 25)(font "Courier New" (bold)))
		(text "PRN" (rect 24 11 41 23)(font "Courier New" (bold)))
		(line (pt 32 4)(pt 32 0)(line_width 1))
	)
	(port
		(pt 64 24)
		(output)
		(text "Q" (rect 45 20 50 32)(font "Courier New" (bold)))
		(text "Q" (rect 45 20 50 32)(font "Courier New" (bold)))
		(line (pt 52 24)(pt 64 24)(line_width 1))
	)
	(drawing
		(line (pt 12 12)(pt 52 12)(line_width 1))
		(line (pt 12 68)(pt 52 68)(line_width 1))
		(line (pt 52 68)(pt 52 12)(line_width 1))
		(line (pt 12 68)(pt 12 12)(line_width 1))
		(line (pt 19 40)(pt 12 47)(line_width 1))
		(line (pt 12 32)(pt 20 40)(line_width 1))
		(circle (rect 28 4 36 12)(line_width 1))
		(circle (rect 28 68 36 76)(line_width 1))
	)
)
(connector
	(pt 2768 336)
	(pt 2768 232)
)
(connector
	(pt 2768 232)
	(pt 2800 232)
)
(connector
	(pt 2800 216)
	(pt 2744 216)
)
(connector
	(pt 2616 224)
	(pt 2680 224)
)
(connector
	(pt 2680 208)
	(pt 2640 208)
)
(connector
	(pt 2888 144)
	(pt 2640 144)
)
(connector
	(pt 2864 216)
	(pt 2888 216)
)
(connector
	(pt 2888 368)
	(pt 2952 368)
)
(connector
	(pt 2888 144)
	(pt 2888 216)
)
(connector
	(pt 2888 216)
	(pt 2888 368)
)
(connector
	(pt 2280 336)
	(pt 2768 336)
)
(connector
	(pt 2768 336)
	(pt 2952 336)
)
(connector
	(pt 2392 152)
	(pt 2616 152)
)
(connector
	(pt 2392 232)
	(pt 2440 232)
)
(connector
	(pt 2408 216)
	(pt 2440 216)
)
(connector
	(pt 2616 200)
	(pt 2592 200)
)
(connector
	(pt 2408 352)
	(pt 2408 216)
)
(connector
	(pt 2360 248)
	(pt 2440 248)
)
(connector
	(pt 2312 264)
	(pt 2440 264)
	(bus)
)
(connector
	(pt 2392 152)
	(pt 2392 232)
)
(connector
	(pt 2616 152)
	(pt 2616 200)
)
(connector
	(pt 2616 200)
	(pt 2616 224)
)
(connector
	(pt 2280 200)
	(pt 2280 336)
)
(connector
	(pt 2312 248)
	(pt 2312 264)
	(bus)
)
(connector
	(pt 2360 232)
	(pt 2360 248)
)
(connector
	(pt 2280 200)
	(pt 2440 200)
)
(connector
	(pt 1712 352)
	(pt 1712 296)
)
(connector
	(pt 1712 216)
	(pt 1712 248)
)
(connector
	(pt 1752 216)
	(pt 1712 216)
)
(connector
	(pt 1600 352)
	(pt 1632 352)
)
(connector
	(pt 1520 200)
	(pt 1520 216)
)
(connector
	(pt 1496 200)
	(pt 1520 200)
)
(connector
	(text "50_MHz_clock" (rect 1922 184 1992 196)(font "Arial" ))
	(pt 1520 200)
	(pt 1752 200)
)
(connector
	(pt 1520 368)
	(pt 1536 368)
)
(connector
	(pt 1632 368)
	(pt 1616 368)
)
(connector
	(pt 1616 368)
	(pt 1616 312)
)
(connector
	(pt 1616 312)
	(pt 1520 312)
)
(connector
	(pt 1520 264)
	(pt 1520 312)
)
(connector
	(pt 1520 312)
	(pt 1520 368)
)
(connector
	(pt 1496 352)
	(pt 1536 352)
)
(connector
	(pt 1696 352)
	(pt 1712 352)
)
(connector
	(pt 2832 272)
	(pt 2832 352)
)
(connector
	(pt 2088 368)
	(pt 2104 368)
)
(connector
	(pt 2200 368)
	(pt 2184 368)
)
(connector
	(pt 2088 312)
	(pt 2184 312)
)
(connector
	(pt 2184 200)
	(pt 2184 248)
)
(connector
	(pt 2264 352)
	(pt 2408 352)
)
(connector
	(pt 2056 200)
	(pt 2184 200)
)
(connector
	(pt 2184 200)
	(pt 2280 200)
)
(connector
	(pt 2088 312)
	(pt 2088 368)
)
(connector
	(pt 2104 352)
	(pt 2072 352)
)
(connector
	(pt 2072 352)
	(pt 2072 216)
)
(connector
	(pt 2072 216)
	(pt 2056 216)
)
(connector
	(pt 2184 296)
	(pt 2184 312)
)
(connector
	(pt 2168 352)
	(pt 2200 352)
)
(connector
	(pt 2544 488)
	(pt 2560 488)
)
(connector
	(pt 2656 488)
	(pt 2640 488)
)
(connector
	(pt 2544 432)
	(pt 2640 432)
)
(connector
	(pt 2544 432)
	(pt 2544 488)
)
(connector
	(pt 2640 416)
	(pt 2640 432)
)
(connector
	(pt 2640 432)
	(pt 2640 488)
)
(connector
	(pt 2624 472)
	(pt 2656 472)
)
(connector
	(pt 2640 144)
	(pt 2640 208)
)
(connector
	(pt 2640 208)
	(pt 2640 368)
)
(connector
	(pt 2528 472)
	(pt 2560 472)
)
(connector
	(pt 2528 472)
	(pt 2528 352)
)
(connector
	(pt 2408 352)
	(pt 2528 352)
)
(connector
	(pt 2528 352)
	(pt 2832 352)
)
(connector
	(pt 2720 472)
	(pt 2752 472)
)
(connector
	(pt 2752 488)
	(pt 2736 488)
)
(connector
	(pt 2736 488)
	(pt 2736 560)
)
(connector
	(pt 2736 560)
	(pt 2184 560)
)
(connector
	(pt 2184 312)
	(pt 2184 368)
)
(connector
	(pt 2184 368)
	(pt 2184 560)
)
(connector
	(pt 2816 472)
	(pt 2952 472)
)
(junction (pt 2768 336))
(junction (pt 2408 352))
(junction (pt 2888 216))
(junction (pt 2616 200))
(junction (pt 2280 200))
(junction (pt 1520 200))
(junction (pt 1520 312))
(junction (pt 2184 312))
(junction (pt 2184 200))
(junction (pt 2640 432))
(junction (pt 2640 208))
(junction (pt 2528 352))
(junction (pt 2184 368))
(text "Create an audio frame clock with 1/256th the frequency of the master audio clock. And with 50/50 duty cycle" (rect 2336 88 2956 102)(font "Arial" (font_size 8)))
(text "The PLL ffor creating the 11.2869Mhz (11.290323Mhz actual)  master audio clock, and the 12.5Mhz system clock for the I2C interface" (rect 1520 80 2278 94)(font "Arial" (font_size 8)))
(text "Ensures that no clock is outputed before the PLL" (rect 2064 128 2340 142)(font "Arial" (font_size 8)))
(text "has locked it's frequency." (rect 2064 144 2210 158)(font "Arial" (font_size 8)))
(text "Synkronisering av ekstern asynkron reset" (rect 1512 416 1750 430)(font "Arial" (font_size 8)))
(text "Synkronisering av intern asynkron reset" (rect 2080 416 2307 430)(font "Arial" (font_size 8)))
(text "Forsinkelse av intern synkronisert reset" (rect 2536 536 2761 550)(font "Arial" (font_size 8)))
